﻿username,name,email,password
00021635,SUSILAWATI THEN,-,88888635
00021636,BONG DJOKO BONGSO,-,88888636
00021637,EDWIN KURNIAWAN,0,88888637
00021649,ERICA ADELINE,-,88888649
00021650,ANDI HERFIDA ATTAS,-,88888650
00021652,WINANTI AYUNINGTYAS, S.SOS,winantiayunin@gmail.com,88888652
00021653,STANLEY MILIKAN,-,88888653
00021654,SUSY HARTONO SE,pricillasusy@yahoo.com,88888654
00021655,RUBBY HARTOYO,rubby_toyz@yahoo.com,88888655
00021656,SUGIARTO SANTOSO,-,88888656
00021657,HAIRUL ANAM,kanglung232@gmail.com,88888657
00021658,HENNRY NUSA SATRIA,ways2rome@gmail.com,88888658
00021659,HUI PHING,revinlay@gmail.com,88888659
00021660,AYU KUSUMANINGRUM,ayu10ar@yahoo.com,88888660
00021668,DESEMBEBY SURAMIN,-,88888668
00021669,ANDI EKA YUNITA DEVI TAWIL,andieka1677@gmail.com,88888669
00021670,RUTH ENDANG SIH MULYANI,0,88888670
00021683,UMAR SANTOSA,xxxxx,88888683
00021693,BAHARUDDIN,riricelllaponse@gmail.com,88888693
00021694,UNANG MASKUN,-,88888694
00021695,MAGDALENA,magda_mahir@yahoo.co.id,88888695
00021698,YOHAN TJENDRA,-,88888698
00021699,HARIYANTI POERBIANTARI,notaris.hariyanti@yahoo.co.id,88888699
00021701,A SYAMSI,ahmadsyamsi120@gmail.com,88888701
00021702,STEPHANIE F.HERMIJANTO,stephanie.hermijanto@gmail.com,88888702
00021704,RISNAYATI KARIM,-,88888704
00021705,DARWATI,hjdarwatispdi@gmail.com,88888705
00021717,MELINA KUSUMAH,0,88888717
00021734,SOEBOWO MUSA,soebowomusa@kiranresources.com,88888734
00021736,ICHA SANTOSO,-,88888736
00021738,HERU MURTIYONO,xxxx,88888738
00021743,SRI MAONAH RATNA DEWI,-,88888743
00021744,WILLY VIRGO,-,88888744
00021746,CHRISTINA HAKIM,-,88888746
00021749,NIONY SOEDARSO,-,88888749
00021750,LIDYA NORA TANDEAN SE,lidyanora_tandean@ymail.com,88888750
00021751,I.G.A.SURYA RUSMITA,-,88888751
00021752,LASTIKO NOVI BRAMANTYO,neeno_bramantyo@yahoo.com,88888752
00021753,MINAH,-,88888753
00021754,NATALIA PRASETYO,-,88888754
00021756,DWI CAHYA SUDRAJAT,dwi_cahyasudrajat@yahoo.com,88888756
00021758,WILLIAM HUSNI,0,88888758
00021761,ERLIN,-,88888761
00021764,HERMAN SUGIARTO,herman2503@hotmail.com,88888764
00021768,RIYAN ANGGA RAINALDO,reyconstantine@gmail.com,88888768
00021769,OENTOENG EDY DJATMIKO,oentoeng@gmail.com,88888769
00021770,DAVIED,-,88888770
00021771,RATNA KUSUMA,ratna.kusuma.ef@gmail.com,88888771
00021773,MUH IRSAN,-,88888773
00021776,JEANNY PATANGGU,-,88888776
00021778,NANIK CHRISTINE WIJAYA,nanikchristine@yahoo.com,88888778
00021779,TRIYONO,0,88888779
00021781,ALIYAH,-,88888781
00021795,MOHAMMAD ANDY SAPUTRA,-,88888795
00021797,KADIR,-,88888797
00021804,XENIA PRAWIRA,-,88888804
00021806,ANDYANTO KURNIAWAN ALIHADI,-,88888806
00021830,PENGKY LOARDY,-,88888830
00021831,WILIEM PRAYOGO,dianapra89@gmail.com,88888831
00021833,LIM SWI TIAU,-,88888833
00021835,SUSAN THERESIA,-,88888835
00021839,TURSINI PUDJIASTUTI,xxxxxx,88888839
00021840,HENRY KURNIAWAN,0,88888840
00021845,BOBY LAU,boby.lau8888@gmail.com,88888845
00021853,GUNAWAN, A.MD,-,88888853
00021855,RUDY YANG,-,88888855
00021860,SUWARYO,0,88888860
00021863,ALEXANDER TANJAYA,-,88888863
00021864,ERNIEWATY SEMIDJAJA,erniewatysemijaya@yahoo.co.id,88888864
00021865,JOHANNES IDRIS,idrisjohannes@yahoo.co.id,88888865
00021867,NURHAYA,-,88888867
00021873,ESTER NATALIA KATTANG,-,88888873
00021874,INDAHTATI WIDJAJADI,indahtati@yahoo.com,88888874
00021876,SITI MAEMUNAH,-,88888876
00021906,DEDY MUHARTADI,AP,dedymuhartadi@yahoo.com,88888906
00021907,INDRYA BINTANG R,-,88888907
00021910,LIE LIE FUN,-,88888910
00021912,NICODEMUS HAPSIANTO,-,88888912
00021915,APRILIA ROSNAELA,april.ar38@gmail.com,88888915
00021919,AGUS AMIR AR,-,88888919
00021921,ANNA NURHAJATI,-,88888921
00021923,BERLIANA LUMBAN TOBING,0,88888923
00021937,EFIE HANDOJO,-,88888937
00021938,LAY LIE TAN AL MARIA,www.pialietan.com,88888938
00021939,BENY KOSASIH,bennykosasih.bk@gmail.com,88888939
00021941,BUDYANTO SAPUTRA,kenzojoachim2017@gmail.com,88888941
00021942,YOLANDA YUSUF,-,88888942
00021945,AGUS SANTOSO,xxxxx,88888945
00021955,LOUSJE TANGKERE,-,88888955
00021957,RIFKI RUSDI,-,88888957
00021964,THERESIA TITUS,-,88888964
00021974,KWOK FA MIE,-,88888974
00021978,DONNY WIJAYA,xxx,88888978
00021980,AUGUSTINA MARIA SANTOSO,ginasantoso.07@gmail.com,88888980
00021983,TADEUS CHRISTIAN LIENJAYA,tadeuslienjaya@gmail.com,88888983
00021984,SUJONO NURSALIM,sujono.nursalim@infracom_tech.com,88888984
00021991,IR BUDIONO,puteramandiri_04@yahoo.com,88888991
00021997,RAYENDRA PRASETYA,-,88888997
00021999,LIANAWATI SETYO,-,88888999
00022001,OEY YAN TJENG,-,88888001
00022012,HENDRY AFRYADI,...,88888012
00022013,JULIE IRA SAPUTRA,-,88888013
00022023,AIN LAKUTU,ainlakutu14@gmail.com,88888023
00022024,GLENDY DHALIMARTA,glendee_87@hotmail.com,88888024
00022026,GITTY CRYSTALIKA,-,88888026
00022028,KITRIANA,kitriana@indolorry.co.id,88888028
00022029,HANTORO SULAKSONO,gad_toro@yahoo.co.id,88888029
00022030,RIKA PUSPITASARI,rikaz.puspitasari@gmail.com,88888030
00022032,LINDA DJURIAH,anissalamah30@gmail.com,88888032
00022035,F TOTOK SUMARDANA,-,88888035
00022040,SILVIA LIMOWA,-,88888040
00022041,SABRINA NATASYA SINAGA,-,88888041
00022042,HELMY,-,88888042
00022043,SITI AISYAH,-,88888043
00022044,SRI WAHYUNINGSIH,ningar549@gmail.com,88888044
00022047,DANIEL BUDIMAN,-,88888047
00022048,LALU LUKMAN,-,88888048
00022051,FANNY NIRMALA DJUNAIDA,-,88888051
00022066,M ADYA FIRMANSHA DILMY,-,88888066
00022067,RATNASARI YENI,ratnasariyeni@gmail.com,88888067
00022070,NOVAN BAYU TRIANGGO,novan.trianggo@indosuryafinance.com,88888070
00022073,SUMARSAM,sumarsam.s@yahoo.com,88888073
00022075,GARYANI JOHANA,-,88888075
00022077,PUTRA ANDALAN JAYA, PT,-,88888077
00022080,SAROTUN,-,88888080
00022082,ADE IRMA SAFITRI,adeirmasafitri@gmail.com,88888082
00022083,HERMAN,-,88888083
00022085,YAKOBUS ZAKARIAS YUNARYANTO,pt.setiagrahanusantara@gmail.com,88888085
00022087,SRI ASTUTI,tutihirota@gmail.com,88888087
00022090,PRISKA,-,88888090
00022092,KAROMAH,-,88888092
00022093,IVY LIMOWA,-,88888093
00022096,IE GOAT NIO,0,88888096
00022098,ANDHI ANGGORO,8andhianggoro19@gmail.com,88888098
00022099,WITA WITARSA WIJAYA,0,88888099
00022100,WIRIYANTO WIDJAJA,0,88888100
00022102,JENI SUMALATA,-,88888102
00022104,SURIADI,-,88888104
00022105,DAISY SOEHARJONO,-,88888105
00022109,RETNO YULIANTI,retno_yulianti@teleperformance.com,88888109
00022126,YULIANA TJAHJANA,0,88888126
00022127,MEIGAWATI TIKA,-,88888127
00022128,JENNY WIDAYATI PRADJONGGO,jennywpradjonggo@gmail.com,88888128
00022129,FELIX KURNIAWAN,tabungan surya,88888129
00022133,ZURYATISMA TUNA,zuryatisma@yahoo.co.id,88888133
00022134,YUDI ANDRIEANA,yudi.andrieana@gmail.com,88888134
00022135,PO LUN,-,88888135
00022143,YANNY SETIOWATY SUSANTO,setiowaty.yanny@gmail.com,88888143
00022147,WANDA ABRAHAM,wanda.abraham@indosuryafinance.com,88888147
00022149,FLORENCIA IRENA,-,88888149
00022150,DANIEL CANDRA,anwindboys@yahoo.com,88888150
00022151,RADEN SADEWO,rsadewo67@gmail.com,88888151
00022153,HENRY YAST,henry.yast@gmail.com,88888153
00022156,PHILIP APPOLONIUS,-,88888156
00022161,DEDDY SUPRIADI,liliansari.65@yahoo.co.id,88888161
00022163,ALIP ROMDONI,-,88888163
00022167,BAMBANG SUYATNO,bambangsuyatno67@gmail.com,88888167
00022168,RIANA,xxxxxx,88888168
00022169,HANDOKO TANOKO,-,88888169
00022181,WIYONO,awispd@gmail.com,88888181
00022199,IKA YULIATI,ika.yuliati@gmail.com,88888199
00022203,ENDANG SRI HARTATI,xxx,88888203
00022225,SIGIT YULIARTO ST,-,88888225
00022231,RIANA DARMADI,0,88888231
00022233,SRI KARSIAM,-,88888233
00022234,ADI YUNIANTO,adiyunia@yahoo.com,88888234
00022235,YU KONG MAO,-,88888235
00022246,HANDOYO,-,88888246
00022248,SUHARDI,-,88888248
00022251,YOPI SIMARGI,yopi.simargi@gmail.com,88888251
00022261,ANTON BUDIMAN,0,88888261
00022263,THERESIA,-,88888263
00022265,WIWIEK TJIPTANINGSIH,0,88888265
00022267,WIJANARKO SIGIT BASKORO,sigitbaskoro@yahoo.com,88888267
00022269,RENALDO MARBUN,renaldoskcjkt@gmail.com,88888269
00022275,IR.FERDINANDUS T MSI AK,-,88888275
00022278,IWAN SETIADI,0,88888278
00022279,ARIYANTO WIBOWO,ari.yantowibowo@yahoo.com,88888279
00022280,JONG SOEI KIAN,jong.soei.kian@yahoo.com,88888280
00022289,VAN SCHOOTE CHRISTIAN PIERRE B,christianvanschoote@gmail.com,88888289
00022292,AGUSTINA,-,88888292
00022293,H ENDANG ISMAIL,ptlaksanalimalima@gmail.com,88888293
00022294,ITA KRISTIANA,-,88888294
00022296,ANDRIAS TJONDRO,andreas.sby2@gmail.com,88888296
00022298,RICHARD YAURI TAHA,richard .yauri@gmail.com,88888298
00022299,DRS.SETIA BUDHI,-,88888299
00022305,LIAUW THU LIM,-,88888305
00022307,MARIA THELMA SOFIAN,-,88888307
00022308,INGE WIRIANA,ingewiriana22@yahoo.com,88888308
00022321,FRANSISKA DEWI,-,88888321
00022331,MOCHAMAD BABU SALAM,-,88888331
00022332,NOPA MAJUKA,andrian050984@gmail.com,88888332
00022335,NJAUW NJAU FIE,-,88888335
00022336,HENNY RITAWATY PELLEH,-,88888336
00022339,ABNER ALFRITS FRANSISKUS MANUEL SIKOPONG,-,88888339
00022341,BENEDIKTUS IRWAN MULYONO,benediktus.irwan@gmail.com,88888341
00022342,YANTI,-,88888342
00022343,GOUW SIE TJING,-,88888343
00022344,BILLY HOO,-,88888344
00022345,VIVI TANIA KRISTANTO,vitania888@yahoo.com,88888345
00022349,MARLYTA GALIH KUSUMA,marlyta.gunawan@gmail.com,88888349
00022353,DJONI TJIPTONINGTYAS,cacacantique@yahoo.com,88888353
00022362,FIRMAN, SE,-,88888362
00022381,AGUSTINA,-,88888381
00022385,MARIANA SOSANA SIBY,-,88888385
00022386,I KETUT WINAYA,iketutwinaya@gmail.com,88888386
00022387,DJUDJU DJUNAEDI,ddjunaedi@yahoo.com,88888387
00022390,SUPRIATI,supriati06021958@gmail.com,88888390
00022391,VIDA CHATRINA,vida.cathrine@gmail.com,88888391
00022406,PRATIWI A WIRAWAN SE,-,88888406
00022409,HERIADI LUBIS,-,88888409
00022412,ALFRIDA PATODING,-,88888412
00022413,BENNY TANU,0,88888413
00022415,NANI IRAWATI SURYA,-,88888415
00022416,LINDAWATY SUJONO,-,88888416
00022417,ROFIQ,-,88888417
00022432,ANDRY GUNAWAN SOPANDI,0,88888432
00022435,TITIN IDAMEINAR,titinidameinar@yahoo.com,88888435
00022439,JONG EVARIA LISDA,evemail_2000@yahoo.com,88888439
00022441,ERWIN YOGASWARA ABDILLAH,SE,-,88888441
00022446,DIANA LISDA,dianalisda7@gmail.com,88888446
00022449,JURIAH,-,88888449
00022458,BENYAMIN CHRISTIAN,0,88888458
00022459,ARYANTO PUTRA RUDOLF K,-,88888459
00022461,ZURNISAH,zurnisah.74@yahoo.com,88888461
00022462,CHRISTIN WITANTO,cwitanto@gmail.com,88888462
00022464,ANDI AULIA JUSMAN,-,88888464
00022470,ENALDI YUSRAN,enaldy.yusran@gmail.com,88888470
00022490,SUTINI,soetomobaru45@gmail.com,88888490
00022496,RUSLAN ROMLI,gadingberkahmandiri.pt@gmail.com,88888496
00022498,SUBDIANTO,raja.hanggara024@gmail.com,88888498
00022499,GLENN TJAHYA PUTRA,glenntjahya@gmail.com,88888499
00022500,EDY CHANDRA,-,88888500
00022504,JAMAL FAHMI BAZRI,-,88888504
00022506,LUSIANI,ms.lusiotnasus@hotmail.com,88888506
00022507,JULIANA SURJADINATA,-,88888507
00022508,GALIH IMAM EP,ap.tiket@yahoo.com,88888508
00022510,NELLY CHANDRA,0,88888510
00022514,DHARVIT WIJAYA MOKHTAR,-,88888514
00022522,ANDI TENRIANA AN,-,88888522
00022523,DEDEN SAEPUDIN,-,88888523
00022527,SHANTY DEWI, SH, M.KN,shantydewi28@gmail.com,88888527
00022529,CHRISTIAN ADI SUSANTO,christianadi053@gmail.com,88888529
00022534,NURUL FIQRIE HABIBAH,-,88888534
00022543,CINDY RANDING,tidak ada email,88888543
00022545,RUSTANDI SUHERMAWAN DR,rustandi_dr@yahoo.com,88888545
00022547,YURNALIS HADI,nalis.dewa1122@gmail.com,88888547
00022550,JONNY HIRA,-,88888550
00022554,SUKIRSO,sukirso.sukirso@yahoo.com,88888554
00022555,ALFINDA YANA AFRISTA,alfindafrista@gmail.com,88888555
00022556,ARIFIN SYAH,arifindo42@gmail.com,88888556
00022559,JULIANSJAH GOZALI,toko_abadi_90@yahoo.com,88888559
00022579,NUR FAUZI,-,88888579
00022585,RISTINA ATMANINGSIH,rustinaatmaningsih@bankbanten.co.id,88888585
00022588,ADELIA INDRIANI GUNAWAN,-,88888588
00022590,WENDRI PUTRA,wendriputra73@gmail.com,88888590
00022593,PAULUS DHARMAWIRJA,-,88888593
00022596,MILAWATI WAHYUASIH SH,milawati_wahyuasih@yahoo.com,88888596
00022599,JOELIANTO NOEGROHO,jnoegroho@gmail.com,88888599
00022600,RITA YANI,ritayaniangung@gmail.com,88888600
00022601,NG FUI TJUNG,-,88888601
00022602,FRANKY KUNARDI,franklin_frankrov@yahoo.com,88888602
00022604,NATALIA,-,88888604
00022605,JOHADI AKMAN,-,88888605
00022607,MAISYARAH,-,88888607
00022631,HADI SUSANTO,0,88888631
00022632,IRWAN,xxx,88888632
00022634,TETI SRI HANDAYANI,-,88888634
00022639,ABDUL SAMID,xxx,88888639
00022641,ANDREW PANGESTAN,andrewpangestan@gmail.com,88888641
00022642,M SUTANTO,-,88888642
00022643,ALVINA TANJUNG SARI,-,88888643
00022644,I GEDE SUENDRA,-,88888644
00022645,LIANAH,-,88888645
00022646,WAHYUDI,yudi_vitron79@yahoo.com,88888646
00022647,PHANG FI HOA,-,88888647
00022650,MOHAMMAD SUGIHARTO,sugiharto.m23@yahoo.com,88888650
00022651,STANLEY R.L SONDAKH,stanley.sondakh@yahoo.com,88888651
00022655,KWAN LIE DJU YENNY,-,88888655
00022658,SELFIANA LONA LEUWOL,-,88888658
00022663,TRY WIDIYONO,t.widiyono@yahoo.com,88888663
00022667,ADITYA HARSA WIDYATAMA,harsa@ahwgroup.com,88888667
00022671,RINA SAVISTA SAPUTRI,rinasavista99@gmail.com,88888671
00022682,DUMA ULIASIH ARITONANG,dumaaritra@yahoo.com,88888682
00022688,JANUARLIS HALIM,jan_h@halim.sakti.com,88888688
00022689,VERA HARIYANTO,hariyanyovera@yahoo.com,88888689
00022690,APRISYIANTO,santoapris@gmail.com,88888690
00022695,NI NYOMAN TRISNA DEWI ARIYANI,trisnadewi1992@gmail.com,88888695
00022700,RIDWAN RATE,notarisppatridwan@gmail.com,88888700
00022701,DR FENNY ELVINA RIDHO,fennyridho@gmail.com,88888701
00022722,MARRY KASEGER,-,88888722
00022729,STEFANUS,-,88888729
00022732,FX. FAFAN LUIKA,fafanluika57@gmail.com,88888732
00022735,MULJANINGSIH BUDHIWARDAJA,meyliemeylie@yahoo.com,88888735
00022737,OEI GIOK FA,oeigiok.fa@yahoo.com,88888737
00022748,SENIWATI,-,88888748
00022749,WENDY NOVANDA .A.LONA,wendy_lona@yahoo.com,88888749
00022750,MIMI MARIYANI,-,88888750
00022751,HERRY ISKANDAR,0,88888751
00022763,A YUN,djiekian9@gmail.com,88888763
00022767,ADITYO NUGROHO.D,-,88888767
00022768,AGIE ARIYONA,vipro@gmail.com,88888768
00022778,STANLEY AKERINA,-,88888778
00022779,AMAS SETIAWAN,antonsh00000@gmail.com,88888779
00022785,ANDREA HENDRAWAN,0,88888785
00022787,ROBIN JACKSON T,bintomo88@gmail.com,88888787
00022788,DEO SAVALAS,deosavalas@gmail.com,88888788
00022790,LILI KHALIFATUSSAADAH SE,-,88888790
00022796,RUDY,rudy.soeparman@interflour.com,88888796
00022801,JOHNNY WONGSO,-,88888801
00022803,FIRMAN SYAM,firmansyam@gmail.com,88888803
00022807,MATSEN TJANDRA,-,88888807
00022809,ELSYE RINA LATTU,-,88888809
00022810,ID ALIUL RIDHA ISWANTO,-,88888810
00022853,DALLIYANTI,dframpton36@gmail.com,88888853
00022864,DIANA ANGELINA,-,88888864
00022865,RULLY WIDJAYA,-,88888865
00022868,LENNY OR GEORGE SUTANTO,lenny.ang21@gmail.com,88888868
00022870,TINA TJHIN,-,88888870
00022871,MEIRA ASTRI,notarismeira@yahoo.co.id,88888871
00022874,RICO SETIAWAN,DRG,rico_drg@yahoo.com,88888874
00022875,KWA SO ING,-,88888875
00022879,MARIA YULITA HYDRALI,-,88888879
00022885,JEMMY NAZWAR,jemmynazwar79@gmail.com,88888885
00022892,GABRIELLA ANASTASIA WATULINGAS,-,88888892
00022940,INDAH DAMAYANI,indah.damayani78@gmail.com,88888940
00022942,HILDA KUSUMA WIJAYA,-,88888942
00022944,AGUS SRI WIDODO,0,88888944
00022945,DEISY IESJE RONDONUWU,-,88888945
00022952,BUDIANTO KWEK,budianto.kwek@yahoo.com,88888952
00022955,A. SUCI PURNAMA SARI,-,88888955
00022956,KIKI KURNIATI ST,kikikurniati348@gmail.com,88888956
00022958,FONITA,fonitapaula.fp@gmail.com,88888958
00022959,WANG CHUN CHIEH,-,88888959
00022960,CANNIAGO,cannijeven@gmail.com,88888960
00022961,HENNY WATY ASIKIN,0,88888961
00022962,WIRAWAN TANZIL,-,88888962
00022964,SJENNY SUSANA KAWILARANG,syen_onny@yahoo.co.id,88888964
00022974,SAWIAH,isawi.sawiah@ymail.com,88888974
00022975,PHIE MELLY,-,88888975
00023003,SAKAR SALIM,--,88888003
00023005,HENDRA SAPUTRA PRATOYO,-,88888005
00023006,MULIANA TEGUH,--,88888006
00023008,REGIALTO PURWANA,-,88888008
00023011,TANTOWIT,tantowit1067@gmail.com,88888011
00023012,TINA BUDHI NURYATINI A,tinabudhi28@gmail.com tinabudhi28@yahoo.com,88888012
00023014,ARIES EDHIE WIBOWO,-,88888014
00023016,HAMDAN MULJANA,-,88888016
00023019,TAN OEI DIE,-,88888019
00023021,KHO SU MING,-,88888021
00023023,SUSANTI,huisan333@yahoo.com,88888023
00023026,SOPHIE F RIADI,0,88888026
00023027,MELIANA BUDI SANTOSO,melianabudisantoso@gmail.com,88888027
00023028,UMAR AMIN,umaramin@gmail.com,88888028
00023030,ROOBIE,roobie_rayvan_yuanita@yahoo.com,88888030
00023031,RINA,-,88888031
00023041,IS CHRISTIA,0,88888041
00023042,NURWATI SUHAIMI,nurwati19@gmail.com,88888042
00023044,MUHAMMAD ASWIN,muhammadaswin88@yahoo.com,88888044
00023045,KALIM SK,kalim.gr@yahoo.com,88888045
00023046,THOMAS GOBINYONO,lancarbuana@gmail.com,88888046
00023051,ADITTA AYUNING DIAH S.SOS,-,88888051
00023055,DR DARMA PUTERA,darmaputera01@yahoo.com,88888055
00023058,LULLY FEBRIANA BOOR,pabriksandal@ymail.com,88888058
00023059,VARIA NIAGA NUSANTARA PT,-,88888059
00023063,ROHMATUL MUKHAYAROH,-,88888063
00023080,EKA NANDYTA HAPSARI,nandytahapsari@gmail.com,88888080
00023084,IRFAN SAFARUDIN,-,88888084
00023087,VIRGIA WIDYAWATI,virgia.robert@gmail.com,88888087
00023094,SOEKIMAN MARTOREDJO,-,88888094
00023099,MERRY GOE OR TEDDY GUNAWAN WIDJAJA,-,88888099
00023101,JAUW FELIX JAUWERISSA,-,88888101
00023102,HENDRA WIJAYA,-,88888102
00023106,OKTAVIA PURNAMA SARI,oktaviapurnama2017@gmail.com,88888106
00023107,MUHAMMAD FARUQ,faruq_muh63@gmail.com,88888107
00023113,RUDI MAHRUZAR DR,SPPD,-,88888113
00023114,HARI SUSANTO,-,88888114
00023123,LILYANTI SAHLI,-,88888123
00023124,THIO JEMI,jemi.geotek@gmail.com,88888124
00023127,INDRA CAHYA WISNU PRABAWA,indracahya912@gmail.com,88888127
00023129,ARIEF BUDIMAN,-,88888129
00023130,MUTIARA CITRA PUTRI TADJI,mutiaracitra944@gmail.com,88888130
00023133,ELISA HERMAYANTI,0,88888133
00023157,PAWAN NANDWANI,-,88888157
00023164,RABINDER SINGH,-,88888164
00023165,TJHIA BIE HIAN,-,88888165
00023167,ROBERT SUMENAP,robert.sumenap@yahoo.com,88888167
00023172,DANI KI,kiesapesonakiesafarm@gmail.com,88888172
00023173,YUSUF LINGGO WIBOWO,yusuf_wibowo@kamoro.com,88888173
00023178,JANNY,janny@gmail.com,88888178
00023179,MICHELLINA L TRIWARDHANY,michellina.triwardhany@danamon.co.id,88888179
00023186,HAYKEL WIRAWAN,haykel_wirawan@yahoo.co.id,88888186
00023187,KARYADI,info.greenrinjani@gmail.com,88888187
00023188,SUTRIANA ZEIN,...,88888188
00023200,SUPARMIN,LIONG,-,88888200
00023211,ZULAIHA,iajogel321@gmail.com,88888211
00023212,KUSNADI ALIM,kusnadisugiarto@yahoo.com,88888212
00023214,H. SUNTORO,h.soentoro69@gmail.com,88888214
00023216,SUKRI,-,88888216
00023223,DEBBY REYNATA,d.reynata@gmail.com,88888223
00023227,HARCHARAN SINGH,khalsindo@gmail.com,88888227
00023228,SHAHYOHAN JOHNNY,shahyohan.johnny@gmail.com,88888228
00023229,PT SINAR BERLIAN PUSAKA,-,88888229
00023230,RUDYANTO LIMANJAYA,0,88888230
00023231,PAULUS TRI AGUNG AMPERAWANTO,tajtex881@gmail.com,88888231
00023232,JIMMY RUMPUIN,-,88888232
00023233,DEVY HAPIDA,dehapida@gmail.com,88888233
00023234,ILLICA SANJAYA,snupiku@yahoo.com,88888234
00023239,VIKY ADERYN,-,88888239
00023243,DATU PARUNG RANTE TANDUNG,-,88888243
00023245,DWI ANGGRAINI,xxxxx,88888245
00023246,RIKRIK TRIAS GUNAWAN,rikrik.bahana@gmail.com,88888246
00023247,SAMSUL BACHRI SOAMOLE,-,88888247
00023250,SIOE MOEI,-,88888250
00023254,ANAT,-,88888254
00023255,JACINTA MARIA R DHARMA,-,88888255
00023257,IDA NURJANNAH,geoff@ptindiwi.com,88888257
00023262,BUSRIAL,-,88888262
00023264,REGGIE PURNAWAN,reggie.purnawan@lize.com,88888264
00023265,TAN EDDY SUWITO,ayungsuwito@gmail.com,88888265
00023268,ALOYSIUS CUCUN BUDI PRAKOSO,-,88888268
00023270,PUDJI AMIYANTO,0,88888270
00023271,NANCY NIRWANA,nancy.nirwana@yahoo.co.id,88888271
00023272,LINDA THERESIA,lindatheresia2610.lt@gmail.com,88888272
00023273,ACHMAD ALEQ HADI CHRIESTIYANTO,alexevolution1688@gmail.com,88888273
00023274,HENG BOEN LOEN,-,88888274
00023282,NATHANIA REVA HADIASALI,-,88888282
00023283,JO SEK AY,0,88888283
00023285,SUHARMAN LESMANA,-,88888285
00023288,YURIKE ENDAH PERMATASARI,KOSASIH,yurike.epk@gmail.com,88888288
00023295,ROSNIWATI,-,88888295
00023296,MARIWATI SANTOSO,-,88888296
00023301,ELLY NURLAELI,-,88888301
00023317,TJANDRA LIEFANA,y_ocing@yahoo.com,88888317
00023324,LINTJE THIE,-,88888324
00023327,NURMALA DEWI,-,88888327
00023328,SANDRA FARIDA AWONDATU,-,88888328
00023332,SITI MUNYANAH,-,88888332
00023334,LILY THERESIA SUTEJA,-,88888334
00023338,RINA TAUFAN,taufanrina@gmail.com,88888338
00023339,CHANDRA KOERNIA JUNUS,0,88888339
00023341,HAJI ANISAH SHOFIYAH,-,88888341
00023352,RAISA ALMIGIA,raisa.almigia@ymail.com,88888352
00023368,ZEMMY TANUMIHARDJA,zemmy@tbn.co.id,88888368
00023371,TJHAI JIT BUN,jitbun999@gmail.com,88888371
00023375,IR. ASHARI,-,88888375
00023376,SYAMSUL HIDAYAT,-,88888376
00023377,FREDY HARYANTO MISKIDJO,-,88888377
00023379,SURYAWATY SALAM,-,88888379
00023380,SURIATI,-,88888380
00023381,ENDANG HARYATI,xxxx,88888381
00023384,YUSUF,-,88888384
00023385,MISBAH NUR SYAH BASRI,-,88888385
00023387,CANDRA PRIYADI,pcandra804@gmail.com,88888387
00023407,NORMAN KOSASIH,kosasihnorman@gmail.com,88888407
00023408,IRENE HARRIS,ireneharris@unichem.co.id,88888408
00023410,SIE HODY SUGIHARTO,siehodysugiharto@gmail.com,88888410
00023413,IR.ARGOGUNG MURBA PUTRANTO,argogungmp.895@gmail.com,88888413
00023414,EVYANTI,-,88888414
00023419,LUSIA,-,88888419
00023424,RENGKA MARSELINUS,marcelr@lippokarawaci.co.id,88888424
00023462,SUGENG MURSALIM,sugengliem@yahoo.co.id,88888462
00023464,YANG, PU-CHUAN,-,88888464
00023466,BUNGARAN TAMBUNAN,-,88888466
00023468,SETIAWAN SANUSI,-,88888468
00023471,MULJATI WIDJAJA,-,88888471
00023472,RADITYA YANUARDI,radietzdaxbintek@yahoo.co.id,88888472
00023477,HERMAN RUSLI,kalvinrusli@gmail.com,88888477
00023479,RAMON ARI WAHYUDI,ramon.wahyudi@indosuryafinance.com,88888479
00023480,TJOA FILIA TJOANDA,-,88888480
00023481,EVAN YUWANA WANGSA,0,88888481
00023482,LINA ANDRIANI,0,88888482
00023483,YOANA CHANDRA SETIAJI,yoan.dmp@gmail.com,88888483
00023484,CINDY KURNIAWAN,n.cindy.k@gmail.com,88888484
00023485,ANASTASIA SHANAHAN,-,88888485
00023487,TANTO WIJAYA,-,88888487
00023490,LINA WATI,lina30784@gmail.com,88888490
00023497,INES MARIANNE SANTOSO,ines.rscikunir@gmail.com,88888497
00023505,YOHANES S.UNARAJA,-,88888505
00023507,KEVIN SUSANTO,kevinsusanto1999@gmail.com,88888507
00023510,VINA GAYUMI,vina_gayumi@yahoo.com,88888510
00023513,INGE SURYANTO,ingeinge2005@gmail.com,88888513
00023514,MUHAYAT,muhayat9000@gmail.com,88888514
00023516,BITA MAGDALENA,-,88888516
00023517,I GUSTI AYU DEWI MAHENDRI Y SH,-,88888517
00023518,DOMINGGUS BITTI,-,88888518
00023529,ERICK PATULAK,erickpatulak@gmail.com,88888529
00023533,BARLIAN,-,88888533
00023548,GUSRI HENDRA,gusri.hendra05@gmail.com,88888548
00023556,NURWELY,nurwely@gmail.com,88888556
00023557,SAHFERI NURDIN,-,88888557
00023558,BAHARUDDIN,-,88888558
00023562,GRACE WIDYANI UTOMO,-,88888562
00023564,NELY ONG,blu3diamond.tw@gmail.com,88888564
00023568,ABDULATIP,-,88888568
00023569,NANIK WINDARTI,0,88888569
00023570,ANASTASIA TANIA MARIA,anastasiatania@hotmail.com,88888570
00023582,JEFRY,wiriana.jefry@yahoo.com,88888582
00023584,ERWIN SUSANTO,-,88888584
00023596,ANNIE NYOTO SUTRISNO,-,88888596
00023599,VICLI ROBERT CL,viclirobert@gmail.com,88888599
00023605,LIM MARIA NANCY,-,88888605
00023608,ANDY MAMORA USMAN,-,88888608
00023611,TJIONG RIKIH,info_cahaya_abadi@yahoo.com,88888611
00023614,MARWAN SIOWKURUR,marwan24366@yahoo.com.sg/eichaochi.eos@gmail.com,88888614
00023615,ANDRI SUHARTONO,andrisuhartono.span@gmail.com,88888615
00023621,RATNAMAWATY CHAERUL BAU,-,88888621
00023624,AMRIANI,rustamutam4599@gmail.com,88888624
00023625,ERICK ARIANTO TJHAI,-,88888625
00023626,CAHYO YUWONO,cahyo212000@yahoo.co.id,88888626
00023630,YUSMAN, S.SN,xxxxx,88888630
00023645,LUKMAN ADI SUSANTO,lukman4di@yahoo.co.id,88888645
00023656,BETSIANA WITANTO,0,88888656
00023658,TJIN LI,0,88888658
00023659,ERIANTO,.,88888659
00023660,JACINTHA TJIPTOOETOMO,DRG,yohanes.xie@gmail.com,88888660
00023662,ACH NUR HASAN,-,88888662
00023663,TAUFAN KURNIAWAN,chetaufan@yahoo.com,88888663
00023665,GLERI LEGIYA PANGKEREGO,glerhy_imout@yahoo.com,88888665
00023667,GATOT GUNAWAN PAMUDJI,gatot.gunawan@yahoo.com,88888667
00023668,WARDI,-,88888668
00023669,INGE LIMOA,-,88888669
00023670,Y.ADI SURYANUGRAHA PUTRA,yuventinus.adi@gmail.com,88888670
00023673,TOILUL FURQON,de_boink@yahoo.co.id.,88888673
00023678,SURYADI JAYA SOEN,suryadisoen21@gmail.com,88888678
00023679,BUDI YANTORO,arachnids32@yahoo.com,88888679
00023690,HASAN MAHMUD S PD,hm856659@gmail.com,88888690
00023703,KIN TONG / FENDY,hayden.liauw@gmail.com,88888703
00023707,MUJIONO HS,mujionohs1@gmail.com,88888707
00023709,MUHAMMAD IQBAL SUYUDI,iqbal.suyudi@ymail.com,88888709
00023717,WILGO VRONSKY DAKAEL,-,88888717
00023721,IRWAN,irwan.oei@gmail.com,88888721
00023726,DJAENAL ABIDIN,djaenal.email@yahoo.com,88888726
00023727,HOSEN INDRA,indralily@hotmail.com,88888727
00023728,JENNI,jenni.dkc@gmail.com,88888728
00023729,HENDY SUSANTO,-,88888729
00023730,NUR AFIF SURATIMAN,nurafif_27@gmail.com,88888730
00023734,DANIEL TAPPI,-,88888734
00023738,FENNY JELIANA,0,88888738
00023748,LIEM FRANSISKUS BEKTIONO,frans.bekti@gmail.com,88888748
00023751,ENI YULI KRISTANTI,-,88888751
00023755,IRFAN UNIO,-,88888755
00023756,NUNIK ZULFRIANI,-,88888756
00023760,OSWIN BUSTARI,oswin.bustari@gmail.com,88888760
00023761,AZWIR,...,88888761
00023762,SUANTO OWOH,-,88888762
00023763,ELLIANA,elliana.josephine@yahoo.com,88888763
00023764,NGESTI UTAMI EKANINGSIH,-,88888764
00023769,FANNY TANIA WONGSODIREDJO,fannytania2000@yahoo.com,88888769
00023770,ARIENTA FITRIANI,arientafitriani@gmail.com,88888770
00023771,MOERTJAHJO,moertjahjo58@gmail.com,88888771
00023780,MARIAM ADAM,mariamadam1977@gmail.com,88888780
00023787,MEGA PRIYANTI,mega.ucrit66@gmail.com,88888787
00023798,WELLY JULITA,julita.welly@gmail.com,88888798
00023805,KURNIADI KARMAJAYA,kurniadi@garuda-cement.com,88888805
00023809,DWI RAHAYU MARTIANI,yayu87@gmail.com,88888809
00023810,KRISTINA LILIYANI,kristina.liliyani@gmail.com,88888810
00023814,KUMAIDAH,-,88888814
00023815,PAULINA ARTANTI,-,88888815
00023818,TJEN SHEN LAN,chandralani60@gmail.com,88888818
00023819,AGUSSALIM,agussalim@gmail.com,88888819
00023820,ISNADI,isnadi@gmail.com,88888820
00023823,SUNAR,sunar734@gmail.com,88888823
00023833,DEDY PRIYAMBODO,dedy74@gmail.com,88888833
00023841,LINDA SALAMONY,-,88888841
00023842,LIEM ELVIE LINDAWATI,-,88888842
00023844,RITA SAHAR TONI,rst82@yahoo.com,88888844
00023845,SANDRA SURIYATI TUMEMBOW,-,88888845
00023856,WILLIAM DJOJO WINARTO S,-,88888856
00023859,DR.WINAHYU ERWININGSIH,S.H.,M.HUM.KN,notaris_winahyu@yahoo.com,88888859
00023861,SUPOYO,supoyo76@yahoo.co.id,88888861
00023863,LIE MEI HWA,-,88888863
00023866,H MUH NASIR S,-,88888866
00023873,MAHENDRA SUJANA,mahendrasujana80@yahoo.com,88888873
00023882,VERONIKA,-,88888882
00023887,RATNA KAIMUDIN,-,88888887
00023888,LINA WIDJAJA,-,88888888
00023889,WILLYS N MIDAS,-,88888889
00023890,PHANG MIAU SAN,yussyliau@gmail.com,88888890
00023891,ARJAMALIS ROSWAR,arjamalis@gmail.com,88888891
00023892,JANNI,0,88888892
00023893,YURNI YUSUF YUNUS,-,88888893
00023901,RIWAYANTO,0,88888901
00023917,K.MERRY,x,88888917
00023918,E RATRI KARTIKA,notaris kartiko@yahoo.com,88888918
00023919,HENNY CHANDRA,-,88888919
00023921,MOZES TOMASILA,-,88888921
00023925,UUN NURLIYAH,0,88888925
00023926,AGUNG DWI SATRIA,dwisatria@yahoo.co.id,88888926
00023929,IR. LA KII,-,88888929
00023933,EDDIE SANTOSO,THE,-,88888933
00023936,ADI RAHMATSYAH,adi.rahmatsyah@hotmail.com,88888936
00023938,HANNY,-,88888938
00023940,KETI GIANA,catgiana@yahoo.com,88888940
00023941,LISA THEMA,-,88888941
00023943,RR.Y.TUTIEK SETIA MURNI,SH,MH,roro-notaris@yahoo.com,88888943
00023944,MARTA SAMSURI,cesilmarta@gmail.com,88888944
00023946,DENNY SONNY WUISAN,-,88888946
00023952,BAHARUDIN,-,88888952
00023954,MUH. ADIL HAMZAH,muh.adilhamzah@gmail.com,88888954
00023966,NURHAIDA SIHOTANG,-,88888966
00023967,SAHRULLAH,SE,sahrullah@gmail.com,88888967
00023968,ALI WARDANA,-,88888968
00023971,IR AGUS WIYANTO,wiyantoerika@gmail.com,88888971
00023972,NURVALENTIN,-,88888972
00023973,PAULA MONICA,paula.monica@indosuryafinance.com,88888973
00023974,CHINTYA SUGITO,-,88888974
00023975,DRA SUDARMIATI HADISOESELO,wiyantoerika@gmail.com,88888975
00023978,ERIKA WIYANTO,wiyantoerika@gmail.com,88888978
00023979,JEJE LIESWATI TABRANI,-,88888979
00023980,SUSYLAWATI TJANDRA,stellatjan@yahoo.com,88888980
00023981,ALVIN THEARDY,0,88888981
00023982,FERY HARSONO,hollywood_race@yahoo.com,88888982
00023984,TRIE INDRIANI,-,88888984
00023986,NURDIN,ariyasantana61@gmail.com,88888986
00023987,LIM HERMAWAN,lim_hermawan@yahoo.co.id,88888987
00023989,DERMAWANSYAH,ffarffin@gmail.com,88888989
00023994,AAN ROSTIANAH,-,88888994
00023995,ANNIESA,kakaksyaddad21@yahoo.com,88888995
00023996,H RUDI YANTO,-,88888996
00023997,SUNARTI,sunarti@esdm.go.id,88888997
00023999,MIA LAELASARI,-,88888999
00024000,GOH KA THIOE,-,88888000
00024002,SOFYAN LINGGAJAYA,linggajayasofyan@gmail.com,88888002
00024006,YONG SIOE KUN,0,88888006
00024007,SUPRAPTO,suprapto.toto53@gmail.com,88888007
00024008,ENDAH PRAPTIWI PH,praptiwiendah@uob.co.id,88888008
00024009,LEA MARCELLA,leamarcella1992@gmail.com,88888009
00024010,HENDRA RUSDI,0,88888010
00024011,MEI ELIS ERJA HARAHAP,elis.assaf@yahoo.co.id,88888011
00024014,SAPRIANTO.S.PD,-,88888014
00024019,AGUNG DWI SANTOSO,-,88888019
00024026,M.ZAIM MUBAROK,zaim.bangkit@gmail.com,88888026
00024027,NINA SYOPIA NARI,-,88888027
00024028,MAHMUD POTALE,-,88888028
00024028,MAHMUD POTALE,-,88888028
00024030,YETY SUSILOWATI,sinartex_jk@yahoo.com,88888030
00024031,EDDY SUKANDAR,0,88888031
00024034,GOUW TJIN GIOK,-,88888034
00024035,EZRA KITRIE GUNAWAN,ezrakitrie@gmail.com,88888035
00024037,ERWIN PARTONO,-,88888037
00024039,PT.PETRA LAND INDONESIA,-,88888039
00024040,RUTH KARISMA WIDJAJA,ruthkwidjaja@yahoo.com,88888040
00024048,MINTARTI,mintarti34@gmail.com,88888048
00024051,DIANTO SAPUTRA,saputradianto08@gmail.com,88888051
00024054,ALEX WITARSAH,citypro2000@gmail.com,88888054
00024057,RAKASIM ALPAN,alpantondonperkasa@yahoo.com,88888057
00024061,IIN HARDIONO KERTADJAJA,0,88888061
00024067,WAN WING LAN,-,88888067
00024068,LINA,linahuang@karyaanugrah.com,88888068
00024069,MARINA ANGGASARI,marina.anggasari@gmail.com,88888069
00024071,YESSY OKTORA,yessy.oktora@gmail.com,88888071
00024073,MERLIA KARTINI,m3rlia@yahoo.com,88888073
00024074,MARTINUS SUPRIYANTO,martin.mariongan@gmail.com,88888074
00024077,SUHARIANA,adekurnia2407@gmail.com,88888077
00024080,PENTJA TANUWIDJAJA,-,88888080
00024097,SUFIRMAN,-,88888097
00024101,KGS. M. SODIKIN,dickin83@gmail.com,88888101
00024103,ALIMUDDIN S PD,aldialimuddin73@gmail.com,88888103
00024107,YANTI,yantibambang@yahoo.co.id,88888107
00024109,RANGGA LEONARD BRAMANTYO,ranggaleonardd123@gmail.com,88888109
00024110,RADYA TRISTAN BAGASKARA,radyatristan749@gmail.com,88888110
00024112,CHIKA FARREN SILABAN,chikafarren222gmail.com,88888112
00024114,LILY AGUSTRIANA,lilithamrin.ia@gmail.com,88888114
00024116,JOKO SUPRAYITNO,-,88888116
00024117,HENDRIYANTO,-,88888117
00024119,PATRICK LOUIS HENDRICK GASPERSZ,notarispatrick@gmail.com,88888119
00024135,MOHAMAD SODIKIN,mohamad.sodikin@yahoo.com,88888135
00024136,SUSY,-,88888136
00024137,EKO PRASETYOWATI,eko.prasetyowati@yahoo.com,88888137
00024138,ROBERT SIMATUPANG,robertsim27@yahoo.com,88888138
00024139,ROBERT ROKI TAWALUYAN,-,88888139
00024140,DENNY TANDI,-,88888140
00024141,CHANG CHIUNG YAO,-,88888141
00024142,EFRINA SANDI LASANO,-,88888142
00024143,VEIBY,-,88888143
00024144,ARDIANA MOKODOMPIT,-,88888144
00024146,LIKE YOHANNA KASTAN,-,88888146
00024147,MARENSYA WENNY SOUMOKIL,-,88888147
00024149,ANG TJIN TIAN,-,88888149
00024150,MAYA MARLINDA SOMPIE,marlinda.sgg@gmail.com,88888150
00024153,RISYAD RENO PANGGALIH,risyadreno@gmail.com,88888153
00024157,POERJATI KARTA,poerjati.karta@yahoo.co.id,88888157
00024161,DYAH PARAMITHA WARDANI,dytha789@gmail.com,88888161
00024162,SRI MARDIASTUTI,dias.hotelindahpalace@gmail.com,88888162
00024168,ELVI HANDAYANI,elvihandayani2@gmail.com,88888168
00024169,ARIF NURYANTO,arifnuryanto1972@yahoo.com,88888169
00024171,M. SYAHRIZAL,m.syahrizal_not@yahoo.com,88888171
00024172,RONALD SETIADI SIRAIT,romey_77@yahoo.co.id,88888172
00024173,MARDIYAKSA,mardybenung@gmail.com,88888173
00024174,HAFSAH,hafsahhafid56@gmail.com,88888174
00024175,LENA PARERUNG,-,88888175
00024176,WINA HANDAYANI,-,88888176
00024177,FACHRUL FLORENZIUS,simpanan harian surya dan simpanan berjangka,88888177
00024183,FLORENCE MIA SARI ISKANDAR,mia.iskandar@gmail.com,88888183
00024189,TJUNG KELVIN,kelvinpit.apple@gmail.com,88888189
00024191,JONSON EFENDY,jonsonchang78@gmail.com,88888191
00024197,IMELDA COENDINATHA,-,88888197
00024198,TAN SU GEK,xxx,88888198
00024200,MUHAMMAD SEPRIANUS THE,-,88888200
00024201,JIE FRANS FERNANDO,-,88888201
00024202,NATALLIA,-,88888202
00024206,SANDY,-,88888206
00024208,TJONG MISELINA ANDRIS,miselinaandris@yahoo.com,88888208
00024210,SIN LITIMI,-,88888210
00024211,LILY SWASTI PURNAMA LUKMAN,lily_swasti@yahoo.com,88888211
00024212,CATHRINE S PRAYITNO,-,88888212
00024213,LEUNG HOI KWOK,-,88888213
00024214,DESMAYANTI,desmayantiyanti@yahoo.com,88888214
00024215,AGUS IRAWAN,-,88888215
00024216,MOCH J RIZAL,-,88888216
00024217,LASARUS BABU,laza.babu@gmail.com,88888217
00024219,ERLAND RIANDY,erlandriandy@gmail.com,88888219
00024220,ROSNI,-,88888220
00024221,GERALD WANDY FOFID,fofidwandy@gmail.com,88888221
00024224,ANDHITA MARLIANI,adisuto123@gmail.com,88888224
00024225,MIRA LIE,miralie7@gmail.com,88888225
00024226,SHERLI OKTAVIA PANGALILA,-,88888226
00024227,ASRIAL ARAS,-,88888227
00024228,ALBERT WIRJADI,-,88888228
00024229,JOSEPH MANUEL LUAS,-,88888229
00024230,IKA IRJAYANTI,SE.AK,ikairjayantie@yahoo.com,88888230
00024231,OLIVIA TRIANY MANURUNG,-,88888231
00024232,IG SIGIT GUNAWAN,sigit1970@gmail.com,88888232
00024233,ARGEN BUANA CANDRA ALTARAN,-,88888233
00024234,MUH ARVIN THAMRIN,arvin9099@gmail.com,88888234
00024239,DIAN PERTIWI,dianjoly@yahoo.com,88888239
00024245,AWANG PRIAJI,-,88888245
00024246,ARIEF RAHMAN HASYIM,-,88888246
00024248,SARIZA PRANANDYA,-,88888248
00024249,SALSIAH,-,88888249
00024250,ASRIYANI ASMAWI,-,88888250
00024251,MAYA AUDINA,-,88888251
00024252,MIRA RINIENTA ANDIANI,-,88888252
00024254,DWIYANTO ARIBOWO,antoaribowo@gmail.com,88888254
00024255,M AINUL YAQIN,mhd.ainulyaqin@gmail.com,88888255
00024256,FARIDA RUMINTA,-,88888256
00024257,LIE IK PIN,-,88888257
00024259,YUSRIANI,-,88888259
00024261,STEVEN IRMANTO TIRAYOH,-,88888261
00024264,SUSIYANTI,yantinng@gmail.com,88888264
00024268,ARIYANTO SURYOTEJO,suryo_tejo@yaho.co.id,88888268
00024269,TETY SURYANI,-,88888269
00024272,MATIUS NANANG SUNTORO,nanangsuntoro@gmail.com,88888272
00024274,SITI SAWIYAH,-,88888274
00024275,ROBERT ANDREAS METERAY,-,88888275
00024277,MESSY MEGAWATI,messy_1904@yahoo.com.sq,88888277
00024281,KUMALASARI,-,88888281
00024282,SADIJAH,-,88888282
00024285,MOHIT THAKURDAS PURSANI,-,88888285
00024286,CHRISTOPHORUS DAMIAN LAINAMA,lainama.christo@gmail.com,88888286
00024287,KATHARINA YULITA KANA, SE,litakana78@gmail.com,88888287
00024289,PIER ADI KURNIAWAN,-,88888289
00024291,SAPTO YUWONO,-,88888291
00024292,ABDULLAH,abdullah.27@gmail.com,88888292
00024293,SRI WINDARI,-,88888293
00024304,ADELIA CAESARYANA,caesayanaadelia@gmail.com,88888304
00024305,MUHAMMAD RAGIL,mragil72@yahoo.com,88888305
00024307,SUHARYONO,reborn.autobodyrepair@gmail.com,88888307
00024310,JAYANTI MAOLIA,-,88888310
00024312,ELYA KONTESA,elyakontesa663@gmail.com,88888312
00024315,NURSIDA,-,88888315
00024321,SERDINA A SITOHANG,-,88888321
00024325,ADE SAEPUDIN,adesae2018@gmail.com,88888325
00024329,ANDRISTI,-,88888329
00024333,NURRIFRI,-,88888333
00024334,YIE ING JACUB,rysidik@gmail.com,88888334
00024336,SUSILOWATY SURJADIREDJA,-,88888336
00024338,ROESDIATI BAMBANG UTOMO,pd.carina@gmail.com,88888338
00024339,IRFAN,ivanzaelani234@gmail.com,88888339
00024340,ALVIKA MEANITA BERLIANA RATAM,alvikameanita@gmail.com,88888340
00024341,TEK LIN JAKUB,jakubteklin@yahoo.com,88888341
00024342,USMAN SIDIK,-,88888342
00024343,CANDRA WIANTONO,-,88888343
00024345,BASUKI TRIANTO,-,88888345
00024348,LIE DIANA SAMUEL,-,88888348
00024350,TJOA TINNIE PINONTOAN,-,88888350
00024351,ANIZAR.A,anizar@gmail.com,88888351
00024352,SUDARMAN,-,88888352
00024353,DEDDY LIMANTONO,0,88888353
00024354,DEBY SUSANTI,-,88888354
00024363,AINI HIDAYATI,aini.11@gmail.com,88888363
00024364,HEARNY ANNISA,annisa_hearny@yahoo.com,88888364
00024366,PUTRA DWI MAULANA,aputradwimaulana@gmail.com,88888366
00024368,SUGENG IRIANTO,sugeng4ir@gmail.com,88888368
00024372,SINTJE ISHTA DEVITA,0,88888372
00024373,TATANG JAENUDIN,tatang.jaenudin@gmail.com,88888373
00024375,SITI MASADAH,0,88888375
00024379,OCTA FRIDA HANDAYANI,-,88888379
00024380,EFENDI,efendi4919@gmail.com,88888380
00024382,YESI RIA SAPUTRI,yesiriasaputri@outlook.co.id,88888382
00024387,NURUL YAYUK ANDAYANI,nurulyayuk.a@gmail.com,88888387
00024388,KRIS ATINAH,atinahkriss9@gmail.com,88888388
00024389,SUPRIADI,-,88888389
00024393,SUTOMO,-,88888393
00024396,DINDIN MAHMUDIN,boydinsurakarta@gmail.com,88888396
00024397,LATIF USMAN,candirenggo,88888397
00024401,ETI SUHARYANTI,etiisuharyanti330@gmail.com,88888401
00024405,AFRIDA RANTE T,-,88888405
00024407,ANI MA'SUMAH,0,88888407
00024408,RUDY SALYANA,r.phung@yahoo.com,88888408
00024409,HARLEM SITUMEANG,raja.jati@ymail.com,88888409
00024410,YUSAR MALIK SURYAWAN,-,88888410
00024411,SAMSU ARIFIN,0,88888411
00024412,LAURENT SAPUTRA,laurentsaputra65@gmail.com,88888412
00024413,JOHANI PARLINDUNGAN,hero_shoes@yahoo.co.id,88888413
00024414,FERRYANTO SUSILO,ferry_frans85@yahoo.co.id,88888414
00024416,ZANTJE M. VOSS TOMASOWA,-,88888416
00024417,EMMANUEL MALI,-,88888417
00024418,DRS ALVON USMAN, SH,-,88888418
00024422,SATRIYA MARDIKA,satriyamardika@gmail.com,88888422
00024429,MOHAMMAD RUDIANSYAH LIHAWA,rudylihawa@gmail.com,88888429
00024431,LILA OKVITASARI,lilacstudio18@gmail.com,88888431
00024432,DADANG MULYANA,adesae2018@gmail.com,88888432
00024433,YUDISTIRA ARYA BRATA,yudistira@gmail.com,88888433
00024434,EMY SYAHRIANI PURWANDARI,sentosadjayamandiri@yahoo.com,88888434
00024436,DEDHY PRASETYO,interskybpn@yahoo.com,88888436
00024437,PUJI ASTUTI,-,88888437
00024438,DENI SETIAWAN,adesae2018@gmail.com,88888438
00024439,YUSUP HERDIAN,-,88888439
00024440,NANA SETIAWAN,-,88888440
00024441,MARTIN LINDA JUWITA,martin_alfreda@gmail.com,88888441
00024442,AEF SAEFUDIN,-,88888442
00024444,SOFI TRISNIATI,sofi trisniati@gmail.com,88888444
00024445,FERRY FERNANDO,-,88888445
00024446,SUSWATI,suswati@gmail.com,88888446
00024447,ENING WAHYUNINGSIH,eningwahyuningsih@gmail.com,88888447
00024448,SUTARNO,adesae2018@gmail.com,88888448
00024450,ULLI,ulli51089@gmail.com,88888450
00024451,JAMALLUTFI,adesae2018@gmail.com,88888451
00024452,MAWARTI,-,88888452
00024453,ASEP JAMALUDIN,adesae2018@gmail.com,88888453
00024454,ADI,adesae2018@gmail.com,88888454
00024455,AGUS SETIAWAN,adesae2018@gmail.com,88888455
00024457,YAYAH NURBALIYAH,adesae2018@gmail.com,88888457
00024458,OPI SAROPI ANDRARESTA,adesae2018@gmail.com,88888458
00024459,LINDAWATI SOEHENDRA,-,88888459
00024461,RAHMAT SETYAWAN,rahmatsetyawa@gamil.com,88888461
00024462,MARKUS AMAN,-,88888462
00024463,SAEFUDIN JUHRI,adesae2018@gmail.com,88888463
00024467,M YASIN,myasinm756@gmail.com,88888467
00024468,ALBERT WIDYA ARUNG RAYA, SH., M.KN.,-,88888468
00024471,KAPE AMPULEMBANG,-,88888471
00024473,RAMLI,rr4803253@gmail.com,88888473
00024476,RINA AHYANA,miqbal@sscinc.com,88888476
00024477,BERTHA RERUNG,-,88888477
00024478,RICHI WENAS,-,88888478
00024482,MARIANTHY ABDUL LATIF,-,88888482
00024486,KETUT EDI SANTOSO,ketutsan370@gmail.com,88888486
00024498,WELEM TAKKO,-,88888498
00024504,BENYAMIN SALUPUTTU,-,88888504
00024505,H DJAMALUDDIN,-,88888505
00024506,SURIANTO,atotn3@yahoo.com/bukakresensia@gmail.com,88888506
00024507,LUKAS BATO PARE,-,88888507
00024511,DAMARIS SALO,-,88888511
00024514,LAILY NUBUWATY,-,88888514
00024516,SARMIN,-,88888516
00024517,SURYA RAMADAN THALIB,suryathalib97@gmail.com,88888517
00024518,SELAMAT HALIM,-,88888518
00024522,EMHEMMED ALI B ABOUWEDEN,emhmedl@yahoo.com,88888522
00024523,DEBORA,-,88888523
00024525,RHEIN MOHAMAD,-,88888525
00024526,AGUSTINA SAMPE,-,88888526
00024529,MISKE SJELFIE KAUNANG,-,88888529
00024533,MARTINA RITA,-,88888533
00024534,ANGGLI NGADI URI,frangkychaly173@gmail.com,88888534
00024535,SEMUEL BUENDE,-,88888535
00024538,ROBERT KOSMAN,robet.kosman@yahoo.com,88888538
00024540,DENNY ANTONIUS SETIANTO,dennyas_1985@yahoo.com,88888540
00024541,PAULUS BAMBU,-,88888541
00024542,SUWANDI,-,88888542
00024543,SURYANITANINGSIH,suryanitaningsih08@gmail.com,88888543
00024544,RAHMAWATI RETNO WINARNI,.,88888544
00024545,MUHAMMAD THAUFIK,muhammadthaufik11@gmail.com,88888545
00024546,YUNITA HIDAYAT,-,88888546
00024548,MARGARETHA TAPPANGRARA,-,88888548
00024550,PAULINA,-,88888550
00024551,TEGUH IRIANTO,-,88888551
00024552,YOHANA BIU,-,88888552
00024555,SAMEUL PASAPAN,-,88888555
00024556,ANDRIANI PERTIWI,-,88888556
00024559,ERNI MANDA,-,88888559
00024563,IRAWATI WONA,-,88888563
00024566,WAODE ANGGRAENY AZIS,reni.iren@ymail.com,88888566
00024569,ALEXANDER SULU,-,88888569
00024571,JESSE FERDINAND SULU,jfsulu@gmail.com,88888571
00024573,NURSANTI,-,88888573
00024574,KHO YANUAR YUWONO KURNIAWAN,-,88888574
00024576,MIFTAHUDDIN,miftahuddindrs@yahoo.co.id,88888576
00024577,SURIADY NGABITO,-,88888577
00024583,LINA DELLA NOVIA,verysuccessful99@yahoo.com,88888583
00024587,ADI SUCIPTO,suciptoadi@gmail.com,88888587
00024588,ANITA ISMAIL,-,88888588
00024590,RANI SULEMAN,-,88888590
00024591,BAMBANG KUNCORO,bkuncoro@gmail.com,88888591
00024592,YULIANTI,0,88888592
00024593,PURWITASARI,purwitasari09@yahoo.com,88888593
00024594,HANNA RESIKA TIANI,hannaresika.tianiptr@gmail.com,88888594
00024598,DENILAH SHOFA NASUTION,denilahshofa@yahoo.com,88888598
00024600,ISKANDAR SETIAWAN,eliasetiawan62@gmail.com,88888600
00024601,SANNY WIKODHIONO,samyong1604@gmailcom,88888601
00024603,M FITYANI KADIR,fityanikadir@gmail.com,88888603
00024604,BEATRIX ERNESTA PUTERI,-,88888604
00024606,FAUZI IMRON,fauziimron@gmail.com,88888606
00024613,TUTY STIEPHANY,-,88888613
00024617,SURATMAN,-,88888617
00024618,HARY HALIM,hary.halim2@icloud.com,88888618
00024619,SRI ARIANI INDYAH. SE,-,88888619
00024626,EDWAT ARDY WALUYO,edwatardy@gmail.com,88888626
00024628,WIRYAWAN WIRYONO,iwanwiryono97@gmail.com,88888628
00024629,ELIYANI,eliyani@gmail.com,88888629
00024631,RINAWATI,rinawati@intiland.com,88888631
00024635,TONY HARIADI,-,88888635
00024636,TIARA ASYIKA RAMADHANI MATRIDI,tiaraasyikaa@gmail.com,88888636
00024640,MARLENA,-,88888640
00024641,SUARDANA WIDJAYA AMIARSA,-,88888641
00024645,SUJASWANDY WIDJAJA,-,88888645
00024646,SUGARDA WIDJAYA AMIARSA,-,88888646
00024647,WIDHARMAN SYARIF,-,88888647
00024648,MERLINA INDRIYANI EFFENDI,merlinaindriyani@gmail.com,88888648
00024649,SUDJADI W AMIARSA,-,88888649
00024650,CHANDRA YENNI,-,88888650
00024653,IIS DWI MAHARANI,iisdwimaharani74@gmail.com,88888653
00024655,SUTIYO,0,88888655
00024656,MIMI SUSANTY,-,88888656
00024657,ROHMAT,0,88888657
00024658,SUNGKONO,0,88888658
00024659,MURTININGSIH,0,88888659
00024660,SUWARNO,0,88888660
00024661,SUKARDI,0,88888661
00024662,AYU ERAWATI,0,88888662
00024663,SUGIYANTO,0,88888663
00024664,WINARNO MARDIYANTO,0,88888664
00024672,MATRIDI,marindopku@gmail.com,88888672
00024673,SUWITO MINTOROGO, SH,arjunadist@yahoo.co.id,88888673
00024676,FEBRIAN ADHITYA RACHMAN,febrianadhitya@gmail.com,88888676
00024677,ESWARI INDYAH,eswari_bnr@yahoo.co.id,88888677
00024679,SHIRLEY MARNENGKA SUTEDJA,shirley_sutedja@yahoo.com,88888679
00024683,ATIN ROHAYATIN,atinpaulus@gmail.com,88888683
00024684,DJIN OI,djin.oi250859@gmail.com,88888684
00024685,ENJANG SOEDIRMAN,soedirman@yahoo.com,88888685
00024687,ELIS SUSILAWATI,juliya.putriana22@gmail.com,88888687
00024690,DRS SUPARYO,suparyo@gmail.com,88888690
00024692,KALIMAH AMD KEB,kalimah@gmail.com,88888692
00024694,JUAN,juandeholland@yahoo.com,88888694
00024695,FITRI,-,88888695
00024696,MALIKASARI WINARKO,-,88888696
00024697,EDIE,ediesr25@gmail.com,88888697
00024698,SUKIMAN,fir3_cold@gmail.com,88888698
00024699,MUTIA ARDIANTI,mutiaardianti99@gmail.com,88888699
00024702,ANDI EKA PURNAMASARI,andyekha@gmail.com,88888702
00024703,NANIK PURWANTI,-,88888703
00024705,SELVI ALEXANDER,fortuna_advertising@yahoo.co.id,88888705
00024706,GIAM MOZART MAMPA,fortuna_advertising@yahoo.co.id,88888706
00024707,NARWIN,-,88888707
00024708,FRANS LOUIS TULAK,franslouist@gmail.com,88888708
00024709,SUKAMTO,sukamto.dk@gmail.com,88888709
00024710,FAISAL EFFENDI,faisaleff2452@gmail.com,88888710
00024711,RIZAL, SH,-,88888711
00024712,WIWIK ASTUTI,-,88888712
00024713,SUTIYEM,-,88888713
00024714,ARTINA LETARESIA M P,artina.resia@gmail.com,88888714
00024716,NELLY,ang.nelly@ymail.com,88888716
00024717,YABEX ALEX KAPITAN,-,88888717
00024718,M.M. DWI ASTUTI ANDAYANI JACOUB,-,88888718
00024719,ABDUL RACHMAT SALEH,rachmatpamk@gmail.com,88888719
00024722,VITALIS AMIR,-,88888722
00024723,RACHMAN HALIM SATYA,-,88888723
00024724,PAULINA APRIANY LEWOKEDA,-,88888724
00024726,SUPRIANO S,-,88888726
00024727,LIM HOA HONG,-,88888727
00024729,PRIMI SETYA GUNAWAN,primisetya@gmail.com,88888729
00024730,MARIANA KURNIATUN,mariana84@gmail.com,88888730
00024736,ZULKIFLI GANI,zulkifligani07@gmail.com,88888736
00024737,HERMIN,hermin.msk45@gmail.com,88888737
00024739,RUDIYANTO KATIANDA,katiandarudiyanto@gmail.com,88888739
00024740,MASKUR,maskur.hrm@gmail.com,88888740
00024742,TITI SUGIANTI,bondoladjie@gmail.com,88888742
00024743,JONI HAMZAH,jonihamzah@gmail.com,88888743
00024744,YANI FARISA SUKOCO,farisayani19@gmail.com,88888744
00024748,PRISKILA EKO SOELISTYOWATI,priskila2110@gmail.com,88888748
00024749,LUBITO,lubitho85chie@gmail.com,88888749
00024750,TANYA DIAN KURNIA DEWI,tanya.dkd@gmail.com,88888750
00024751,ERLIN HALAWANE,-,88888751
00024753,ELVIS PARDEDE,elvis.pardede@yahoo.com,88888753
00024754,DRG.BETTY PROBOSARI,bettyprobosari@gmail.com,88888754
00024755,LIKE RADJALABIS,-,88888755
00024756,NINING AGUSTRININGSIH,niningagus42@yahoo.com,88888756
00024759,HOWINSTON YOEWIANTO,awi234@yahoo.com,88888759
00024762,RITA ALFIAN,-,88888762
00024763,TAN MERRIE SUSANTI BARDA,merriesusanti@gmail.com,88888763
00024764,AYU NUR SELVIANI,ayuselviaa@yahoo.co.id,88888764
00024769,ALBATROSS,alb4trosslie@yahoo.com,88888769
00024772,LANNY RESMINARIANI S,notarylanny@yahoo.co.id,88888772
00024774,EDO ADITYA NATHA YUDHA,adityaed0523@gmail.com,88888774
00024775,LUDWINA EMILIA MAKS,ludwinamaks@yahoo.com,88888775
00024776,LUKMAN ZAINI DAUD,lubitho85chie@gmail.com,88888776
00024777,ALFIAN,alfiankuan@gmail.com,88888777
00024778,BEJO,-,88888778
00024779,RIOS MORITA GANGGA,riosmoritagangga@yahoo.com,88888779