username,name,EMAIL,DOB
00020912,INDRI MULYANI,ayincatering@gmail.com,15081987
00030401,INDRIA PUTRI PRANATA,-,15051984
00033958,INDRIANI GUNAWAN,sutopoindri@gmail.com,18091951
00031934,INDRIATI,indriati_djiu@yahoo.com,16041977
00001269,INDRIATI AYUB,indriatiayub@yahoo.com,21021964
00030151,INDRIWATY,indriwaty.santoso@yahoo.com,21101973
00010280,INDRIYANI SENSER,-,01011956
00011948,INDRIYANI TRISHANTI,-,10041966
00032928,INDRIYANTO WIDHI NUGROHO,widhinugroho@gmail.com,20091975
00013368,INDRIYATI POLIM,-,15081943
00021907,INDRYA BINTANG R,-,25121960
00023497,INES MARIANNE SANTOSO,ines.rscikunir@gmail.com,08051988
00019278,INEZ CELIA TANDIONO,inez.ct05@gmail.com,14071995
00027701,"INEZ NATHANIA, LIE",abisaqellen@gmail.com,19101967
00032358,ING CHERY INGIT,-,03041969
00016508,INGAWATI WIDJAJA,-,16081960
00002822,INGE DEWI LAKSONO,,01081960
00032600,INGE FENNIKA GOZALI,inge.gozali@acains.com,15101953
00009796,INGE INDRIANA SATYAWAN,-,19021946
00011691,INGE INDRIANNY,ingeindrianny@yahoo.com,12011976
00028259,INGE INGGRIANI LIEM,0,21081959
00007846,INGE INNEKE ROSANA BAHTIAR,0,04121973
00023669,INGE LIMOA,-,02031953
00033172,INGE MELIANA WANGSADINATA,0,30041956
00005090,"INGE RUBIATI WARDHANA,SH",xxx,20081962
00023513,INGE SURYANTO,ingeinge2005@gmail.com,28041979
00022308,INGE WIRIANA,ingewiriana22@yahoo.com,22051973
00005642,INGELIA WIJAYA,-,06031957
00026093,INGEWATI BOENARDI,0,20041966
00019611,INGEWATI MINATA,-,18021960
80000956,INGGARWATI TIARSO,-,22101950
00034639,INGGIT HANDAYANI,dee_yan1985@yahoo.com,14011985
00002711,INGGIT IMANIAR SUGIHANI,imaniar_inggit@yahoo.com,15061988
00030363,INGGRIATI SELAMAT,isherdiman@yahoo.com,20061952
80000958,INGGRID PAULINA A.,-,12101965
00010573,INGGRID PAULINA.A,-,12101965
00012341,INGGRIN,-,28021981
00030531,INGRAWATI MUNABA,-,24061953
00031999,INGRAWIDARI,hanawidari@gmail.com,08101966
00020904,INGRID MATTUALY,-,18041987
00013899,INGRID SUGIHARTO,-,23061980
00013908,INGRID TRISNAWATI K,ingridtk@yahoo.com,01101959
00017718,INIKE,-,10121976
00028525,INNA HANDAWARI KRISTANO,achristalyta@yahoo.com,29021984
00013010,INNEKE KUMALADEWI,-,28061969
80000962,INNEKE ROSHIANAWATI TJENTONG.U,-,13021977
00012130,INNEKE WARISA ANAKOH,inneke.warisa@gmail.com,28061979
00025543,INRI LESTARI LEKATOMPESSY,-,20071993
00029605,INTAN DELIA RUSTANDI,0,15122000
00001802,INTAN KOMALA SARI,stevy_lah@yahoo.com,07081989
00013698,INTAN LESTARI,-,27081987
00016261,INTAN SAMARIA SARAGIH,-,03091979
00014316,INTAN SARI,-,25041985
00034816,INTAN WIDIASTUTI,-,03011983
00033127,INTJU SUTISNA TJANDRA,0,29011961
00012044,INUT AGUSTINA,tinaokdech@gmail.com,22081984
00005497,IR ADRIANTO TRISNADI,-,09101959
00023971,IR AGUS WIYANTO,wiyantoerika@gmail.com,06111963
00011664,IR ANWARISANTO AS,-,23081954
00016579,IR ARIF ISMUNANDAR,-,05011973
00008114,IR BAMBANG SUWONDO,xxxxxx,22121951
00021991,IR BUDIONO,puteramandiri_04@yahoo.com,02071939
00009304,IR DANIEL Y SUMARDI,-,27071945
00005854,IR ELLY MARTYASRINI,elly_martyasrini@yahoo.com,24031965
00009880,IR ERWANDI INDRAWINATA,erwandi_tjp@yahoo.com,10101967
00028452,IR H DESKORI BAMBANG SATRIA,-,21121970
00005461,IR HARJANTO WIDJAJA,iking@bevananda.com,07011958
00008511,IR HARRYANTO WIDODO,hw@bestenergy.co.id,04091964
00007620,IR HERMAN MURSALIM,xxxxxx,24011938
00002939,IR IM EDDY SUTRISNO,-,16071951
00002151,IR JULIA HASTUTI WINOTO,,08071962
00031599,IR KWEE GIOK LAN (MARIA),maria.kgls@gmail.com,29091949
00001646,IR MULJADI TJAHJONO,,22071965
00015510,IR MUSRADHY,adhy@gmail.com,11031973
00016333,IR PITHER SINGKALI,raditaputra@yahoo.com,12011970
00001915,IR RAMA RAHMANDA EKA H,rama.rahmanda@indosuryafinance.com,02111969
80000965,IR RUBEN MANIK,-,18081945
00011831,IR SRI RAHAJOENINGSIH,-,06101968
00012241,IR SRI YUNINGSIH,nitnotade@gmail.com,10061949
00001605,IR TEDDY HAKSONO,thaksono@gmail.com,16121948
00007259,"IR TRIYADI PRAYOGO, S MSC",triyadiprg@gmail.com,05011956
00011992,"IR,LIEM,INDRA DJUNAIDI",-,17051949
80000966,IR. ADHITYA NURTJAHJANA,-,11071955
80000967,IR. AGUS PUNARDI TJAHJONO,-,18081964
80000968,IR. AGUS Y. SAHANGGAMU,-,03011960
00005540,IR. ANTONIUS HIOE,xxx,14061962
80000970,IR. APRIANTI AMIR,-,28041962
80000971,IR. ARIFIN TEDJA SUKMANA,-,28061951
00023375,IR. ASHARI,-,12081964
80000972,IR. BAMBANG SUWONDO,-,22121951
80000973,IR. DANIEL ISKANDAR KOSASIH,-,10031953
80000974,IR. DANIEL Y SUMARDI,-,27071945
80000975,IR. DJOJORAHARDJO SOEWONO,-,10081965
00000593,IR. DJOKO PRANOTO SANTOSO,-,02021954
80000976,IR. DJOKO SUDJATMIKO,-,19101953
80000977,IR. EDHIE SARWONO,-,04111966
80000978,IR. EKA HADITYA LESMANA,-,17071959
80000979,IR. FA. BUDIPRIJANTO BUDIADI,-,24041961
80000980,"IR. FRANS PHENGKARSA, MT",-,21091953
00004725,IR. FREDDY CHANDRA,-,14021973
80000982,IR. FREDDY SANTOSO,-,27061946
80000983,IR. GOH KA THIOE,-,05121961
80000984,IR. HAGIANTO KUMALA,-,22041946
80000985,IR. HANDYANA GANDHA,-,24041948
80000986,IR. INGELIA WIJAYA,-,06031957
00024904,IR. J. A SETIJADI,papanindo@cbn.net.id,10011938
80000987,IR. JANUAR KUMALA,-,14011949
80000988,IR. JOHADI AKMAN,-,06051951
80000989,IR. JOHANNES OEI,-,11071966
80000990,IR. KIMIN WIDJAJA GUNAWAN,-,05121957
80000991,IR. KRISTIN HARIANTO,-,28021962
80000992,IR. KUSUMA WIDJAYA,-,29041960
00023929,IR. LA KII,-,31121967
80000993,IR. LANY HERMAWATI HERMAWAN,-,06021957
80000994,IR. LEO HINDARTO HUSADA,-,19101951
00032202,IR. LEONARDI SUMAWIDJITA,-,19081950
00031116,IR. MARCELINA,-,29101969
80000995,IR. MELLY IRAYANI SUSANTO,-,18101959
80000996,IR. MIEMIE MURNIATI,-,17021960
80000997,IR. MULJADI TJAHJONO,-,22071965
80000998,IR. NANIK SUHARTINI,-,25051963
80000999,IR. RAULI BUTAR BUTAR,-,12051970
80001000,IR. SAMBUDI SUKAMAN,-,03051956
80001001,IR. SETO WARDONO,-,25041956
00030769,IR. SHATYA RAJASA MUNARIO. MM,-,28051975
00018420,IR. SUDIARSO PRASETIO,-,14011948
80001002,IR. SUKIMAN HIDAYAT,-,12101961
80001003,IR. SURYONO LIMPUTRA,-,13111940
80001004,IR. SUTINA,-,05021970
00008412,IR. TAUFIK HIDAJAT SUTANTO,th_sutanto@yahoo.com.au,20101948
00000602,IR. TJAHJADI AQUASA,,02111945
00005555,IR. YUDYANTO SUTANTO,xxx,03021957
00023413,IR.ARGOGUNG MURBA PUTRANTO,argogungmp.895@gmail.com,03041963
00010299,IR.DANIEL ELIM,ir.danielelim@gmail.com,12021943
00011456,IR.F TATANG PRANATA,tatang.pranata1@gmail.com,17101952
80001006,IR.FERY ATMAMULIA HALIM,-,02111967
00008464,IR.FRANS DJIWATAMPU,24mayura@gmail.com,17051942
00033155,IR.HERMAN UTAMA P,-,06101940
00005304,IR.JONG SOE TIE,xxxxxx,30111957
00026430,IR.LILIANA WIBISONO,liliana@limanoborcahaya.com,11061949
00029676,IR.LUKMAN TANUHARDJA,lukman53@yahoo.com,24071953
00011401,IR.MELLY IRAYANI SUSANTO,mellyirayani@yahoo.com,18101959
00002801,IR.MUGIONO,mugiono68@yahoo.co.id,17091968
00033097,IR.RUDI ANWAR SUNYATA,rudy_anwar@ymail.com,30081959
00005954,IR.SURYONO LIMPUTRA,suryonolimputra1@gmail.com,13111940
00013348,IR.SUSANTI DARMAWAN,-,13031954
80001007,IRA FAUZIA JOECHRI,-,02031968
00017041,IRA HERAWATI,-,21111954
00029255,IRA HERNA YANTI,-,31121985
00028979,IRA KRISTIANA,dkristiana82@gmail.com,30061982
00032935,IRA MIRAMASARI IRAWATI,ira.winardi@gmail.com,12011971
00006353,IRA NATALISA,xxx,09091952
00011474,IRA PURWANTIE,-,28011964
00033413,IRAWAN,irawan.mangsang@conocophilipsindonesia.com,03071968
80001010,IRAWAN HUSIN,-,12051962
00032955,IRAWAN SAPUTERA,-,05051942
00015018,IRAWANTY SUSANTO,-,24061972
00001825,IRAWATI,,20101980
00001965,IRAWATI GUNAWAN,,18081964
00010799,IRAWATI HARTONO,-,22041980
00028346,IRAWATI KOESNADI,ir.koesnadi@yahoo.com,07031960
00024563,IRAWATI WONA,-,21011991
00006337,IRDHANLI,-,25051985
00002201,IRENA TJAHJADI,irena@wisma.com,08101972
00033296,IRENE,irene.yonk@gmail.com,19021991
00031718,IRENE,tengirene83@gmail.com,05101983
00011481,IRENE,-,15071979
00010208,IRENE ADELINA,ireneadelina03@gmail.com,03061973
80001013,IRENE ADELINA. SE,-,03061973
80001014,IRENE ANGKODJOJO,-,03091961
00029738,IRENE BELLADONNA,itedja@yahoo.com,06061980
00035135,IRENE BUDISANTOSO,-,01021964
00030276,IRENE DJUNG,-,20091989
00015958,IRENE DWIE INDAH W,irene.indah73@gmail.com,23081973
00029808,IRENE GUNAWAN,.,29101979
00023408,IRENE HARRIS,ireneharris@unichem.co.id,25091981
00002310,IRENE HIOE,,03051966
00014896,IRENE HUSEIN,0,11011979
80001018,IRENE LINGGA,-,04051945
00032055,IRENE MARINA HUTABARAT,irenemarinahutabarat@yahoo.com,08091971
00023436,IRENE NGADIKUN,.,24121960
80001019,IRENE NURSALIM,-,07101986
00008950,IRENE SASTROAMIJOYO,0,09051982
00033751,IRENE URANTI MADETHEN,iren.madethen@gmail.com,18091989
00009879,IRENE WIDJAJA,-,31081960
00025485,IRENE WULANDARI PAKENDEK,wulandari130713@gmail.com,18061996
00002174,IRENE YUNITA,lyunitairene@gmail.com,08061988
00034803,IRFAN,aldyaldynna1234@gmail.com,13081971
00024339,IRFAN,ivanzaelani234@gmail.com,18091990
00011293,IRFAN PUTRA RAMADHAN,-,23031993
00023084,IRFAN SAFARUDIN,-,08021983
00032213,IRFAN SAPUTRA,saputrairfan021@gmail.com,09051993
00023755,IRFAN UNIO,-,12081978
00015638,IRFAN W,-,03101970
00014785,IRFAN WIDIYADARMA,irfan.widiyadarma@yahoo.com,28071986
00013992,IRHAM ABRIANTA,nadiabrianta@gmail.com,24091992
00002499,IRHANDY VALENCIUS IRPAN,valencius@hotmail.com,14021983
00034940,IRIANA,-,29121979
00003023,IRIANA KUSNADI,iriana_kusnadi@yahoo.com,29051973
00028625,IRIANTO DWI GUNAWAN,irianto.gunawan@gmail.com,13101966
00019168,IRIANTO KUSUMADJAJA,irianto@exlayer.id,01031962
00010542,IRIANTO SUTRAGUNA,-,17051967
00024929,IRIANTY TINNA,-,04021978
00033341,IRMA AMELIA,fahmi.maulana1234@gmail.com,05051985
00019759,IRMA DWI ASTUTI,irmadwia@gmail.com,17041984
00015334,IRMA HASANAH,hasanahirma@yahoo.com,14041994
00025086,IRMA MARLYANA,-,15081968
00017172,IRMA PUJIATNI,irmapujiatni@yahoo.co.id,04031983
00006365,IRMA RACHMASARI,irma.rachmasari0712@gmail.com,07121976
00016784,IRMA RISKI PRATIWI,irma@sasetya.com,30011991
00010802,IRMA SABRINA,-,07051973
00002977,IRMA SAVITRI,irma.dzuma@gmail.com,14071981
00008232,IRMA SURYANTA,-,09031974
00034399,IRMANSYAH EFFENDI,-,14061966
80001022,IRMAWANTO,-,04091964
00019804,IRMAWATI,-,08121967
00014335,IRMAWATI,irmawati1980@gmail.com,11111980
00008671,IRMAWATI IRAWAN,irmawati168@gmail.com,16071973
00028357,IRNAWATI SUTANTO,rina@thetico.co.id,07011964
00025237,IRPANDI,irfandipandi@gmail.com,10101985
00028379,IRSAN,irsan.saman@yahoo.com,15071989
00031584,IRSAN SUSANTO,-,16081947
00020066,IRSIU MARGARET,-,11021988
00006397,IRVAN HERMAWAN,-,12111979
00006923,IRVAN SALAHUDIN,-,06051973
80001025,"IRVAN SALAHUDIN,ST.MM",-,06051973
00001528,IRVANYUNI JAPUTRI,-,20061983
00028833,IRWAN,0,03061975
00023721,IRWAN,irwan.oei@gmail.com,23111970
00022632,IRWAN,xxx,08111982
00019452,IRWAN ADDY SANUSI,notias@yahoo.co.id,19091965
00015411,IRWAN BUDI HARTONO,liawirwan@yahoo.com,20111949
00030581,IRWAN CHANDRA,-,11101972
00013637,IRWAN HAMID,-,10031985
00021986,IRWAN KESUMA,kesuma_irwan@yahoo.com,02011989
00035012,IRWAN KURNIA,iwank2214@gmail.com,22101982
80001028,IRWAN LIMANTAUW,-,04051994
00015772,IRWAN NUGROHO,cavanachg_82@yahoo.com,06101982
00016255,IRWAN OKAWIDA,okawida@gmail.com,27101980
00001417,IRWAN SETIAWAN,,18041952
00005526,IRWAN SUSIANTO S,xxx,28061954
00008221,"IRWAN TEDJAKUSUMA, IR",irkuma@yahoo.com,22031957
00006523,IRWAN TJANDRA,xxxxxx,31121963
00002017,IRWANSYAH,bocoy.mufc@gmail.com,10101978
00017349,IRWANSYAH SE,irwansyah@indosuryafinance.com,17011982
00000606,IRWANTO,irwantochen808@gmail.com,20091966
00032822,IRWANTO WIRJADI,-,08121955
00028167,IRWIN NOOR SETYAWAN,irwinns@yahoo.com,01041989
00014705,IRZAL NOVIANDI,andi.althof@gmail.com,23111979
00023041,IS CHRISTIA,0,10071979
00026171,IS HARIYANTO IMAM SALWAWI,isisto15@yahoo.com,21111967
00026277,ISA ANSORI,isaansori@yahoo.co.id,05111968
00020915,ISA KUSJANTO,isa_kusjanto@yahoo.com,12071968
00034660,ISABEL,pinmin81@gmail.com,06061981
00008898,ISABELLA HARDJONO,isabella.hardjono@gmail.com,21091987
00029642,ISAN SURYAN,isan_suryan@yahoo.com,06031970
00030585,ISDIYANTO,0,11111978
00028831,ISHAK CANONG,ishak.canong@yahoo.com,06091961
00021401,ISHAK CHANDRA,ishak.chandra148@gmail.com,14081969
00033250,ISHAK MARTOWIBOWO,ishakmw@yahoo.com,31031962
00020124,ISHAK SIDUPA,-,16091965
00012869,ISHOM HAIFA NAFISIA,ishomifa@yahoo.com,03051985
00000607,ISJE SETIAWATI SELAMET,-,18111945
00013988,ISKAK,-,21111973
00006833,ISKANDAR,-,22051995
00030855,ISKANDAR,kandarjusuf02@gmail.com,16031974
80001033,ISKANDAR SANTOSO,-,15041965
00024600,ISKANDAR SETIAWAN,eliasetiawan62@gmail.com,05091961
00009174,ISKANDAR SUWANDI,0,16111975
00005550,ISKANDAR TJOKRO SENDJOJO,xxx,10081978
00018103,ISKANDAR ZULKARNAIN,-,03101977
00025220,ISKAR PIYOMAN,iskarpiyoman@gmail.com,21051958
00005034,ISLAH BAHRAWI,islahbahrawi@yahoo.com,21041971
00030756,ISLAHUDDIN RITONGA,islahuddinritonga@gmail.com,11121973
00030936,ISMA SEPTIANA,-,09091994
00008207,ISMADI,-,07061979
00006179,ISMAIL,ismailmaonk@gmail.com,11061992
00032723,ISMAN,ismanzara1987@gmail.com,11081987
80001035,ISMAN WIDJAJA,-,19071962
00035013,ISMAR,-,22061970
00032902,ISMARINI,-,16061969
00012809,ISMAWATY,mt.isma1910@gmail.com,19101983
00033143,ISMUDIATI,-,24031958
00023820,ISNADI,isnadi@gmail.com,16101969
00004617,ISNAENY,j_isnaeny@yahoo.co.id,14051974
00025331,ISNAWATI PAKAYA,isnacweet@yahoo.com,03081989
00007863,ISNEN FAKHRUDIN,xxx,20061983
00022662,ISRAEL ROBBY KEREH,robbyisrael68@gmail.com,24081969
00029009,ISRO TRI PAMBUDI,isrotrip93@gmail.com,26091993
00000327,ISTIKHOMARIAH,istikhomariah590@gmail.com,04011991
00012091,ISTIYANI,-,25081966
00024971,ISWA MARTOSANTOSO,-,12031981
00025235,ISWAHYUNINGSIH,iswahyuningsih32@yahoo.com,05071977
80001036,ISWAN KOSASIH,-,19091980
00023922,ISWANSYAH SAIDI,0,23091980
00010428,ISWANTO,iswanto.krj@gmail.com,27071987
00014234,ISWANTOKO,ppranidya@yahoo.com,05031960
00013312,ISYA BELAH ZAIN,isyabelah01@gmail.com,01091985
00034330,ISYANA INDRIYATI,tidak punya,17121969
00022294,ITA KRISTIANA,-,06021979
00032226,ITA ROSITA,prasetyasandi03@gmail.com,24021988
00032554,ITA SAFIRA ANGRAENI,itasafiraa@ymail.com,01021995
00029489,ITA SAYURI,0,09081952
80001038,ITJE MARTINA,-,07031942
00010910,IVAN CHRISTIAN CITRA,0,10101963
00018052,IVAN DIANA,-,02041986
00006093,IVAN HIDAYAT,0,13121950
00018920,IVAN ISKANDAR,ivanbk87@gmail.com,26091987
00015681,IVAN JUNIUS KUSNADI,-,05061989
00009782,IVAN KRIS SEPTIANUS,vanzcool37@gmail.com,11091994
00025625,IVAN KURNIAWAN,ikurniawan88@yahoo.com,17031982
00004103,IVAN KURNIAWAN,cresscendo.avt@gmail.com,16091986
00032228,IVAN SAMUEL ARIF,ivan.arif@gmail.com,15031967
00016898,IVAN SETIAWAN,ivan_chang82@yahoo.com,02121982
00030063,IVAN SUSANTO,ivan.susanto07@gmail.com,16071989
80001041,"IVAN TJANDRA, SE",-,25031988
00035287,"IVAN TJANDRA,SE",-,25031988
00014576,IVAN WIBOWO,ivan.wb321@gmail.com,10101977
00032833,IVAN YANUAR,0,06011988
00013147,IVANA,ivana.tamin@adr-agro.com,26031982
00014513,IVANA ARIESTYA,-,30031972
00008394,IVANA GUNAWAN,0,29031987
80001042,IVANA HARTANTO WONGSODIHARDJO,-,31011989
80001043,IVANA HENGKY,-,16111961
00012318,IVANA SH,ivana.sh82@yahoo.com,13091982
00013906,"IVANA WIJAYA SH.,M.KN",iv.wijaya@gmail.com,15061985
00034908,IVANI KURNIA,itsivaniii@gmail.com,09082000
00017104,IVANNY MARGITA,-,21111990
00011744,IVARCO TANDIONO NG,ivarco.t@gmail.com,28111972
00028383,IVEN CHANDRA EFFENDY,ivenchan99.cc@gmail.com,11071970
00008323,IVI TANUWIDJAJA,-,06031941
00000609,IVILYN APRILIA ATENG,-,13041968
00010124,IVON SOENARTO,ivon.soenarto@gmail.com,27041973
00017924,IVONNE CARMEL WALANGITAN,ivonnecarmel@gmail.com,30111986
00031328,IVONNE DEWI SARI,-,04111973
00015140,IVONNE GUNAWAN,gunawanivonne07@gmail.com,07021958
00022093,IVY LIMOWA,-,20051957
00027849,IWAN,-,05111970
00009623,IWAN B. SANTOSO,0,05081954
00035164,IWAN BUDIMAN KUSASI,iwankusasi@yahoo.com,05081977
00010064,IWAN CHANDRA EFFENDI,xxxxxx,31031988
00006005,"IWAN DAVID PANJAITAN,SH",davidboma.panjaitan@gmail.com,16021983
00028086,IWAN EFFENDY,-,30111969
00030645,IWAN GANIUS,iw.gani@gmail.com,20101957
00025288,IWAN GUNAWAN,-,18081935
00010499,IWAN HARYONO SUHARTI,-,12021971
00033803,IWAN HENDRA GUNAWAN,iwanhendrag@gmail.com,23091967
00017331,IWAN IRAWAN,nusantara2011@ymail.com,12081983
00006802,IWAN KURNIAWAN,ione84900@gmail.com,11071977
00015331,IWAN KURNIAWAN,.,02011996
00015122,IWAN KUSNO,-,21051979
00007008,IWAN MAHATIRTA,-,26111945
00014972,IWAN MARVIANTO,0,02111955
00005182,IWAN PRASETYO,iwannfrz@gmail.com,12081988
80001048,IWAN SETIA JOYO UTOMO,-,01081981
00022278,IWAN SETIADI,0,25081972
00018774,IWAN SISWANDI,siswandi.iwan@gmail.com,12091975
00005982,IWAN SISWANTO,-,12011971
00008289,IWAN SOEGANDA LIMANTARA,-,10071946
80001051,IWAN SOEGANDA LIMANTARA,-,18071958
00005630,IWAN SOESANTO,xxx,27091951
00034868,IWAN SULVANI,iwansulvani.rna@gmail.com,03111962
00026758,IWAN SUWANDI,-,19071978
00026538,IWAN TIRTANATA THANY,iwan.thanysi@gmail.com,06061951
00016562,IWAN WAHYUDIN,iwanwahyudin@aswata.co.id,15081985
00011848,IWAN WUTUH,-,04061935
00005637,IWAN YOHANES NEMAN,-,19121954
00035091,IYAN MULYANA,aurielderren@gmail.com,16041965
00029651,IZZUDIN ACHMAD PRADIANA ZAKARIA,izzudinpradiana@gmail.com,26031990
00032087,J.M. SOEGIH SINGGIH JACOUB,jacoubsinggih@gmail.com,23081953
00023255,JACINTA MARIA R DHARMA,-,26031965
00023660,"JACINTHA TJIPTOOETOMO,DRG",yohanes.xie@gmail.com,20061948
00027661,JACK KWOK,-,06091964
00004886,JACK NGUYEN,nn,03061983
00002603,JACKIE,jackie_van91@yahoo.com,20061991
00028537,JACKSON,jack_chenson@yahoo.com,21111991
80001053,JACKSON SULASTRI,-,26051978
00009952,JACKSON WIDJAJA,-,27121984
00031848,JACOB HARIJANTO SUSETYO,jacobhs61@gmail.com,30031961
00013998,JACOBUS IRAWAN,-,13091958
00006864,JACOBUS SINDU ADISUWONO,sindu_adisuwono@bca.co.id,13101962
00003406,JACUB EFFENDI MOELJONO HANDAJANI,james.jehova@gmail.com,26121971
00025482,JAFAR A BAU,-,03011974
00004209,JAHJA LUMENTUT,jahja.kim@gmail.com,02011967
00010038,JAHJA SURYA,jahjasurya@yahoo.com,31031967
00032147,JAHJA WIDIKDO,-,02051945
00009621,JAINAL ARIFIN,-,08061964
00007328,JAINTI,-,16011971
00034204,JAINUDDIN SITANGGANG,jaynun.sitanggang@gmail.com,06051963
00009636,JAJANG TARYADI,-,23071972
00001422,JAKUB,,21011956
00001066,JAKUP ALI,-,28071958
00034889,JAM HOK,-,22081957
00022504,JAMAL FAHMI BAZRI,-,04041969
00024451,JAMALLUTFI,adesae2018@gmail.com,10021984
00033252,JAMAN,-,03021942
00029506,JAMES,jk84001@yahoo.com,06071984
00032455,JAMES BINTANG PANGLIMA K,-,10072001
00021113,JAMES EDWARD CHAN,james.edward.chan@gmail.com,17021973
00025472,JAMES ERIC ZAINI,tgr@cometa.co.id,06011967
00001424,JAMES MAJA PHILIP HUTAPEA,-,23011952
00010583,JAMES SUGI TRISNA,james.trisna@gmail.com,13041989
00017754,JAMES TANURAHARDJA,0,25031980
00005751,JAMES WILLSON WILLIANTO,-,09111986
00033975,JAMES YONGKE PIETERS,james.pieters@yahoo.com,04011979
00011143,JAMIELDA JACUB,-,17101960
00010575,JAMILA,-,28071943
00018383,JAMILAH,-,10121971
00026992,JAMIN ADLIE,-,14081949
00006033,JAMIN ENTONG,-,13081935
00034736,JAMIN KUSTIAWAN,-,28091967
00033929,JAMIN WAHAB,-,20011947
00009410,JAN ANTHONIUS,-,13051988
00011855,JAN GIH,x,07081969
00005018,JAN JUSTIN,0,04091955
00025436,JAN NICOLAS MONINTJA,janick.monintja@gmail.com,07011954
00025281,JAN TANOS,jan.tanos@gmail.com,21071964
00029934,JANARTY ADIANTY,yanadianty@hotmail.com,29011972
00003727,JANCE IRAWAN,indoraya2000@yahoo.com,13031975
00024960,"JANDY THENARIANTO,FOH",ryanthen12@gmail.com,26061968
00035146,JANE CHRISTINA STEFANIE,jc.stefanie@yahoo.com,20061985
00018212,JANE KEREN ALVIANE,-,31081982
00009735,JANE KUSUMA SATYA KARMENDRA,0,14031990
00033709,JANE LINGGO,jlinggo@gmail.com,06111982
00018353,JANE NATHALIE SUNAYANAH,-,26121980
00033504,JANE OCTAVIA JUNAIDI,jane.octavia@gmail.com,13101987
00032756,JANE TJANDRA,janetjandra@yahoo.co.id,13041951
00006810,JANE VANDA,xxxxxx,28061991
00033662,JANET ANTANIA WIJAYA,0,14041992
80001068,JANI,-,04091972
00025287,JANIMAS,janimas@gmail.com,15101943
00020065,JANNE LUKMINTA,-,25021956
00034124,JANNE LUKMINTA,jj25pd@gmail.com,25021956
00023892,JANNI,0,12101961
00011265,JANNIAR SARGO,...,18101933
00023178,JANNY,janny@gmail.com,30041956
00012531,"JANNY EKOWATI PURNOMO, DRA",-,10011962
00026611,JANNY KALIMAN,-,01081955
00009737,JANNY KUSUMA,jannykusuma@live.com,23011971
00028775,JANSEN MANANSANG,-,22111942
00008267,JANSEN TANUDJAJA,musicanimo@gmail.com,08011980
00001712,JANTI,,03081948
00009120,JANTO,-,10121976
00014089,JANTO CHANDRA,yanto@ahliac.com,11101973
00031181,JANTO JANANTO,janto@riyadi.co.id,22061953
00029903,JANTO KURNIAWAN TANUDJAJA,jantokurniawan88@gmail.com,06071953
00030314,JANTO TASLIM,...,27011963
00022688,JANUARLIS HALIM,jan_h@halim.sakti.com,23011942
00008907,JANY SUTARDIO,jsutardio@yahoo.com,28061950
00018679,JAP IRWAN SUSANTO,-,17071949
00034727,JAP KHIAT BUN,japkhiatbun@yahoo.com,24041952
00033673,JAP KURNIAWAN HALIM,hyundaujogja@gmail.com,12041958
80001073,JAP LIEK SOEI AL SUWITO. D,-,17091950
00033864,JAP MAJANI,-,04091958
00010793,JAP NJUN JIN,-,22091950
00029566,JAP NO RI,yulia.jap89@gmail.com,21071948
00025730,"JAP, ING NIO",-,26051954
00035160,JASON JORDY HARTONO,-,07031994
00024501,JASON TIMOTHIUS HANDOYO,timothius17@gmail.com,17111989
00031105,JASRINO,jasrinorino@rocketmail.com,05021988
00024932,JASTRI,-,03051972
00030378,JASWATI,njas65@yahoo.com,13101965
00008963,JASWIN KARTANUJAYA,jaswinkartanujaya@yahoo.com,15081990
00002879,JAUHARI SH,djauharyyaris@gmail.com,17091958
00023101,JAUW FELIX JAUWERISSA,-,08081956
00025951,JAUW FOE NIO,-,15101944
00035166,JAUW KWI,adilemena@gmail.com,13101973
80001075,"JAUW, RUNNY YAUWIANTY",-,08121983
00033909,JAVERIUS JOLLYOFTEN N,jauliang@yahoo.com,22071978
00025340,JAYA ISMAN,jaya.isman1960@gmail.com,20101960
00032315,JAYA MURLI KIRPALANI,kirpalanijaya@yahoo.com,31071979
00034602,JAYANTI MADAKARINI,keyra.viona12@gmail.com,14021985
00024310,JAYANTI MAOLIA,-,21041977
80001076,JAYARAMAN,-,21061952
00032726,JB CHRISTIAN,yunny.mode@gmail.com,28011963
00017428,JEANNIE,-,17051974
00034831,JEANNIE KENCANA WINOTO,jeanniekencana23@gmail.com,23061988
00026341,JEANNIE TJAHJOSELO,tjahjoselo@yahoo.com,10021976
00034066,JEANNY HU BASRIN,jeannyhb@gmail.com,24101974
00021776,JEANNY PATANGGU,-,07091951
00014779,JEFFEREY STEPHEN,-,02021996
00025699,JEFFREY FERDINAND,jeffreyferdinand2112@gmail.com,21121997
00031685,JEFFREY LINARDI,jeffreylinardi@gmail.com,23041993
00005698,JEFFREY SETIAWAN,vip.jeff@yahoo.com,20101986
00034710,JEFFRI PRI MARTONO,-,26101985
80001080,JEFFRY ANGGARA,-,04031964
00032550,JEFFRY ARYANTO GUNAWAN,gunawan.jef@gmail.com,12011984
80001082,JEFFRY BENEDIC,-,12061999
80001083,JEFFRY BODHI,-,19061985
00007468,JEFFRY CHANDRA,-,20011959
00005535,JEFFRY HARIANTO,xxxx,08051956
00005273,JEFFRY KURNIAWAN,-,11111948
00020685,JEFIAN FENARDY TJONG,jeffenardy@gmail.com,29081975
00005221,JEFREY,jefrey83@yahoo.com,04051983
00020115,JEFRI CHRISTIAN RANDA,jefri.c.randa@icloud.com,30121986
00023475,JEFRI SIMANGUNSONG,jefri_sms@ymail.com,04081987
00005444,JEFRON MARUHUM SILAEN,jefron76n@yahoo.co.id,24121973
00023582,JEFRY,wiriana.jefry@yahoo.com,18031975
80001086,JEFRY HIDAYAT,-,29081984
00025173,JEFRY JONATHAN NDUN,-,07091985
00025214,JEINE RONDONUWU,-,04041975
00015102,JEINVY TANZIL,vinny15888@gmail.com,15111971
00023979,JEJE LIESWATI TABRANI,-,17021953
00027991,JEKSON ONIBALA SE,jeksononibala3@gmail.com,07011984
00031334,JEMATUN,-,02111970
00005901,JEMI SEPTIAWAN,xxx,09121985
00028708,JEMMY,jatimspeedshop@yahoo.com,18021978
00022885,JEMMY NAZWAR,jemmynazwar79@gmail.com,09071979
00001426,JEN SEN,-,21081969
80001088,JENAWATI,-,10111961
00033678,JENDRI A GONI,-,24061992
00008400,JENI EPADRA,epadra.erza@gmail.com,16061980
00022102,JENI SUMALATA,-,12011967
00008080,JENIFIER CHRISTINE L,jenifierchristine@yahoo.com,01011991
80001089,JENIWATI,-,10121958
00035118,JENKINS TANDEAN,-,21121945
80001090,JENNA NATALIA KOSASIH,-,18081981
00023728,JENNI,jenni.dkc@gmail.com,22031970
00005804,JENNIE DARMAWAN,darmawanjennie@gmail.com,04031945
00016288,JENNIE NOERBAJA DOTULONG,jennie.dotulong01@gmail.com,20021949
00021788,JENNIE SUWARNI TJANDRA,-,08051962
00033596,JENNIFER,-,01031996
00017251,JENNIFER NOVIA,jenni.indosuryafinance@gmail.com,22051994
00002897,JENNIFER SUTIONO,jennifer.sutiono@yahoo.com,23101995
00033260,JENNY,apotiksemangat@gmail.com,03021979
00033904,JENNY,-,14111974
00010737,JENNY,-,28031971
00019197,JENNY,ms.jennytio@gmail.com,07051981
00035108,JENNY GUNAWAN,tdk memiliki email,06031949
80001092,JENNY GUNAWAN,-,28121967
00002351,JENNY HARIWAN,,20011973
00027895,JENNY HOSEA,jhosea2103@yahoo.com,22011973
00033146,JENNY JORY SALMON,jennysia.wilanri@gmail.com,04021956
00033178,JENNY KARTIKA HARTO,-,02061976
80001093,JENNY KINANTAN,-,13021965
00015420,JENNY KOSASI,edwardtania@yahoo.com,26031974
00029992,JENNY KURNIATI TANU,jennykur@hotmail.com,12041962
00015451,JENNY LAUVITA,jlauvita@gmail.com,14011999
00031839,JENNY LYNARKO,jennylee70@gmail.com,15031970
80001097,JENNY SOEGIARTO,-,24041964
00011094,JENNY SOETRISNO,jennysoetrisno@yahoo.com,19021974
00031413,JENNY SUMONO,-,04041969
00008040,JENNY UTAMI NG,xxxxxx,29071949
00022128,JENNY WIDAYATI PRADJONGGO,jennywpradjonggo@gmail.com,07091963
80001098,JENSEN,-,21081969
00008921,JENY,jeny_max@yahoo.co.id,26011980
00032016,JENY JULIAN LUIS,0,05121957
00013644,JENY KOSASIH,jeny.kosasih@jni.co.id,09081969
80001100,JEONG RO LEE,-,01031942
00021633,JEREMIA ARMI WIJAYA,jeremiaarmiwijaya@gmail.com,21071999
00031829,JEREMIA DWI MARTONO,-,17081987
00007372,JEREMY DARSONO,-,05061992
00020746,JERNITA DONNA MANURUNG,jernitamanurung2018@gmail.com,04021981
00025397,JERRY FERNANDO SITUMEANG,j.situmeang@gmail.com,11101978
80001103,JERRY SUDHIRA PARD,-,13091958
00017129,JERRY TANUMIHARJA,-,25091948
00024571,JESSE FERDINAND SULU,jfsulu@gmail.com,03031969
00004955,JESSICA,jessica.hakim@gmail.com,06111989
00001124,JESSICA ANTANIA,-,23011993
00025058,JESSICA HALIM,jessica halim99@gmail.com,23091992
80002676,JESSICA HENDRADI,-,23061989
00018751,JESSICA JOANNA CAECILIA,jessicajoannaa@gmail.com,15121995
80001105,"JESSICA LEE, LAY",-,31051988
80001106,JESSICA NOVIA,-,15051992
00031126,JESSICA OKTAVIANI,-,15101991
00011290,JESSICA SIDARTA,angelajessica7@gmail.com,24061985
00026692,JESSISCA,jessica92@yahoo.com,22041992
00020538,JESSLYN CALLISTA TJANDRA,j.callista@gmail.com,22071999
00034110,JESSLYN CLARESTA PRAYOGO,dee_yan1985@yahoo.com,04012002
00006655,JESSLYN LEE,jelllee@yahoo.com,24041960
00015782,JESSLYN WIJOYO,-,25021985
00000359,JESSY MUSTAFA,jessy,18051984
00033394,JESSY URUN NAIBAHO,0,16091974
00002931,JESSY YAHYA,jessy.yahya@gmail.com,05121964
00012777,JETHRO PARAPAT,0,12101974
00010164,JETTI WIDJAJA,sisjetti@yahoo.com,13031952
00024978,JETTY DARLINA,-,12021966
00007503,JETTY GOENAWAN,-,11091967
00031640,JETTY INSJA,-,05081965
00033069,JETY WIDJAJA,jety.widjaja@gmail.com,08061971
00028511,JEW HENDRA,jew_hendra@yahoo.com,06091990
00026392,JHERIEL ANGLIE PALIAMA,-,12061995
00001851,JHON,o,16121971
00018591,JHONDIWAN SITORUS,-,10071985
00035042,JHONI,jhoniabun123@gmail.com/asyahra@gmail.com,17011988
00001334,JIE ANGELA FIONA L,-,02021973
00018031,JIE FE TJOENG,-,17081964
00024201,JIE FRANS FERNANDO,-,13091969
00034818,JIMMY,jimmy.tan80@gmail.com,22051980
00002721,JIMMY BOEWONO RUSLIM,jruslim@dunextv.com,08101977
00032399,JIMMY BUNAWAN,redboen@ymail.com,18011990
00025138,JIMMY EDWARD,jm.edward@yahoo.com,12101979
00004452,JIMMY ERIK,,19031987
00013840,JIMMY FLEMING LIAJAYA,-,09061967
00003819,JIMMY KOSASIH,jimmykosasih_mail@yahoo.com,15101988
00033292,JIMMY RIDHO,-,29081969
00023232,JIMMY RUMPUIN,-,12021984
00034949,JIMMY SANJAYA,-,03051960
00033586,JIMMY SEMBIRING,jimmysembiring17@gmail.com,17061989
80001115,JIMMY SUKRISNO,-,30081956
00028740,JIMMY SUWITO,si_beduls@yahoo.com,05051979
00002677,"JIMMY TANAL,SH",-,10021979
00031256,JIMMY WIDJAJA,-,26051980
00000620,JIOE JOEN LAN,0,02071953
80001118,JO GIOK KWAN,-,07071961
00011679,JO ONG NIO,0,25051937
00023283,JO SEK AY,0,05031955
80001119,JO SIOK KONG,-,24031957
00020507,JO SULIN,0,06081977
00001068,JO SUSANTI,,21011951
00015707,JOAN,gotikgotik1977@gmail.com,19091981
00027504,JOANNE CAHYADI,-,14091985
80001123,JOCELYN LIMAN,-,31031981
00031509,JODI KURNIAWAN,enjangwira71@gmail.com,14111997
80001124,JOE HALIM,-,11041949
00032133,JOE LILY DARJATI,joelily712@yahoo.com,07121970
00014651,JOE TOAN TJEUNG,acenkelenteng@gmail.com,14101958
00012428,JOE YULIANNA,-,12051946
00008695,JOEHANNES HARIANTO,-,05111980
80001126,JOEHARI TJAHYADI,-,29051962
00001723,JOELIANI TJANDRA,,16081961
00022599,JOELIANTO NOEGROHO,jnoegroho@gmail.com,17071959
00015763,JOELIHERNA SOEHARTIN S,-,04071953
80001127,JOENDY,-,22061991
00002544,JOESIANY,joesianybunjamin@gmail.com,14071956
00034177,JOESTIN ANGGRIANI,lily_setiawati@hotmail.com,13051938
00022605,JOHADI AKMAN,-,06051951
00028139,JOHAN,-,12111967
00033880,JOHAN,johanestandoro@yahoo.com,12111967
00027252,JOHAN,johanlioe76@gmail.com,27031976
00011403,JOHAN,-,05081976
00012958,JOHAN,-,27011985
80001129,JOHAN ADISURYA SOEGIARTO,-,20091974
00031290,JOHAN CHANDRA,pending,18101951
00015101,JOHAN DARMANTO,johan@gmail.com,24121968
00015173,JOHAN HANIP,k704n@yahoo.com,14091980
80001131,JOHAN INDRA WIJAYA,-,24071968
00010879,JOHAN IRAWAN,ginga.broxy.86@gmail.com,20061986
00029092,JOHAN KWANG,johan_kwang_dkms@yahoo.com,15051966
00013322,JOHAN LIM,johanlim.bmp@yahoo.co.id,12121970
00010853,JOHAN SALIM,xxxxxx,29051979
00032082,JOHAN SETIAWAN,-,25081978
00017747,JOHAN SOEGIHARTO,-,25111994
80001134,JOHAN SUSI,-,19071962
00001126,JOHAN SUTADI TANDANU,-,10101983
00032050,JOHAN VICTOR MALONDA,victor_malonda@yahoo.com,19011958
00033380,JOHAN WAHYUDI,mrjohanwahyudi01@gmail.com,07041980
00011076,JOHAN WAHYUDI,-,24011990
00034307,JOHAN YOWONO JONG,chandra.jong@gmail.com,02121947
00001428,JOHANA,-,22051948
00006962,JOHANES AGUSTINUS H,-,12081952
00000624,JOHANES DANIEL,johanesdaniel@gmail.com,29031955
00033872,JOHANES R SULAMET,ramnathjohannes@gmail.com,31071947
00030623,JOHANES VINCENTIUS LUSIDA,-,29081962
00013041,JOHANES WIJAYA TJEN,-,24091966
00024413,JOHANI PARLINDUNGAN,hero_shoes@yahoo.co.id,08081970
00009095,JOHANNA ARYANI KUNTJORO,yoke1133@yahoo.com,03011964
80001139,JOHANNA CHANDRA,-,18121956
00008842,JOHANNA JO,-,11041964
80001141,JOHANNA WIDAJANTI HIMAWAN,-,31071948
00033756,JOHANNES DHARTANTO WIBOWO,-,29091945
00007484,JOHANNES HARDIMAN LATIEF,ciau@hotmail.com,09061966
00021865,JOHANNES IDRIS,idrisjohannes@yahoo.co.id,28061963
00007554,JOHANNY USMAN,-,11011971
00021051,JOHANSEN EMRIKO ARITONANG,johansen.tonang@gmail.com,16031986
00026499,JOHANSEN KURNIAWAN,0,25051991
00016522,"JOHANSYAH,DRS",herliani.johan@yahoo.com,13011955
00022754,JOHN ARITHA SINURAYA,sinurayajohn@gmail.com,10041976
00000626,JOHN KATAPI SISWADI,-,17071963
00019367,JOHN KURNIANTO T,john.kurnianto@gmail.com,06101974
00031868,JOHN LENON SIAHAAN,john.siahaan@indosuryafinance.com,22121983
00011971,JOHN MANUMPAK PARULIAN,simamorajohn72@gmail.com,26081972
00007780,JOHN SAMIN,xxx,09061939
00025103,JOHNI SUCAHYA,-,27011949
00027416,JOHNNIE ROBERT,-,19061963
00031472,JOHNNY,johnnyaltindo@gmail.com,09031976
80001142,JOHNNY ASWAN,-,20061956
00011915,JOHNNY DARMAWAN D,johnnydarmawan1852@gmail.com,01081952
00025473,JOHNNY GUNAWAN,-,13071941
00012510,JOHNNY KAMALUDIN,digitalgrafikaindonesia@gmail.com,30081970
80001143,JOHNNY SAPUTRA,-,24051944
00005610,JOHNNY SATIADARMA,jsatiadarma@yahoo.com,08101965
00022801,JOHNNY WONGSO,-,17011967
00034780,JOHNSEN TAN,-,07021991
00013020,JOHNSON WAHAB,wahabj@hotmail.com,30041974
00030457,JOHNWAY SUWARSONO,-,26101976
80001148,JOHNY,-,11011971
00034151,JOHNY ISKANDAR,johnyiskandar69@yahoo.co.id,30051969
00011725,JOHNY RACHMANTO SK,jhony_rachmanto@yahoo.com,29061953
00007890,JOHNY SURJANA,johnsur13@gmail.com,13081958
00006805,JOJO KRISNAWAN,0,12091949
80001149,JOKO BONGSO,-,28071973
00005153,JOKO PURWANTO,joko.purwanto510@gmail.com,10051979
00026828,JOKO PURWANTO,jkpointproperty@gmail.com,04051973
00010378,JOKO SISWOYO,jsiwoyo@yahoo.co.id,09071956
00015208,JOKO SUPARNO,.,04061968
00024116,JOKO SUPRAYITNO,-,10081974
00008953,JOKO TRIYONO,jokotriyono856@gmail.com,10061978
00028544,JOKO WIYANTO OEIJ,jokowiyantooeij@yahoo.com,19011987
00030925,JOKO WIYONO,-,15021978
00013419,JOLLIS SINAGA,.,16091972
00025316,JONATHAN,jbong@ymail.com,01071977
00030969,JONATHAN COLIN,jocmuten@gmail.com,06111991
00006728,JONATHAN DAVID MANANSANG,xxx,09041977
00008073,JONATHAN LIMAN,xxx,20071983
00012648,JONATHAN SURYA TANA WIJAYA,nathan_surya33@yahoo.co.id,16051982
00008244,JONATHAN TJUGIARTO,-,11091953
00019989,JONATHAN WILLIAM,-,10031992
00003498,JONG DIAN ADHISTY NUGROHO,dee_yan1985@yahoo.com,29061985
00022439,JONG EVARIA LISDA,evemail_2000@yahoo.com,30081985
00007082,JONG FUNG JIE,-,12051969
00028988,JONG JEANY JOHANES,-,02061965
00001195,JONG JUNUS OCTORA,junus.octora@indosuryafinance.com,03101969
00010088,JONG LIE LAN,0,10081946
00034116,JONG LIIJ SIONG,-,14111957
00010944,JONG LIOE LIN,-,29061953
00020721,JONG OE MIAUW,jom50@yahoo.com,27051950
00022280,JONG SOEI KIAN,jong.soei.kian@yahoo.com,04041970
80001154,JONG VILIA,-,16081986
00032891,JONI,bun_joni@yahoo.co.id,05081987
00033492,JONI,tjoniwang@gmail.com,15101982
00011186,JONI ANTONO,joni.antonoo@gmail.com,05061993
00021240,JONI DATU LINGGI,jonidatulinggi81@gmail.com,27061981
00033381,JONI HALIM,johnl1m@yahoo.com,28021981
00024743,JONI HAMZAH,jonihamzah@gmail.com,02071978
00009736,JONI LIONG,jliong78@yahoo.com,16061978
00005799,JONI SAMUEL GOKLAS PASARIBU,jonigoklas@yahoo.com,08011981
00031607,JONIVER PRANATA,joniverp@gmail.com,04061991
00034090,JONKY TJAHYADI,jonkytja2323@gmail.com,23111978
00009481,JONLIS HASUDUNGAN SIHOTANG,-,02061974
00027881,JONNY,-,28061947
00002630,JONNY,jonnyoct@yahoo.com,07101988
00022550,JONNY HIRA,-,01031962
00007930,JONNY WIRYANTO,-,23071970
00024191,JONSON EFENDY,jonsonchang78@gmail.com,02121978
80001159,"JONSON THOE, SE.MH",-,28081969
00006125,JONTUS NAITBOHO,jontusnaitboho@gmail.com,10061980
80001160,JONWATI TJENDERA,-,10021938
00029797,JONY,jonytan9@gmail.com,04031977
00014037,JONY KANADI,-,02041962
00029556,JOPPY SAPUTRA,joppysaputra@yahoo.co.id,13011957
00006266,JORDY TANDANU,-,10041994
00000630,JOS CHANDRAWIRA,-,20021946
00005655,JOS PITONO TIRTOPRODJO,-,13121949
00009680,JOSEBA NATHANIA SUGIJONO,-,05121989
00010913,JOSEF AGUSTIANUS,0,19061946
00011492,JOSEF SUKABI MAUBERE,-,26091954
00010669,JOSEHPIN JENNY LIE,jennylie278@yahoo.co.id,08081979
00035293,JOSEP,pratamamulia1@gmail.com,22081965
00015800,JOSEP BENEDICTUS SURYAWAN,fume_diskuz@hotmail.com,09051989
00027576,JOSEPH HALIM,-,11031970
00024229,JOSEPH MANUEL LUAS,-,03091970
00001530,JOSEPH MARGOLO,-,24071959
00011574,JOSEPHINE GABRIELLE MAKSUDI,-,01071999
00015035,JOSEPHINE PETRINA KOTJIK,little_ying81@yahoo.com,29031981
00034408,JOSEPHINE WERRATIE KOMARA,-,13071955
00025305,JOSHUA LIE,joshua_to_lie@yahoo.com.au,31071968
00015255,JOSI JOHANES MEWENGKANG,-,20031947
00007539,JOSIE ISTIKA SAMIADJI,-,06091942
80001166,JOYCE A LAPIAN,-,02101967
80001167,JOYCE HENDRADI,-,07111977
00008594,"JOYCE NOVITA, SE",genijoyce@yahoo.com,26101972
00015297,JOYCE RAHAYU KUSUMARIYADI,-,13101974
00000631,JOZA SURYAWAN,-,14061933
00010371,JOZEF HENDRA TANUMIHARDJA,-,08031954
00001018,JOZEF JO,jozetjo66@yahoo.com,24061966
00008281,JU ANTA WIJAYA,juantawijaya@yahoo.com,19061972
00024694,JUAN,juandeholland@yahoo.com,22011974
00029314,JUAN JUMANTA,juan.jumanta@yahoo.com,11011979
00015062,JUANDA,-,06051971
00008090,JUANDA NAPITUPULU,juanda@cimbniaga.co.id,03101960
00009089,JUANDA SUHENDRA,-,26071988
00007049,JUANDI SUHENDRA,-,27061983
00025074,JUANITA PANJAITAN,sherdaflajs@gmail.com,30121973
00008160,JUANITA SETYAWATI,-,02061957
00030905,JUANSYAH LUNARDI,0,19051978
00020406,JUDHITIA SUBA SAMPEBULU,-,22061987
00025939,JUDIANTO,aminahhap@gmail.com,04041943
00034286,JUDY PRIJADI,jtsangs@hotmail.com,25061983
00026385,JUDY WIRJADINATA,jwainata@gmail.com,12061949
00007857,JUHAN ALI,-,10011953
00030804,JUHNTI,inukhai@gmail.com,10071973
00025418,JUJU,-,15031970
00003507,JUJUN KARMILA,bibi_yunaz@yahoo.co.id,29021972
00001069,JUKLIN ALI,-,19031951
00034663,JUL INO NANI,binjeita813@gmail.com,16071971
00004688,JULI,rudysiwalan@gmail.com,23071971
00018685,JULI,julideborah67@gmail.com,08071967
00033800,JULI TUKIMAN,-,27061955
00003466,JULIA,juliaphan88@gmail.com,06121981
00001128,JULIA CHANDRA,,18011955
00011983,JULIA HALIM,kucingygcantik@yahoo.co.id,02081985
00020221,JULIAH,jsp_gunawan@yahoo.com.sg,22021965
00030154,JULIAN WAHADAMAPUTERA,julianchen688@gmail.com,20051966
00033090,JULIANA,julianajioe@gmail.com,18111967
00034337,JULIANA,juliana627@yahoo.com,02071980
00004530,JULIANA DWI FERA TAMBA,feratamba@gmail.com,23071984
00028514,JULIANA LAWONO,mena73@gmail.com,26121973
00033614,JULIANA LIEMER,juliana.liemer@gmail.com,05071978
00009062,JULIANA SETIAWATI ATMADJI,b3b3h@hotmail.com,07101979
00035311,JULIANA SISWANDI,-,14071971
00022507,JULIANA SURJADINATA,-,08021949
00027438,JULIANA SUSANTO,-,07101973
00020860,JULIANA WIDYANTI,widyanti_juliana@yahoo.com,06071967
00033481,JULIANARTI,nixnixcutez77@icloud.com,16061994
00033244,JULIANAWATI,b_antoni@live.com,06071959
00032651,JULIANI DEWI WINATA,-,19071953
80001176,JULIANI DEWI WINATA,-,19071963
00031831,JULIANI FERRY,-,27041979
00022559,JULIANSJAH GOZALI,toko_abadi_90@yahoo.com,20091932
00033408,JULIANTHY,julianthy67@gmail.com,07071968
00031810,JULIANTI,-,20091948
00034249,JULIANTI DEWI,-,10051941
00029999,JULIANTI SANTOSO,0,28061959
00017842,JULIANTO CHRISTIAN,julianto.christian@gmail.com,12071992
00016099,JULIANTO WIJAYA SAPUTRA,julianto.ws.red@gmail.com,25071983
00020979,JULIASMAN TANDJUNG,-,04011958
00008752,JULIATI TANJUNG,0,09031962
80001179,JULIATY NAGASAPUTRA,-,28091950
80001180,JULIATY TJAN,-,15081972
00027877,JULIAWATI,-,29071964
80001182,JULIAWATI EFFENDI,-,10071955
00027441,JULIAWATI ISHAK,.,17071944
00011523,JULIAWATY,-,03041965
00022013,JULIE IRA SAPUTRA,-,07071969
00019664,JULIE NATAWIDJAJA,julie95lim@gmail.com,15041975
00000637,JULINAR,-,07021965
00002554,JULISTIN,,28121944
00024581,JULITA,julitasetiadi@gmail.com,11071985
80001184,JULITA HALIM,-,19071961
00012338,JULIUS,joel.iyus@gmail.com,24071982
00007764,JULIUS ADE TJANDRAWIDJAJA,julius.ade@gmail.com,20071982
00010015,JULIUS AOROLAN,aorolan@yahoo.com,03061947
00014069,JULIUS DANIEL EMERSON SIAHAAN,juliusdniel@gmail.com,10071990
00009380,JULIUS JEFFREY,linahwati68@gmail.com,24011995
00015134,JULIUS PRATAMA SOLIHIN,julius.pratama@gmail.com,27071985
00014668,JULIUS RIFAY TANZA,0,22111958
00032496,JULIUS WIBISONO,juliuswibisono@yahoo.com,01081972
00015573,JULIWATI SIAGIAN,julinotarisppat@gmail.com,03071979
00006041,"JULIWATI, SE",juliwati@gmail.com,01071972
00026447,JULKIFLY SARAGIH,julkifly.saragih@indosuryaksp.com,08011980
00015622,JULYASARI,-,04071976
00018244,JUMADIL,adil.minning@gmail.com,30111979
00031348,JUMADIL,naylajumadil2013@gmail.com,20031990
00017971,JUMAWAN,-,08071960
00017625,JUMIATI,-,20041968
00025119,JUMIYATI,-,13121978
00020972,JUMRIANI,jumria548@gmail.com,18051989
00029128,JUNA,junaoey@gmail.com,07111968
00025339,JUNAEDAH,junaedah.nur@yahoo.com,07011981
00028927,JUNAEDI ABD SAHRI,junedabdulsahri@gmail.com,28061988
00030628,JUNAEDI MALIK,junaedi.malik@indosuryafinance.com,15051980
00001214,JUNAIDI HASAN,junhasan@hotmail.com,17091977
00031411,JUNARTO,kanaliang12345@gmail.com,09091964
00001288,JUNE INDRIA,indria@indosuryafinance.com,01061971
00027770,JUNI KASIM,-,19061970
00009909,JUNI SAGITA DEWI GOENAWAN,-,16061975
00014152,JUNIANI SUNARYO,-,17061965
00001070,JUNIARTI PONIDIE,,07071953
80001189,JUNIARTI PONIDIE,-,27071953
00033754,JUNIARTY SUWANDI,-,26061962
00028835,JUNIFA SUPRIATIN,-,03061962
00010898,JUNITA INDAH RACHMAWATI,-,22061967
00011800,JUNITA MAYARANI IRWANDHIE,-,05061963
00000639,JUNITA WIDJAJA,-,08011955
00024848,JUNITA WIJAYA,junita wijaya81@gmail.com,15061981
00017513,JUNIUS HARTONO,0,12061977
00027507,JUNIUS VICTOR MARTHIN PANGKEY,juniusp71@gmail.com,03061971
00009667,JUNIVIA RENATA SIE,xxxxx,15061961
00016802,JUNIWATI,0,23091949
00021944,JUNNE PATREISYA RUHULESIN,patreisyajun@yahoo.co.id,05061986
00034196,JUNYANTO RAHARDJA,ratnaraharja1@gmail.com,26061968
00014600,JUPARNA PURBA,parna.purba@yahoo.com,22041985
00032265,JUPIJANTO WIWIK MULIONO,jupijanto.wiwikmuliono@yahoo.com,19121961
00034318,JURAWATY MUCHTAR,-,16011966
00022449,JURIAH,-,27121974
80001196,JUSIANA SUGIARTO,-,02041952
00031979,JUSMAN,jusman@indosuryafinance.com,18061989
00024973,JUSMAWATI,jusmawati@gmail.com,26081988
00021589,JUSTIANI SARAGIH,just.sitio@gmail.com,29041964
00032638,JUSTIN TANDEAN,tidak ada email,22081968
80001197,JUSTINA HERMANTO,-,30041965
00000488,JUSUF MUCHARAM,-,05011948
00011485,JUSUP ANUGRAH,0,27121968
00002387,JUSUP GUNAWAN,jsp_gunawan@yahoo.com.sg,19091959
00031790,JUSUP KARUNIAMULIA,-,19051960
00026161,JUSWAN LEO,-,29021964
00008463,JUSY TIKAMARWATI,xxxxxx,22101946
80001200,JUTIANA,-,24111981
00029042,JUVIELA PRANANTHA,0,28061980
00025160,JUWITA EKAWATI WINOTO,ikurniawan88@yahoo.com,29121952
00026384,JUWITA MEILA GABRIELLA KUSSOY,-,30051996
00013769,JUWITA SUSANTI,-,09101988
00018690,JUWITA WIJAYA,juwita_wijaya@hotmail.com,14111978
00005694,JUWONO ANDRIANTO,xxx,15111950
00013562,JUWONO PRAWIRA,juwono@uusteel.com,08041967
00011976,JUZAK JOESPAR,-,16031956
00023917,K.MERRY,x,20021964
00015585,KADEK AGUNG PURNAWINATA,purnawinatakadekagung@gmail.com,24091980
00033334,KADEK INDIRA DHARMAGOPTA,kadekdharmagopta@gmail.com,12101994
00029979,KADEK INDRA PRAYOGA,indraprayoga101090@gmail.com,10101990
00002245,KADER TARIGAN,tarigankader@gmail.com,10011968
00021797,KADIR,-,25061975
00010673,KADRI,kadri.89930@gmail.com,11041979
80001203,KAHAR TANDANU,-,28061953
00024864,KAHARUDDIN,-,10071974
00028286,KAIMUK NOPPRAPUN,-,20071964
00012468,KAKA HERTANTO,-,10061962
00020434,KALBI UMKABU,-,09021978
00031084,KALEBU TODINGALLO,-,23091946
00023045,KALIM SK,kalim.gr@yahoo.com,20071975
00027860,KALIM TANDANU,pending,21041957
00024692,KALIMAH AMD KEB,kalimah@gmail.com,11111961
00031563,KALYANI SANGKAR,kalyanisangkar@gmail.com,25011967
00009642,KAM MARIA THERESIA KAMALLAN,-,13021965
00028142,KAMAL,kamaltan5@gmail.com,04101959
00009423,KAMAN WIDJAJA,-,21011938
00005529,KAMARDY ARIEF,xxx,14081932
00015453,KAMARIAH,-,27071965
00033621,KAMARUDDIN,aryospeed88@gmail.com,08061988
00012719,KAMLESH REWACHAND CHUGANI,kamalre218@gmail.com,21081976
00028302,KAN ALIANG,kanaliang12345@gmail.com,18031971
00031202,KAN LIE LAN,dingkll@gmail.com,19111971
00034038,"KAN,SIOE HE",praktek02@gmail.com,27041962
00009771,KANDIKA LUNARDI,-,27031950
00013384,KANG DJIE KWIE,-,23101949
00031580,KANG TEK SEN,suryamotorbaru5@gmail.com,22071970
00024471,KAPE AMPULEMBANG,-,20061966
00020970,KARA ALPHINA TRISNADI,-,09021991
00034985,KARAN HARICHAND TOLANI,-,25031988
00019549,KARDIAWAN LATIDJAN,-,16031962
00031726,KARDINA,kardina.ang@gmail.com,17041970
00031769,KARDINAL,mings2001@yahoo.com,13021981
00009845,KAREL BUDIMAN,-,07041945
80001213,KAREN HALIM,-,11121991
00033354,KAREN LIANIS JO,karenlianisjo@outlook.com,10111996
00015009,KARIM DARMADI LAZUARDI,karim.unikey@gmail.com,21031968
00025670,KARIMUDDIN,alcariemy@gmail.com,17051982
00033425,KARINA PERTIWI,kpy22@hotmail.com,22021985
00018028,KARINA ROSALIN KUMARGA,karinakumarga@gmail.com,03101985
80001214,KARINA SURYA KWANDOKO,-,01011976
00028696,KARJANTO,karjanto70@yahoo.com,19061970
00008461,KARJAWAN ANA SUDIHARDJO,-,04011968
00033863,KARLA EFFENDI,karlaeffendi@yahoo.com,09031975
00009112,KARLINA,linauzielalul@gmail.com,22061986
00000645,KARMAN TANDANU,-,25111951
00011787,KARMILA,xxxxxx,10081978
00013659,KARNADI GOZALI,efvagzl@gmail.com,04071949
00013150,KARNADI TANUDJAJA,0,21081958
00014101,KAROLINA KARO KARO,-,17061964
00022092,KAROMAH,-,25101981
00032392,KARSINI,-,13021969
00026693,KARSONO,karsono_18@yahoo.com,31071975
80001216,KARTASA,-,21011966
00025369,KARTIKA K LAMADILAU,-,04121993
00006989,KARTIKA KURNIATY,kartikak224@gmail.com,30111967
80001217,KARTIKA SARI DJAJASASMITA,-,22111954
00028369,KARTIKA TANAJAWISASTRA,-,10021950
00016789,KARTIKA YULIADI,-,13071970
80001218,KARTIKASARI PRADIPTA,-,14031970
00035054,KARTIN KIBA,kartin.kiba@gmail.com,05021969
00032715,KARTINA,ong_kartina@yahoo.com,14031979
00013224,KARTINA,theodora_adriana@yahoo.com,18091973
00026950,KARTINI,anniternity@yahoo.com,20041982
00012142,KARTINI KUSUMA PUTRI,-,21041993
00000646,KARTONO HANAFI,-,09041955
00033438,KARTONO TASLIM,-,09071963
00021297,KARTONO WONGSODJAJA,-,11101974
00015192,KARWINI,-,05071977
00023187,KARYADI,info.greenrinjani@gmail.com,10061991
00011845,KARYATI,0,08081968
00007037,KASIH HANGGORO,-,18031969
00029102,KASIM GUNAWAN,gunawankasim@yahoo.com,16081961
00003474,KASIYAN BASIR,,02061974
00006029,KASSIGI ONG,kassigi_ong@yahoo.com,01081957
00015777,KASWATI,jennymulyadi88@gmail.com,01011961
00025413,KATEMEN,-,23071978
00010234,KATHARINA TJAKRADINATA,-,08051943
00024287,KATHARINA YULITA KANA,litakana78@gmail.com,25021978
00003793,KATHERIN JULY,katherin.july@indosuryaksp.com,17071984
00007894,KATHERINE YULISTIANTO,xxxxxx,15081982
00021112,KATHRINE LIE,.,02021973
00013875,KATHY ADIWENA,-,09061999
00000647,KATRIN HENDRAJATI,-,18111945
00027703,KATRINE SENDJAJA,-,10071962
00008944,KAWI TJANDI,-,12101940
80001224,KAWI TJANDI,-,20101940
00012152,KAYIN ARIF,arifkayin0905@gmail.com,09051969
00034275,KEISHA KARUNIA AZKA,keisha.azka@yahoo.co.id,24021996
80001225,KELLY,-,10071988
00008795,KELVIN,-,05111995
00029819,KELVIN JUANDA,keju81@gmail.com,19081981
00015560,KELVIN TENGGARA,kelvintenggara@gmail.com,04061991
00034242,KEMAL JOHAN,kemaljohan62@gmail.com,31101984
00034282,KEMANIE RYANTO ASAD,kemanieryanto@gmail.com,14071972
00009638,KEMAS ANRIZ N HALIM,-,21081966
00034669,KEMAS KEISAR DELVIN ABDURRAHMAN,kk.delvin@gmail.com,20012002
00018647,KEMBAR NICSON SIMANJUNTAK,-,25051985
00031972,KENDRA SIMON,-,04101971
80001226,KENJI YEO,-,04061995
