username,name,EMAIL,DOB
00016429,A A ISTRI MAS WULANDARI,-,30011980
00021413,A ANDIS,-,01071979
00003044,A ANDRIYANTO RACHMAT,andriyanto.rachmat@yahoo.com,17061965
00020132,A ARMAN MUCHTAR,-,07021978
00025492,A AZPAR ASWIN,azparznd@yahoo.co.id,17121992
00010775,A ETIK WURYASTUTI,ronacakrawala2@gmail.com,20081978
00030785,A FAROUK P,-,10031940
00027835,A HILAL,andihilal925@gmail.com,21071979
00031673,A HUANG,ahuang19788@gmail.com,03061978
00014525,A MUH YUSUF,andi.muh.yusuf17@gmail.com,12041974
00011468,A ONG THIAN HIAN IR MSIE,xxxxxx,24071957
00021340,A RAYNI NOVAYANTI HASRI,rayni.novayanti@gmail.com,03071979
00032613,A RIYAN SUDIYANSYAH ND,ventazalfa67@gmail.com,08111992
00034457,A SUJENDRO,asujendro6969@gmail.com,22121980
00021701,A SYAMSI,ahmadsyamsi120@gmail.com,01081961
00022763,A YUN,djiekian9@gmail.com,30061973
00032387,A. KAMIL,kamil21@gmail.com,03121962
00028385,A. KOESWADI,tidak memiliki,27031961
00034578,A. SHANDO SEONDORO,antoniusshando@gmail.com,15041978
00034565,A. SHINDU SOENDORO,shindu.soendoro@gmail.com,02111980
00022955,A. SUCI PURNAMA SARI,-,06061993
00017522,A. SURIANTI,andianti759@gmail.com,25121985
00019203,A. SUYITNO J,a.suyitno1972@gmail.com,11061972
00004883,A. TAUFIK,taufik.madjid@gmail.com,22121969
00018465,A.A PUTU OKA DARMA PUTRA,-,12111989
00035030,"A.ASRAIL MANGKONA ILYAS,SE",andiasrailmangkona@gmail.com,04061989
00011932,AA SG SRI ADNYA SUARI KESUMA,anya.kesuma@gmail.com,21071991
00030269,AAN,0,20051971
00013134,AAN CHRISTIAN,0,17021953
00026712,AAN HASANAH,-,05071964
00023994,AAN ROSTIANAH,-,01121966
00012336,AAN SUKMANEGARA,0,27061949
00029788,AARON WIDJAJA,a.noppra@gmail.com,20071991
00029040,ABBAS,liongcom@gmail.com,12101982
00027360,ABD AZIS BADI,abd.azisbadi@gmail.com,31121975
00027558,ABD HAMID T,abdahamid111@gmil.com,25051971
00010496,ABDAL FARIID,afariid29@gmail.com,20081979
00019266,ABDILLAH,-,21121965
00015452,ABDILLAH,tediabdillah972@gmail.com,14061976
00025264,ABDUL AZIS,0,04011974
00030307,ABDUL AZIS SANTOSA,abdulazis@gmail.com,12051992
00021903,ABDUL AZIZ FIRMAN,azizfirman23@gmail.com,23011972
00027498,ABDUL BASIR,basir.abdul@gmail.com,06101974
00016847,ABDUL FAJAR SIDIQ,fajar.ispmadiun@gmail.com,17091988
00035301,ABDUL GANI,abdulgani.new@gmail.com,04101973
00018247,ABDUL GOFUR,gofur21abdul@gmail.com,17071982
00030931,ABDUL GOPUR,agopur040@gmail.com,08081970
00030742,ABDUL HAMID,matarametcp@gmail.com,03021968
00009305,ABDUL LATIF YULIANTO,doelyulianto79@gmail.com,25071979
00013575,ABDUL MADJID,-,01011965
00022777,ABDUL MALIK AL AZIZ,abdul.malik@indosuryaksp.com,18121984
00025822,ABDUL MANAP,abdul.manap@gmail.com,15061972
00014113,ABDUL RACHMAN,rachmanbun@yahoo.co.id,31071958
00007524,ABDUL RACHMAN SIDDIK,srahman354@gmail.com,16121983
00024719,ABDUL RACHMAT SALEH,rachmatpamk@gmail.com,11111994
00014935,ABDUL RAHIM,rahimabduloke@gmail.com,12091972
00011359,ABDUL RAHMAN,abdul.rahman@indosuryaksp.com,29091979
00024789,ABDUL RAHMAN TOMPO,rahmanabdul74t@gmail.com,05071974
00003412,ABDUL ROHIM,0,10121970
00020651,ABDUL ROZI,rozi_bangka@yahoo.co.id,02091982
00033796,ABDUL SALAM,umar@bankvictoriasyariah.co.id,05061950
00022639,ABDUL SAMID,xxx,31121969
00016276,ABDUL SOMAD,somadalmeer18@gmail.com,15071975
00024780,"ABDUL WAHID DAUD, S.PD",abdul.wahid23@yahoo.com,22021987
00023568,ABDULATIP,-,15041971
00012640,ABDULLAH,-,13041964
00024292,ABDULLAH,abdullah.27@gmail.com,27051973
00027250,ABDULLAH,abdullahhabib808@yahoo.com,27031989
00008238,ABDULLAH HAFID,adelyaputri23@gmail.com,05121973
00005161,ABDULLOH,dul_mz@ymail.com,26061987
00034655,ABIDIN WIDJAJA,-,27011976
00031307,ABIGAEL SANGGELE,-,26041965
00000367,ABIN SOESANTO,-,17061958
00022339,ABNER ALFRITS FRANSISKUS MANUEL SIKOPONG,-,18041975
00023364,"ABRAHAM ARYO WICAKSONO, SE",abraham_aryo@yahoo.com,25031984
80002678,ABRAM BERNARDUS OLIJ,-,12021937
00015267,"ABU HERMANTO, DJ",abuhermanto10@gmail.com,23101981
00015262,ABU RIZAL,-,13081962
00026938,ABU RIZAL,12al.abu03@gmail.com,03081973
00015995,ABUNAWAR SUTANTO,abunawarsutanto@gmail.com,08061971
00015417,ABURIZAL ATDINATA,-,17121979
00032878,ACEP APRIANTO,acept123@gmail.com,02041983
00023662,ACH NUR HASAN,-,12021981
00024013,ACH.YULIANTO,yuliantolio1001@gmail.com,26031989
00023273,ACHMAD ALEQ HADI CHRIESTIYANTO,alexevolution1688@gmail.com,16071984
00024360,ACHMAD ALMER SOFYAN,almerock19@gmail.com,19081982
00002300,ACHMAD BERMAWI,achmadb@gmail.com,21081971
00007917,ACHMAD BUSTOMI,achmad.bustomi123456@gmail.com,22011988
00031115,ACHMAD DAINURI DARWIN,achdaidarwin098@gmail.com,12101994
00012170,ACHMAD DUNCIK,-,19061969
00012292,ACHMAD FERDIANSYAH,www.ndoy@yahoo.com,22091985
00006564,ACHMAD HARIADI,achmad.hariadi@yahoo.co.id,08071967
00001779,ACHMAD ISMANTO,-,11051962
00032380,ACHMAD KUSEN,xxx,28011974
00017935,ACHMAD MAULANA FAISAL,-,19011980
00001801,ACHMAD MOHLISIN,achmad.mohlisin@indosuryafinance.com,15041980
00028276,ACHMAD NURAFANDI,arrafandi19@gmail.com,21081994
00029696,ACHMAD RIVAI TUMANGGOR,achmad.rivai@indosuryafinance.com,15061986
00014357,ACHMAD RIZAL FU'ADI,xxx,22031997
00016492,ACHMAD RIZKI ARIZA,achmad.riza80@gmail.com,22021980
00028428,ACHMAD SHOLAHUDIN,surat.afafjayagroup@gmail.com,15051985
00031734,ACHMAD TAOFIQ ANSORI,achmad.ansori@gmail.com,28061991
80000005,ACHMAD TUGINO ZAELANI,-,27071976
00013545,ACHMADIN RENDRATAMA,-,06081977
00028711,ADAM HARMAWAN RAHMAN,harmawan.adam@gmail.com,05011979
00018767,ADAMS SELAMAT ADIKUASA H,adams_hardiyanto@yahoo.com,18111987
00013340,ADDY CHANDRA,chandraaddy28@gmail.com,28011981
00008811,ADE ABDUROHIM,-,24121971
00001897,"ADE ANDIKA WISNUPURWANKA,SH",adenyaandika@gmail.com,30121987
00011814,ADE APRILLIAN SIRAIT,-,16041989
00007951,ADE BAYU SETYAWAN,bayoe29@gmail.com,29071987
80000006,ADE DINA SIGARLAKI,-,20111953
00015948,ADE FIRMAN HAYATUL KALAM,ade.firman.hk@gmail.com,12101981
00029324,ADE HAVIAN MANUHUTU,havian.manuhutu@yahoo.com,03111977
00031188,ADE INDRA PRATHAMA,adeprathama@gmail.com,26021998
00022082,ADE IRMA SAFITRI,adeirmasafitri@gmail.com,05051988
00032930,ADE IRWANSYAH,irwanhnw@gmail.com,22071975
00027189,ADE ITA,adeita1074@gmail.com,09101974
00030952,ADE JAKARIA,agopur040@hmail.com,28061972
00004156,ADE KURNIAWAN,ade272494@gmail.com,04091989
00014822,ADE LANDINI SIDHI,-,25121936
00017324,ADE MARIA KUSUMA WIJAYA,0,02091954
00021600,ADE NOVAL,-,21121990
00034082,ADE NOVIE DWI LESTARI,adenovie@yahoo.com,24111979
00002631,ADE PUTRA WIJAYA,,03051986
00024325,ADE SAEPUDIN,adesae2018@gmail.com,13101969
00015457,ADE SATRIA PURNAMA,adesatria.indosurya@gmail.com,22041985
00026154,ADE TARIP,adetarip1@gmail.com,06081976
00017184,ADE WIDAYURENI,ade_widayureni@yahoo.com,03051975
00034123,ADE YANCE,adeyance20@gmail.com,19081984
00030322,ADELIA BUDHI FRANSISCA,adelia_bf@yahoo.com,13021982
00024304,ADELIA CAESARYANA,caesayanaadelia@gmail.com,11081994
00022588,ADELIA INDRIANI GUNAWAN,-,08041994
00003924,ADELIA KRISTANTI RACHASIWI,adeliakrist@gmail.com,04101990
00013574,ADELINE,adeline_wibisono@hotmail.com,03031988
00014105,ADEY CANDRA WIYATNO,adey_candraw@yahoo.com,18111983
00001842,ADHA MUBARAK,mubarak_adha@yahoo.co.id,08101981
00001333,ADHEI SUBAGYO,-,31081962
00030461,ADHI SATRIANTO,asatrianto88@gmail.com,15021988
00007389,ADHITYA NUGRAHA,adhitya_nugraha01@yahoo.com,02071991
00024454,ADI,adesae2018@gmail.com,07101982
00030740,ADI AGUNG RUMUI,adiagung-01@yahoo.com,05021984
00023806,ADI ARI SAPUTRA,adi130886@gmail.com,13081986
00028654,ADI CAHYONO SANTOSO WIJAYA,-,20021985
00024996,ADI CANDRA SUSENO,0,07121996
00033190,ADI CHANDRA SURANTANU,-,24091986
00006606,ADI DESANTO,desanto666@ymail.com,27121977
00016987,ADI HADI KUSUMAH,adihadikusumah011010@gmail.com,04011986
00014141,ADI HAPSARI HERUCOKRO,-,21021950
00006544,"ADI HUIDARTO, IR",-,09081947
00016587,ADI IRAWAN TJIOE,-,03101956
00016952,ADI KISMONO HADIWARDOJO,-,12101971
00030553,ADI OCTAVIANTO,ifaha12@gmail.com,08101998
00026710,ADI PATAH,-,08101957
00026052,ADI PRAWITA,-,04111965
00033365,ADI PUTRA,nagatos87@gmail.com,05101987
00023936,ADI RAHMATSYAH,adi.rahmatsyah@hotmail.com,11081972
00014761,ADI SAPUTRA,-,25051985
00024587,ADI SUCIPTO,suciptoadi@gmail.com,22121975
00010667,ADI SURYA,-,28121948
00033645,ADI SURYA DEWA,pt_chindra_santi_pratama@yahoo.co.id,23031944
00031930,ADI TEGUH PRABAWA,-,22111969
00024898,ADI WAHYUTOMO,adiwahyutomo04@yahoo.com,21011967
00026537,ADI WIDJAJA,ngalau32@gmail.com,19071949
00022234,ADI YUNIANTO,adiyunia@yahoo.com,10051958
00031897,ADIANTO,adi.aimed@gmail.com,26071976
00035243,ADIH SARIP,ayuagustina49@gmail.com,03071966
00032637,ADIK RYADI,adikryadi@gmail.com,22041988
00009147,ADIL IVERY,adil.ivery@yahoo.co.id,02111989
00028648,ADILYUS CHANDRA SEMBIRING,cadilyus92@gmail.com,15031992
00029749,ADINA RANDAL TARIGAN,aditarigan@rocketmail.com,06091991
80000012,ADIPUTRA SEJATI,-,01101989
00028926,ADISTYA,adistyasadega19@gmail.com,19071992
00030230,ADIT SETYO PAMBUDI,adit.setyo@indosuryafinance.com,15021980
00013120,ADITIA SUGIARTO PRAYITNO,-,17061983
00023051,ADITTA AYUNING DIAH S.SOS,-,06081979
00029400,ADITYA CHRISTIAN BARAMULI,adityabaramuli06@gmail.com,06111991
00022667,ADITYA HARSA WIDYATAMA,harsa@ahwgroup.com,25051977
00031855,ADITYA MULYANA,adityamulyana360@gmail.com,13071997
00017350,ADITYA NURCAHYO,nurcahyo_aditya@yahoo.com,06011981
00032296,ADITYA PRIMADI,0,07101980
00033920,ADITYA PUTRA ASNAWING,adityasnawing@gmail.com,24071995
00029022,ADITYA TJANDRA,dididit@hotmail.com,28121990
00022767,ADITYO NUGROHO.D,-,12111961
00024313,ADIYARI NUGROHO,0,09011980
00029689,ADMIRON PATAR DAVIT SIBURIAN,siburianadmiron@gmail.com,16021991
00020739,ADOLFINA ARIANTO,-,19041971
80000015,ADOLFINA TODINGKULLA,-,22021952
00020828,ADRI HALIM,...,05121957
00031846,ADRI NATHANIEL BATUBARA,batubara.adri@gmail.com,12111974
00015381,ADRI YULFAJRI,adriyulfajri85@gmail.com,07071985
00030300,ADRIADI DWI PAMUNGKAS,adriepamungkas86@gmail.com,05091986
00014526,ADRIAN,-,30111993
00015333,ADRIAN ALFIN KUSUMA,-,09041988
00008306,ADRIAN HARTANTO NOTOSUGONDO,-,13011989
00002895,ADRIAN K TRIGONO,,27101966
00008317,ADRIAN KUMALA,xxxxxx,03121983
80000017,ADRIAN SUHARKO,-,07011979
00015725,ADRIANI EBEN,adrianieben15@gmail.com,15111990
00012333,ADRIANI HARSONO,-,13061965
00008333,"ADRIANSYAH, SE",adri_esa@yahoo.com,14091969
00031150,ADRIANTO DARWIS,-,08031941
00025431,ADRIANUS SETYO ADIBROTO,adrianus.setyo@gmail.com,12091971
00025810,"ADRIATI, SP",adribo317@gmail.com,24071988
00015652,ADRIEL ALBERT,.,27061996
00013372,ADRIEL HALIM,-,12121995
00015757,ADRINA,drinzdrinz@gmail.com,07111988
00015591,ADROMEDA SANI,adromeda.sani@gmail.com,30051985
00009241,ADRY ROSTIATI PRIMANDINI,arprimandini@gmail.com,10021985
00010800,ADVIYANTI YUSWARDHANI,-,21121962
00015832,ADWAN LAUDU,adwan.ell79@gmail.com,06111979
00033785,AE SAECIH,aeresavia@gmail.com,07041974
00024442,AEF SAEFUDIN,-,03071980
80000018,AENG,-,07041943
00030618,AFANDI,raja.after.rickail@gmail.com,22051980
00007702,AFENDI SUTANDHI,-,05041951
00026514,AFIANTY TJENDRAWASI,-,20121963
00029744,AFIATI DEWI VERTADI,vinnezd@gmail.com,14101975
00035078,AFRIAL IKRAM,rial3keido@gmail.com,03041986
00024405,AFRIDA RANTE T,-,05041967
00033977,AFRILIA ANITA LUMENDEK,-,03081997
00030482,AFRIN TRI FAISAL,afrintrif@gmail.com,09041982
00012786,AFRIYADI,-,20041984
00035245,AFRIZAL,afrizal@gmail.com,02041969
00029976,AFRIZAL,afrizaliskandar1@gmail.com,23041992
00015034,AFRIZAL HABIBIE,-,02041981
00002084,AGATA GUSTI ANGGORO KASIH,agatakasih@yahoo.com,24081977
00014936,AGATHA CHRISTIE MAKAKOMBO,agatha.makakombo@gmail.com,08061989
00006930,AGATHA LIE,-,11021954
00020159,AGATHA SITURU SAMPEBULU,agathasampebulu@gmail.com,09081985
00022768,AGIE ARIYONA,vipro@gmail.com,16081985
00026398,AGIL ABIYOSO NUGROHO,agil.abiynso@gmail.com,05021988
00007443,AGIL KARYADI,agilkomandan@gmail.com,16091972
00022448,AGNES AMELIA,agnes.amelia@indosuryaksp.com,14081988
00015712,AGNES BELINDA RETANDY,belindaagnesii@gmail.com,11101983
00033721,AGNES CARMELITA DELLANIA SCARLET,0,03081999
00026197,AGNES DEWI TJANTIKORINI,agnesdewi@gmail.com,02061968
00029472,AGNES ENDANG SETYOWATI,fs.irawan@yahoo.com,05101951
00034681,AGNES GRACIANA NGARBINGAN,egi.nez@gmail.com,18081982
00010613,AGNES LIOE,-,24041952
80000021,AGNES MARIA POLA,-,07011952
00021133,AGNES MELLISA TATANG,agnes.melissa@gunungsewu.com,17041960
00034005,AGNES NOVIYANTI PUSPITA,agnesganjar@yahoo.com,10111971
00033395,AGOES HENDRO WIDJAYA,agushw2007@yahoo.com,17081964
00034327,AGUNG BUDI DARMAWAN,xxxx,04031972
00019075,AGUNG BUDIANTO,0,06051981
00016209,AGUNG DEWANTO,agungdewanto19@gmail.com,01091974
00024019,AGUNG DWI SANTOSO,-,01021977
00023926,AGUNG DWI SATRIA,dwisatria@yahoo.co.id,03051984
00001876,AGUNG HARIANTO,agungharianto090783@gmail.com,09071983
00025170,AGUNG HARRY PRATAMA,harry pratamaagung@gmail.com,29081999
00022736,AGUNG MAULANA EFFENDI,agung1908@gmail.com,19081982
00031152,AGUNG MULYANI,agung_mulyani@yahoo.com,20051994
00018285,AGUNG NOPRIHATIN,agung.noprihatin@indosuryaksp.com,10111976
00021735,AGUNG NUGROHO JATI,agungnugrohojati1989@gmail.com,09121989
00014383,AGUNG PERMADI SINDHI,apermadi38@yahoo.com,07061987
00015883,AGUNG PUJI RAHARJO,pujiraharjoagung@gmailcom,29091988
00007433,AGUNG PURBAYA,purbaya_kdr@yahoo.co.id,23091980
00013818,AGUNG SAPTOMO TRIWALUYO,astro.18981@gmail.com,18091981
00005829,AGUNG SETIAWAN,agst279@gmail.com,06021979
00005713,AGUNG SURYANA,-,03081980
00032447,AGUNG SUSANTO,susanto.agung@gmail.com,15081989
00015189,AGUNG WAHYUDI,agungwahyudi860@yahoo.com,28061993
00031539,AGUNG WIBOWO,agungw.theo@gmail.com,20081979
00028808,AGUS,pirio_cool@yahoo.com,19081984
00025111,AGUS,agusagus73@gmail.com,16081985
00013856,AGUS ALFIN WIDYANTO,widimarkijo@gmail.com,17121985
00021919,AGUS AMIR AR,-,08081962
00033435,AGUS BUDI SANTOSO,cv.natum@gmail.com,04081966
00025265,AGUS BUDI SANTOSO,0,05081997
00025104,AGUS BUDI UTOMO,jatikuno.bongkaran@gmail.com,03051978
00004545,AGUS BUDIMAN,0,03081958
00015628,AGUS DJUNAEDI,adjund0468@gmail.com,04041968
00033192,AGUS DWI INDRA GUNAWAN H,agusdkb@gmail.com,02081984
00012789,AGUS HARDIYANTO,-,24081970
00006422,AGUS HARYANTO,alloy.haryanto@gmail.com,29081981
00024215,AGUS IRAWAN,-,14081980
00013158,AGUS KURNIAWAN SANTOSO,agus_kurniawan3@yahoo.com,05091967
00030869,AGUS PERMANA TUNDJUNG,aguspermanatunjung@yahoo.com,22071970
00012792,AGUS PURWANTO,-,14081961
00005440,AGUS PURWANTO,purwanto.agoes@gmail.com,25031980
00023965,AGUS RIYADI,agus.riyadi@indosuryafinance.com,29071981
00030551,AGUS ROSIDI,agusrosidi09@gmail.com,23031960
00029586,AGUS RUSTANDI,rustandi528@yahoo.com,26041977
00029857,AGUS SAEPUDIN TAUFIK,0,02071966
00021945,AGUS SANTOSO,xxxxx,17081982
00024455,AGUS SETIAWAN,adesae2018@gmail.com,17081985
00033140,AGUS SETIAWAN,sinarterang21@gmail.com,21061982
00035220,AGUS SETIAWAN,agussetiawan355@gmail.com,30061980
00010985,AGUS SETIAWAN,.,08081970
00009800,"AGUS SETIAWAN, ST",-,18081981
00033345,AGUS SETIO HADY,agussetiohady@gmail.com,03021971
00017859,AGUS SISWOYO,-,29081968
00029885,AGUS SOEJANTO PHURWO,agus@informatika.co.id,29091968
00027990,AGUS SOFFIAN,agussoffian@uob.co.id,27031969
00003364,AGUS SRI HARYADI,agsril@yahoo.com,19081980
00022944,AGUS SRI WIDODO,0,21051976
00033760,AGUS STEPHEN,-,19081983
00005357,AGUS SUDARDJI,agus_sudardji@yahoo.com,08081966
00033339,AGUS SUGIARTO TAMIN,-,27081974
00022587,AGUS SUJANA,agussujana0508@yahoo.com,05081989
00028475,AGUS SUNARTO,-,16081949
00008197,AGUS SUPARMANTO,-,23121965
00008483,AGUS SUPRIYADI,-,11081969
00019292,AGUS SUSANTO,0,19101958
00034589,AGUS SUSANTO,lyon_agus@yahoo.co.id,05081974
00003683,AGUS SUSANTO WIDJAJA,-,14081967
80000023,AGUS SUSANTO. SE,-,19101958
00013570,"AGUS SUYOSO, IR",-,25121967
00016113,AGUS TONI FAUZI,.,21031970
00009176,AGUS TRIYONO,che_agus_gusvara@yahoo.com,02081983
00021114,AGUS TYONO AMAS NOER,-,16081981
00006505,AGUS WARSITAH ANGGRAINI,arta.polaris@yahoo.com,11081989
00004678,AGUS WIDODO,aguswidodorini@gmail.com,16011982
00005643,AGUS WIESENO,-,05111950
80000024,AGUS WIJAYA ANG,-,17121967
00002478,AGUS Y.SAHANGGAMU IR,,03011960
00016192,AGUS YULIARMAN,agusyuliarman123@gmail.com,28081983
00023819,AGUSSALIM,agussalim@gmail.com,18081969
00001262,AGUSTA HENDRO,agusta_h@yahoo.com,21011972
00008128,AGUSTAN DJUMAH,agustan_djumah@yahoo.com,30081977
80000025,AGUSTIAN R. PARTAWIDJAJA,-,29081952
00033351,AGUSTIEN ANDI,pinky_cen@yahoo.com,17081977
00011328,AGUSTIN IMELLDA,tabungan surya,17081974
00019560,AGUSTIN SE,.,17081971
00025753,AGUSTIN SUKANTIO,-,12081957
00022292,AGUSTINA,-,14081985
00022381,AGUSTINA,-,04081980
00030711,AGUSTINA,tina_sebamed@yahoo.com,07081977
00028998,AGUSTINA,-,26081968
00019970,AGUSTINA,agustina8899.a@gmail.com,08081988
00005305,AGUSTINA,0,23081975
00013641,AGUSTINA BUDIATI,agustinabudiati@gmail.com,26081962
00001713,AGUSTINA FERIZZA AGNATIA,egnatia88@gmail.com,16021988
00033106,AGUSTINA GULTOM,dandt18@yahoo.co.id,18081981
00010224,AGUSTINA MAPPADANG,-,17081978
00024526,AGUSTINA SAMPE,-,15111972
00009521,"AGUSTINA SUKARTI,SE",-,17081973
00017521,AGUSTINA WAHID. S.PD,-,29081988
00031184,AGUSTINA WEHELMINA TASIK,-,31081967
00032048,AGUSTINI,agustini0408@gmail.com,04081970
00034304,AGUSTININGSIH NURDIN,agustiningsih.nurdin@gmail.com,30081982
80000030,AGUSTINUS POHAN,-,29081956
00018909,AGUSTINUS POHAN,0,29081956
00014078,AGUSTINUS ROY ELLERY VICO,0,18081966
00001294,AHIM,,27011975
00025443,AHINDA AFRILIA RISTIANINGRUM,ahindaar@gmail.com,23041986
00019426,AHLAN,liliana_cbr@yahoo.com,22041970
00019925,AHMAD AMIRUDDIN,-,16081989
00019221,AHMAD DIARODIN,-,29111969
00006818,AHMAD FADILLAH,ahmadfadillah408@yahoo.com,04081992
00015909,AHMAD FAIZ,afaiz827@gmail.com,26061990
00015312,AHMAD FANZA,ahmadfanza224@gmail.com,18111989
00012064,AHMAD HADI SUYOTO,karyadutateknik@gmail.com,30061961
00001740,AHMAD HARIYADI,,30111970
00028046,AHMAD JAILANI SIREGAR,jay.siregar0610@gmail.com,06101994
00008146,AHMAD KURNIA,akurnia4844@gmail.com,30051980
00013434,AHMAD KURTUSI,ahmadkurtusi.gkp@gmail.com,28061980
00002176,AHMAD MASRURI,masruri@indosurya.net,23071972
00008177,AHMAD MATIN,xxx,11021984
00032879,AHMAD REJO,ahmadrejo1172@gmail.com,31121961
00012355,AHMAD SENTOT SARWONO,-,24041985
00008416,AHMAD SOPIAN,sopianahmad658@gmail.com,03081984
00027985,AHMAD SYADHALI,ahmad.syadhali@indosuryaksp.com,05081988
00023623,AHMAD SYUKRI,ahmadsyukri2233@yahoo.co.id,22021987
00030247,AHMAD TAMIR,tamir03@gmail.com,03082000
00033857,AHMAD TAUFIK,ataufik1206@gmail.com,12061965
00032302,AHMAD YAZID SYAHPUTRA,az_id@ymail.com,21021989
00013735,AHMAD ZULFIKOR RIDO,ridoreal@yahoo.com,09071985
00007055,AHMADI SURYA DARMA,ahmadisuryadi@gmail.com,21061982
00030513,AI KOMARIAH,-,15081961
00034778,AI LING,ailingtan38@gmail.com,05121976
00025048,AIDA,-,27071996
00032635,AIDA P.SINGGIH,afenajo@gmail.com,19031962
00034206,AIDA SUGIANTO,-,07081949
00008866,AIDA TASSHA FRISKY ADANI,aida.adani@indosuryafinance.com,02071990
00013380,AIE LING JAKUB,aieling0810@gmail.com,08101964
00032926,AIEOU FATHUNNISA,dfaba13@gmail.com,06052001
00027280,AIMY PRAMONO,aimy.pram@gmail.com,05041950
00032882,AIN HASWANTO,ain_city@yahoo.com,10031980
00022023,AIN LAKUTU,ainlakutu14@gmail.com,14011986
00007991,AINI DJOHAN,mariaaini59@gmail.com,18031959
00024363,AINI HIDAYATI,aini.11@gmail.com,11081976
00031118,AINI YASIH DARWIN,aini.yasih@yahoo.co.id,17121997
00005481,AINITA,ainit4@yahoo.com,12111973
00010881,AIRIN SETIAWAN,airinsetiawan.95@gmail.com,03031968
00013306,AISHA SITI RAMADHANI,aisharamadhani@gmail.com,11061976
00028932,AISYA,aisyayamamoto@yahoo.com,12071969
00010355,AISYAH DARLI,aisyah.darli83@gmail.com,23021983
00021096,AISYAH DIANA,-,20091971
00012231,AISYATURRAHMI,-,22041986
00006671,AJENG APRILIANTI,ajengaprilianti21@gmail.com,21041994
00011427,AJI DWI PANGESTU,ajidwipangestuaji@gmail.com,22031998
00005325,AJI NAGARA,nagara_aji@yahoo.com,07091989
00022428,AJI PUTRA BAGUS PERMADI,ajip688@gmail.com,17091991
00008587,AJI SUMARNA,kertabumi480@gmail.com,08101978
00028940,AJIE SURYA,-,16041941
00002574,AJOE KARTIKA MASTAKA,ajoe_kartikamastaka@yahoo.co.id,13021967
00010936,AJU KRISTIANA,0,26041975
00016450,AKHIRUDDIN YANUAR,akhiruddin.yanuar@gmail.com,12011981
00021515,AKHMAD SUDIRO,sudirohusodo1000@gmail.com,27111982
00008913,AKHMAD TAEFUR,akhmadtaepur@gmail.com,21071965
00017804,"AKHMADI,S.PD",-,09121965
00012771,AKHTAR FUADI,fuadi_servitama@yahoo.co.id,17011962
00013246,AKIM JUNAIDY SOEN,columbia_shop89@yahoo.com,15021962
00030786,AKIRA DWI RISTIYANTO,-,05091999
00022480,AL DWI SETYA APRIYANTO,aldwisetyaapriyanto@gmail.com,28041985
00025009,AL MUBARAK,rafatarica@gmail.com,18041983
00008974,ALAIN SURYANAGA LISAPUTRA,alain.suryanaga@yahoo.co.id,31101976
00030774,ALAM SAFRUDIN,-,26101983
00030089,ALAN BATARA SAKTI,alansakti8@gmail.com,12041991
00028956,ALAN SHAZZAN,samuderaindonsiaperkasa@gmail.com,01011978
00024769,ALBATROSS,alb4trosslie@yahoo.com,17091980
00025744,ALBERKAT YADI,alberkat@yahoo.co.id,22061973
00009323,ALBERT,-,13011983
00032653,ALBERT BURHAN,albert.burhan@gmail.com,17091967
00032211,ALBERT GALVIN FARDY,-,12021984
00011653,ALBERT SANTOSO,-,08041983
00026836,ALBERT SIDDIK,albersiddik@gmail.com,01061977
00009000,ALBERT SUHERMAN,albert_suherman@yahoo.com,12121979
80000033,ALBERT SUNAGA,-,25071988
00024468,"ALBERT WIDYA ARUNG RAYA, SH., M.KN.",-,13061976
00024228,ALBERT WIRJADI,-,31101974
00020050,ALBERT WIRYAWAN,albert_wiryawan@yahoo.com,26111991
00001551,ALBERTA PETRONELA PORA,ertajr@yahoo.com,31051970
00014182,ALBERTIN PAWARRANGAN,-,24081980
00016631,ALBERTUS ANDREW,-,17071992
00017509,ALBERTUS LINARWAN,alinarwan@yahoo.com,10091948
00027757,ALBERTUS ROBBY NOVIANTO,robby_n83@yahoo.com,28111983
00017716,ALBERTUS THERY NOKI ARDIANTO,-,17111995
00012052,ALBINE SIAGIAN,-,24111949
00030171,ALDA APRILLYA,aldaaprilyaj@gmail.com,01041960
00002828,ALDI IMAN S HAREFA,aldi.harefa@indosuryaksp.com,14011979
00021248,ALDI SUMASWAN TJOA,-,01061957
00034197,ALDILA DEWI PERMATASARI,adepermatasari15@gmail.com,15091996
00032242,ALDO FIRMANSYAH AZIS,aldo.firmansyah21@gmail.com,21071999
00026820,ALDRIAN PRADITYA NURHALIM,aldrian.praditya@gmail.com,06041992
00027658,ALDY SUGIONO,aldysugiono@yahoo.com,13101990
00025242,ALEK PIRMANSYAH,alek.taurus@gmail.com,06031983
80000035,ALENA,-,12051969
00001774,ALEX CHANDRA LAMINTO,,17101953
00031568,ALEX HENDRATNO TENNY,-,27021974
00035097,ALEX INGGIT,-,14091930
80000038,ALEX KELVIN,-,26071995
00032285,ALEX TANUWIDJAJA,-,11071954
00004798,ALEX WINATA SALIM,o,28061950
00024054,ALEX WITARSAH,citypro2000@gmail.com,14031963
00034825,ALEX YOHANNES,-,18051985
00015098,ALEXANDER,jo.axel@yahoo.com,16071973
00032489,ALEXANDER CHANDRA,bongsor@hotmail.com,19051955
00003020,ALEXANDER EFFENDY,,17011950
00020785,ALEXANDER GUNUNG SUTINJO,-,17081947
80000042,ALEXANDER IRWAN SUWANDI,-,05091959
00029385,ALEXANDER JUNAIDI,-,22021964
00034712,ALEXANDER RAYHANN KOLAMBAN,-,27082002
00024569,ALEXANDER SULU,-,09101944
00009474,ALEXANDER TAMBAYONG,alexander.tambayong@icloud.com,12041980
00021863,ALEXANDER TANJAYA,-,11101977
00006848,ALEXANDER TANUBRATA,-,15061961
80000045,ALEXANDER YANUAR WIJAYA,-,25011987
00033209,ALEXIUS CHANDRA,-,22021982
00002122,ALFA CAMRILLA,alfacamrilla@gmail.com,07041965
00029507,ALFA MEGAYANTI,alfamegayanti@gmail.com,06091977
00000374,ALFAN SULAEMAN,xxx,23061957
00029980,ALFARI LIE,-,11051951
00007234,ALFEUS LIMAN,xxx,31031981
00024777,ALFIAN,alfiankuan@gmail.com,17101968
00034957,ALFIAN DARMA,-,02051988
00013671,ALFIAN MUKMIN,alfianmukmin168@gmail.com,18041984
80000051,ALFIN KURNIAWAN,-,23091986
00022555,ALFINDA YANA AFRISTA,alfindafrista@gmail.com,30101993
00014257,ALFONSO,-,22041987
00015013,ALFONSO BENARDO TOREH,-,30101974
00009018,ALFONSUS NUGROHO TANOTO,-,17081988
00000376,ALFONSUS RIDWAN WIHARDJA,-,07051946
00027112,ALFRED,0,04041985
00017700,ALFRED RICARDUS,alfred_ricardus@yahoo.com,02061981
00014870,ALFRED TABELA KOETIN,alfredtabela@gmail.com,23071975
00029897,ALFRED YOSEF SARAYAR,-,11051937
00022412,ALFRIDA PATODING,-,29041969
00025886,ALFRIDA RANTE,alfrida.rante@vale.com,30041982
00000377,ALI BODHI,-,16111953
00011009,ALI BUDIARSO,budiarsoali@gmail.com,21101980
80000054,ALI GUNAWAN,-,27011949
00021416,ALI MA'SHUM,aliablck18@gmail.com,08011984
00012973,ALI MUNAR,munarali1703@gmail.com,17031963
00011330,ALI MURTADO,ali.murtado@indosuryafinance.com,17081990
00007309,"ALI MUSTOFA,ST",-,25091981
00029892,ALI SANTOSO,-,19091976
00021327,ALI TUMIAN,-,04051972
00023968,ALI WARDANA,-,05061983
00005307,ALI YOGIAMAN,0,01051955
00017182,"ALI, LIE",mulia_jewellery@yahoo.com,01051973
00007640,ALIA JESSICA,-,13101995
00029998,ALIANDO GUNAWAN ALIM,edoonsu@gmail.com,26061998
00032344,ALIANTO TJOKROMULIA,-,25121970
00030778,ALIBAR NAIN,alibarnain@gmail.com,16111951
00033966,ALICIA EMILY SILVA,-,10042002
00000380,ALICIA MIKAEL,alicia_mikael@yahoo.com,02091960
00030809,ALIF CHAIDIR,-,13081971
00013682,ALIF MUJAHIDIN,alifmujahidin@gmail.com,05061997
00034388,ALIFIKRI,fikriali31@gmail.com,20071965
00025417,ALIM RATULANGI,alimratulangi88@gmail.com,22051963
00026732,ALIM SAPUTERO,-,18041955
00017330,ALIMUDDIN,-,01091979
00024103,ALIMUDDIN S PD,aldialimuddin73@gmail.com,03041973
00029965,ALIN ARIESMAWANGSIH,alinariesmawangsih@gmail.com,31031970
00008148,ALINAH VIRGINITA,alinahvirginita@gmail.com,30111968
00010382,ALING WILYANTO,-,09051941
00022163,ALIP ROMDONI,-,10041968
00021781,ALIYAH,-,10091976
00026116,ALIYANTO WIBOWO,-,06021970
00012874,ALIYUDIN,-,20121983
00020898,ALIYUS MARIADINATA,aliyusmariadinata@gmail.com,20031984
00008891,ALIZA FEBIRIANIEZ,-,15021970
00030255,ALKI NOOR HAK,alkismd@yahoo.co.id,19041987
00027700,ALLEN CHATELINA ABISAQ,abisaqellen@gmail.com,11091962
00018365,ALMIRA RUSLI,-,29011976
00023268,ALOYSIUS CUCUN BUDI PRAKOSO,-,27111983
00004487,ALOYSIUS RADJA SINGAL B B P S,singal_simbolon@yahoo.co.id,15121975
00028591,ALOYSSIA LUVENA WIJAYA,-,01101961
00004998,ALPHA BRIAN SAHETAPY,alpha.sahetapy@hotmail.com,30071989
00034880,ALPRIDA,alfridasattu@gmail.com,06042001
00030741,"ALUSRIANSYAH,H",alusriansyah21@gmail.com,21011968
00015114,ALVIAN LIMARDI,alvianlimardi025@gmail.com,18121966
00024340,ALVIKA MEANITA BERLIANA RATAM,alvikameanita@gmail.com,28021996
00029833,ALVIN ANDIKA,alvin.andika@indosuryafinance.com,28011993
00002466,ALVIN CHRISTYANTO,alvinch21@yahoo.com,21011969
00026159,ALVIN EFFENDY,-,05061987
00034235,ALVIN GUNAWAN,-,09011999
00033836,ALVIN KRISTIAN KURNIAWAN,alvinkristiankurniawan@gmail.com,25091998
00034192,ALVIN PRANATA NANANG,alvinpranata@hotmail.com,21101995
00028413,ALVIN SUSANTO,alvin_s_1001@hotmail.com,01101992
00023981,ALVIN THEARDY,0,06081981
00008618,ALVIN WAHYUDI,wahyudi.alvin@gmail.com,30071989
00035133,ALVINA,-,23041989
00010173,ALVINA KUSNADI,0,06011986
00022643,ALVINA TANJUNG SARI,-,26061985
80000062,ALWAN DJAJAWINATA,-,17041948
00025577,ALWI HARYONO,alwi_haryono@yahoo.com,09081975
00013597,ALWI NJOTOATMODJO,-,23051954
00030068,ALWIYAH,fatimahaliyah27@gmail.com,22051981
00016461,ALYUH,edywidjayahalim@yahoo.com,24101975
00033060,AMADEA KURNIAWAN,deama.kurniawan@yahoo.co.id,22111966
00004546,AMALDI PUTRA PRABAWA,mlduta7@gmail.com,07111984
00000333,AMALIA JUNI FITRI,amalia.amel19@gmail.com,19061985
00004485,AMALIA REGINA KANDOU,amaliaregina@hotmail.com,20111972
00013330,AMAN,amanbkl@gmail.com,12121969
00022779,AMAS SETIAWAN,antonsh00000@gmail.com,23081985
00029465,AMAT SUWANDI NGADIMAN,-,03031967
00005099,AMBAR SARI YULIAWATI,ambar.sari@indosuryafinance.com,06071974
00031701,AMBARINI LUKITO,lucia.lukito@gmail.com,12021964
00023789,AMBRUL RIDWAN,ambrul31@gmail.com,31011988
00007961,AMELIA,amelia.wahju@gmail.com,01061965
00009244,AMELIA DWIANDRIANI,-,08101990
00004445,AMELIA EKA LESTARI,,14091983
00032964,AMELIA HENDRA,amelia.hendra@gmail.com,11061981
00019619,AMELIA LEVINA,amelia.lsh@gmail.com,27081976
00007235,AMELIA RAHMAWATI,amelia.rahmawati9223@gmail.com,23031992
00032658,AMELYA AGUSTINA,-,01081982
00007818,AMELYA PONIK,-,02081954
00018214,AMERYLIS,merisclaresta@yahoo.co.id,12011981
00015779,AMIANTO,-,16031963
00030590,AMIDAH,amidah0610@gmail.com,06101975
00027918,AMIN LIMANTORO,.,17061968
00007540,AMIN SURJADI,xxx,07071934
00013511,AMINAH TASLIM,andrianaaminahtaslim@yahoo.com,21021967
00013218,AMINUDIN MISNO,aminudinmisno7@gmail.com,06031972
00011343,AMIR ALAMSYAH,amiralamsyah13@gmail.com,12081974
00030980,AMIR MAHMUD,-,01011976
00010262,AMIR ROHANI,dutauto@yahoo.com,12111958
00000321,AMIR RUDIN,amir.rudin@indosuryaksp.com,21061971
00011063,AMIR SAPA,-,10011954
00033004,AMIRUDDIN,-,05121955
00009429,AMJAD,amjadbasri@gmail.com,08091982
80000068,AMRAN SUJUDI,-,10041945
00034689,AMRAN SULAIMAN,amran_sulaiman18@yahoo.com,28051981
00023624,AMRIANI,rustamutam4599@gmail.com,19071984
00025358,AMRIN RY,-,16111949
00013375,ANA,-,19051972
00030384,ANA SUSIANA,thine_pooh@yahoo.com,09121956
00031502,ANA WATI,-,02021983
00020150,ANAK AGUNG ISTRI GAYATRI,gunggayatriii@gmail.com,10051996
00028073,ANAK AGUNG NGURAH DEDDY DWIPAYANA SH,deddy.dwipayana@yahoo.com,09051977
80000070,ANAND,-,04091981
00012173,ANANDA ARIEF SETIAWAN,-,18061998
00034536,ANANDA DAFFA JAPERSA,bossdaffa@yahoo.com,26012001
00031027,ANANDA PUTRI CESIA TAMPUBOLON,apctampubolon0310@gmail.com,03101998
00032678,ANANDA RIZKY PUTRANTO,-,11041997
00028836,ANANG ARIF MULYONO,-,08041966
00011046,"ANANG ISMED INOUNOU,S.H.",ananginounou@gmail.com,08041980
00034913,ANASTASIA DEBBIE PURNOMO,debbie3585@hotmail.com,03051985
00034063,ANASTASIA PALTY ROSLINA,prsihombing@gmail.com,20021967
00034365,ANASTASIA RADHANG LOGO,anastasiaa2699@gmail.com,26071999
00023485,ANASTASIA SHANAHAN,-,12041956
00023570,ANASTASIA TANIA MARIA,anastasiatania@hotmail.com,10011989
00031740,ANASTASIA VANESSA,anastasia.vns@gmail.com,27011993
00035192,ANASTASIAWATI H,-,17011953
00023254,ANAT,-,16111976
00001044,ANCHAELA DAMAYANTI B,-,23091961
80000073,ANCHAELA DAMAYANTI B.,-,23091961
00009946,ANDANG TARNOTO,-,05021984
00009927,ANDAR DANIS PRASETYA,andar.danis.p@gmail.com,20091983
00018169,ANDARIAS KALELEAN SAKKE,-,03081967
00022098,ANDHI ANGGORO,8andhianggoro19@gmail.com,19101974
00018695,ANDHIKA B JAYADI,-,24031964
00023654,ANDHINI DEWI TASYA LISTIANI,dewi.tashya@gmail.com,22041984
00024224,ANDHITA MARLIANI,adisuto123@gmail.com,17031990
00019632,ANDHY KRISTANTO,-,24031977
00027972,ANDI,andi@gmail.com,04011975
00029952,ANDI,silent.andi09@gmail.com,02121986
00003261,ANDI ARIESZA RHIANDINI M,ariesza.rhiandini@gmail.com,10031979
00008372,ANDI ARIFIN,-,19121965
00031040,ANDI ASTRIBHASKORO EMIR TAJIBRANI S SOS,-,05011984
00022464,ANDI AULIA JUSMAN,-,05091983
00031106,ANDI DAFRIL,andaf71@gmail.com,01041971
00034366,ANDI DESEMBER,clintonpku@yahoo.com,07011982
00024702,ANDI EKA PURNAMASARI,andyekha@gmail.com,29101989
00021669,ANDI EKA YUNITA DEVI TAWIL,andieka1677@gmail.com,05051975
00018002,ANDI ERWIN SOSE,dmm7star@gmail.com,18071968
00012902,ANDI GUNAWAN TJANDRAWIGENA,juing.liem@gmail.com,03081943
80000075,"ANDI HALIM, IR",-,29011954
00011358,"ANDI HALIM,IR",andihalim2003@yahoo.com.sg,29011954
00021650,ANDI HERFIDA ATTAS,-,26121966
00028983,ANDI JANUAR JAURY DHARWIS SE,januarjaury@yahoo.com,05011973
00029547,ANDI KURNIAWAN SANTOSO ST,andi.kurniawan0003@yahoo.com,10061974
00005120,"ANDI KUSNADI,SE",andikusnadi76@gmail.com,24021976
00017217,ANDI LISTYA HARIYANTO,-,15031978
00014387,ANDI LUTFI,0,27091977
00034846,ANDI MARAWATI,sanderswillson18@gmail.com,03031981
00020968,ANDI MINOPO,andi.minopo@indosuryafinance.com,21091987
00020442,ANDI MUHAMMAD REZEKI MUCHTAR,-,01061988
00025377,ANDI MULYADI,-,08041988
00013341,ANDI PRASETIYO,andi.setyo500@gmail.com,25041995
00010544,ANDI RACHMAN PATTA DUNI,andi.rachman.patta.duni@gmail.com,10091988
00004640,ANDI SETHEAWAN,,15081981
00032351,ANDI SETIYAWAN,andinasupun29@gmail.com,28051986
00028736,ANDI SINAGA,andi1704sinaga@gmail.com,17041991
80000076,ANDI SISWANTO,-,11071944
00017581,ANDI SUSIYONO,andisusiyono9@gmail.com,22011980
00001324,ANDI SUTANTO,-,19061953
00014722,ANDI SYUHADA HAFID,andiyudha77@gmail.com,10111986
00022522,ANDI TENRIANA AN,-,25111985
00032273,ANDI WIRIANTONO,wiriantonoandi@yahoo.com,01081965
00005929,ANDI YUDHA PRASETYA,andiyudha16@yahoo.co.id,16101984
00018342,ANDI YUSRAN,andiyusran223@gmail.com,07031980
00033050,ANDIA DESIANA FISKA,echiandia@ymail.com,29121987
00022610,ANDIKA HARI WIJAYA,ariewijaya758@gmail.com,06121984
00033786,ANDIKA WASTUWIDYAWAN,-,20071985
00004938,ANDITA PARAMITHA,andita.paramitha@gmail.com,13071990
00020641,ANDRA HR,andrahr259@gmail.com,28081978
00032088,ANDRE AGUSTINUS W,andreaugust11@yahoo.co.id,22081967
00008004,ANDRE HARIYANTO,andrejerman@yahoo.com,23021980
00034139,ANDRE JERRICO LEGOH,andrelegoh@gmail.com,18011971
00010086,ANDRE KUSPRIANTO,0,03031973
00003597,ANDRE REXDIAN ARCHIE,,14091997
00016361,ANDRE SURYA,andre.surya23@gmail.com,16051986
00034404,ANDRE TIRTA WINOTO,andre_winoto@hotmail.com,18061987
00022785,ANDREA HENDRAWAN,0,24011983
00012652,ANDREAN SETIAWAN,andrean_setiawan@yahoo.com,22041975
00011534,ANDREAS,-,21111966
00001857,ANDREAS,andreas@indosuryafinance.com,02111989
00033460,ANDREAS BERTONI BAYU PAMUNGKAS,bayoe2911@gmail.com,29111978
00031268,ANDREAS HANAFI WIJAYA,-,21031958
00007519,ANDREAS JO,-,07121932
80000081,ANDREAS LUKITO,-,03011967
00013409,ANDREAS PRANANTO,0,16031981
00035279,ANDREAS SUGIARTO PRAJITNO,andriani_s@yahoo.com,14081997
00008604,ANDREAS SUTASURYA,sutasuryaandreas@gmail.com,14061974
00007583,ANDREAS TIRTAPRAJA,-,21041965
00029284,ANDREAS YULIANTO,-,28071980
00009452,ANDREE,andree.indosurya@gmail.com,25111984
00028642,ANDRENNA,-,05071995
00009527,ANDREW,-,04061985
00027301,ANDREW HERMAN,andrewherman2000@gmail.com,14071995
00006165,ANDREW HIDAYAT,xxxxxx,02091988
00035152,ANDREW IMMANUEL KUSUMAH,kusumahandrew@yahoo.com,06011982
00004616,ANDREW KURNIAWAN BOEDIONO,andrew.boediono85@gmail.com,20061985
00022641,ANDREW PANGESTAN,andrewpangestan@gmail.com,14041985
00013244,ANDREW SUTANTO,0,01041977
00031318,ANDREW TEGUH MOGALANA,notaris.atm@gmail.com,08061984
00010578,ANDREW VALENTINUS,andrew_valentinus@hotmail.co.uk,02031991
00012649,ANDRI HAMIDJAJA,andri.hamidjaja@gmail.com,01081974
00029503,ANDRI HANSEN,andrihansen9@gmail.com,09081993
00019971,ANDRI HARIANTO,0,01041980
00008826,ANDRI HARYANTO,-,05051986
00034838,ANDRI RIVANI,andrierivani.rna@gmail.com,03091985
00031512,ANDRI SIDHARTA KHOUW,-,28091951
00023615,ANDRI SUHARTONO,andrisuhartono.span@gmail.com,13051976
80000087,ANDRIAN DJUANA,-,06111951
00034140,ANDRIAN DWIADMODJO,andriand@hotmail.com,31101979
00029230,ANDRIAN JOESAFAT C,andrianjoesafatchandra@gmail.com,06111998
00011171,ANDRIANA WIDJAJA,andriana.widjaja@gmail.com,04121986
00032927,ANDRIANDI,andriandi75@gmail.com,08081975
00030587,ANDRIANI,-,17101958
00001003,ANDRIANI,gloandri@yahoo.co.id,25071977
00024556,ANDRIANI PERTIWI,-,16031997
00011395,ANDRIANI SETIO PRAJITNO,-,02061962
00007676,ANDRIANTO WIDJAJA,-,05041939
00033855,ANDRIANUS GUNAWAN,0,03021989
00028445,ANDRIAS,andriaslim@hotmail.com,05011982
00015230,ANDRIAS,0,10081980
00022296,ANDRIAS TJONDRO,andreas.sby2@gmail.com,21061980
00034154,ANDRIE,andrieyangyang@icloud.com,30051977
00010256,ANDRIE LESMANA,xxxxx,15051987
00026124,ANDRIE SUTRISNO WIDIAMAN,widiamanandrie@gmail.com,13061964
00009360,ANDRIS CHANDRA IRIWAN,b3b3h@hotmail.com,27031949
00024329,ANDRISTI,-,22101960
00032274,ANDRIYANI,andriyani.veronica@ymail.com,12031979
00032029,ANDRY GANDA WIJAYA,-,18121980
00022432,ANDRY GUNAWAN SOPANDI,0,03031981
80000090,"ANDRY KESUMA, DRS.EC",-,27021950
00010134,"ANDRY KESUMA,DRS.EC",-,27021950
00019369,ANDRY PETRUS,andry_petrus@yahoo.com,16111970
80000091,ANDRY SANTOSO,-,18101955
00034419,ANDRY TIRTOWIJOYO,andrytirtowijoyo@ahoo.com,23051979
00011139,ANDRY WIJAYA,-,20041984
00026995,ANDRY WIRAHADI,-,03071978
00031715,ANDUM SUBAGYA,a_subagya@yahoo.com,09091974
00024970,ANDWI JATMIKO,andwijatmiko@gmail.com,07111963
00009922,ANDY,andytan.llm@gmail.com,19011971
00015327,ANDY AKBAR RAFSHANZANI,0,13081996
00032790,ANDY ALEXANDER S,-,23081978
00030019,ANDY ALVIN JAYAKUSUMA,lilyandriani342@yahoo.co.id,05121958
00015059,ANDY DARMA,andydarma1978@gmail.com,04071978
00001045,ANDY HANS,,18081993
00012125,ANDY HERMAN,-,19101987
00006293,ANDY HERMANTO,-,06111960
00020738,ANDY HIOE,-,25091964
00031285,ANDY IRAWAN,-,07071957
80000095,ANDY JULIUS TJANDRA,-,22071960
00030160,ANDY JUNAEDI,andyvsi.mobile@gmail.com,25081975
00015342,ANDY KARTAWIJAYA,0,08071981
00034026,ANDY KURNIAWAN,keyasti@yahoo.com,10101984
00023608,ANDY MAMORA USMAN,-,18061981
00025519,ANDY P KASID,patrickkasid@gmail.com,28031966
00006026,ANDY SAPUTRA,-,03101982
00027164,ANDY SENJAYA WAHYU,0,02041942
00033379,ANDY SETIADY,andy@ptlapi.com,05111984
00029645,ANDY SUGIONO K,-,03051954
00012251,ANDY WAHYUDI,-,17101973
00024131,ANDY WIJAYA,aneka_mesin57@yahoo.com,22021952
00011060,ANDY WIJAYA,dw4rv3n9n1p3r@gmail.com,26061986
00028880,ANDY WINATA,-,20031957
00021806,ANDYANTO KURNIAWAN ALIHADI,-,26031985
00001979,ANDYKA ARDI,andika_mahadana@yahoo.com,04121975
00032160,ANDYTIO JANUAR SURYADI B,-,05011970
00033122,ANE JULAEHA,-,26071964
00001321,ANEE MUCHASAN,aneemuchasan2@gmail.com,12111969
00001638,ANES ANDRIANTO,,24051983
00031122,ANG ANGELINA STEFANUS,-,24091960
00034959,ANG ANTHONIUS ABEDNEGO,ario.abednego@gmail.com,17021946
00011164,ANG CHARLES,charlesang81@gmail.com,11101981
00031007,ANG ENG HOEY,pending,02111963
00031097,ANG ENG SHENG,-,27121964
80000104,ANG GIOK LIAN,-,06111960
00016981,ANG HWIE NENG,yohana_ang@wargadjaja.com,07081966
00000392,ANG LIAN PING,,27091951
00008657,ANG LIE MEE,-,15081955
00028630,ANG RUDY SANTOSO,-,26111967
00013523,ANG SULIANA,-,29051984
00024149,ANG TJIN TIAN,-,05081966
00015493,"ANG, DENSON HARSONO",-,29081987
80000107,"ANG, JOHNNY HARSONO",-,04091957
00014042,"ANG,JOHNNY HARSONO",-,04091957
00003525,ANGEL,,30091994
00032788,ANGELA ARUM KIRANASASI,angelaarum@gamil.com,11101969
00033141,ANGELA INGAWATI SUSANTO,-,06051964
80000108,ANGELA M. BASIROEN SH,-,22111959
00007440,ANGELA MERICI EVANIA,angela_evania@yahoo.com,01061978
00030279,ANGELIA HALIM,angeliahalim@gmail.com,28111973
00030197,ANGELIA LAUVITA,-,30072001
00012650,ANGELINA KUSUMAWARDHANI,angelina.kusumawardhani@gmail.com,25041989
00005281,ANGELINA TANUWIDJAJA,-,02031981
00025898,ANGELINE LEONARDI,angelineleonardi@gmail.com,15121981
00016634,ANGGA BHASKARA H,anggabhaskara15@gmail.com,15091992
00011735,ANGGA LESTIANTORO RACHMAN,angga_rachman@yahoo.com,18081987
00031102,ANGGA MULYA PRATAMA,anggamulya006@gmail.com,11062000
00031635,ANGGA PANGESTU MOEIS,0,23051990
00015768,ANGGA WIDYA PRAYUDHA,anggawidyaprayudha@yahoo.com,22031986
00025566,ANGGELIA SHINTA DEVI,angelia22690@gmail.com,22061990
00007591,ANGGELINA MANUELLA,angelina.ella@gmail.com,02111990
00021449,ANGGIA UTAMI PUTRI,ghieutami69@gmail.com,21081988
00024534,ANGGLI NGADI URI,frangkychaly173@gmail.com,03051991
00010052,ANGGRAENI SUSILO PUTRI,xxxxxx,19021990
00011205,ANGGREINI,angie.indosurya@gmail.com,27081980
00017878,ANGGRIANI,-,13111941
00034535,ANGGUT NARATI IMANUEL,-,07051960
00013418,ANI,-,02041967
00008679,ANI INDAHSI,xxxxx,19041959
00001295,ANI LASTRIANI,anilastriani@yahoo.com,28021973
00024407,ANI MA'SUMAH,0,06081982
00034310,ANI PURNAMAWARNI,ani.purnamawarni@gmail.com,04111950
00014127,ANI RUKHAINI,annihadi009@gmail.com,14021976
00025360,ANI SUMARNI,-,10061974
00032460,ANI TRI ASTUTIK,tutikhendri11@gmail.com,30071992
00030868,ANIE TEDJOKUSUMO,anie.tedjokusumo@gmail.com,24091978
00027107,ANIH LATIEF,-,20031964
00029310,ANIJATI J.S,-,13021966
00027709,ANIK,anikphang.ap@gmail.com,11071978
00020377,ANIK AGUS WINARTI,aawinarti@yahoo.com,25081975
00034222,ANIK DUWI EKOWATI,anik230480@gmail.com,23041981
00016477,ANINDITA CITRANINDA PATTY,-,07111984
00030770,ANINDITA WIDOWATY,-,15101995
00032433,ANISAH,anisachacha3@gmail.com,03051992
00014232,ANITA,-,20011955
00018288,ANITA,-,23011977
00002632,ANITA ANGGRAINI,tidak ada email,13101957
00013786,ANITA CHRISTINA,anitachristina82@yahoo.com,14101982
00010407,ANITA CORINA,tan.tanuputra@yahoo.com,07091970
00009560,ANITA DEWI COKROATMOJO,-,11101990
00031271,ANITA DYAH SULISTYOWATI,putrasatriya.kurniawan@ymail.com,26031987
00015854,ANITA GWAT MEI,-,22121961
00012087,ANITA HAKIM,anita.hakim04@gmail.com,15041985
00006879,ANITA HASAN,xxxxxx,01051967
00024588,ANITA ISMAIL,-,02031983
00014930,ANITA MARYANI,yohanes.sung79@gmail.com,02031984
00012423,ANITA PONGOH,.,08091963
00010459,ANITA PUJI LESTARI,anitapuji_l@yahoo.co.id,29091989
00029377,ANIWATY GENTANIA,0,24071941
00024351,ANIZAR.A,anizar@gmail.com,12081957
00007138,ANJANI HASTUTI,anjani71@gmail.com,21111971
00029870,ANJAS HENDRIAN,anjas.hendrian007@gmail.com,01081994
00020821,ANJAS MARAHADI,anjasmarahadi@yahoo.com,20121987
00032579,ANJAS WIDAYANTO,anjaswidyanto@yahoo.co.id,28081975
00020508,ANKIYURA,ankiyura@yahoo.co.id,09081988
00000394,ANNA,-,03071966
00005458,ANNA,-,03111967
00011913,ANNA ANGGRAINI,xxxx,18031974
00009695,ANNA HARRIS,-,28121964
00035265,ANNA LESTARI WIDJAJA,anna@valentinogress.com,20101986
00013730,ANNA LIDYANA SALIM,0,11031963
00015247,ANNA MARIA A.M,anna_8175@yahoo.com,08011975
00000363,ANNA MARIA BERTHA YUSELINA,annamaria115115@gmail.com,15011971
00021921,ANNA NURHAJATI,-,06091970
80000118,ANNA PHINISIA,-,30011961
00012757,ANNA SUSANTI,-,02041946
00009493,ANNA SUSIANTI TJANDRA,-,24111958
00031771,ANNA TARIAS,annavelinee59@gmail.com,07121987
00017874,ANNABELLA OHARY SE,andregiovannii@gmail.com,11041988
00017503,ANNE,-,26021981
00014848,ANNE INGRAJATI WIDJAJA,widjaja_anne@yahoo.co.id,05101957
00035057,ANNE SIDARTA NOVIANI THIO,annethio3011@gmail.com,30111962
00020987,ANNE TERESA LIE,cendra1967@gmail.com,17111995
00025154,ANNEKE RIDHO,annekeridho@gmail.com,25041956
00011648,ANNEKE YOHANA NANGOI,-,23051958
00024987,ANNELIA ROSITASARI,rositasariannelia@yahoo.co.id,30101969
00016893,ANNESYA SHABRINA PUTRI,-,08031994
00009755,ANNETTE,0,26021960
00023596,ANNIE NYOTO SUTRISNO,-,21071988
00023995,ANNIESA,kakaksyaddad21@yahoo.com,08111981
80000120,ANNINA,-,18111964
00015765,ANNISA INDIRA,annisaindira37@gmail.com,23051991
00011545,ANNISA PUSPA CEMPAKA,0,25021994
00012108,ANNISA PUTRI BESTARI,annisabestari07@gmail.com,07091990
00029843,ANNISYA SABRINA,-,08081991
00001357,ANNY,-,14071942
80000121,ANNY ANDAJANI,-,25061958
00019343,ANNY IRAWATI KIOE,birgitta_anny@yahoo.com,10111979
00031344,ANNY LAITY,-,22051972
00006399,ANNY SUHALIM,xxxxxx,15031985
00006870,ANNY SULASTRI,lena_maria80@yahoo.com,13111935
00015807,ANNY SURYANINGSIH,annysuryaningsih@gmail.com,14111970
00017246,ANORA,anornarun@gmail.com,28111986
00033595,ANSAR SETIAWAN,ansar.setiawan@indosuryafinance.com,22121991
00035153,ANTENA YULIFENTRI,-,11071968
00008249,ANTHONIUS P MANURUNG,anthon050215@gmail.com,25051962
00013339,ANTHONY,-,05041954
00019933,ANTHONY,tecoindo@gmail.com,11111961
00031574,ANTHONY CHANDRA,anthony.ch.dra@gmail.com,02011993
80000123,ANTHONY EFFENDY,-,24081986
00031825,ANTHONY GO,anthonygo302@gmail.com,03021995
00012810,ANTHONY LEONARDI,anthonyleo2788@gmail.com,01011964
00025536,ANTHONY LIANDO,-,18111955
00009919,ANTHONY MUNAWIR S,xxxxxx,25081957
00016270,ANTHONY PRAWIRA,anthony.prawira@gmail.com,15081989
00019910,ANTHONY SANSEN SIAUW,as168s@yahoo.com,03091963
00026131,ANTHONY SUNARTO,sinergiprinting@yahoo.com,16031978
00013216,ANTHONY TITUS SUBARI,-,18091982
00007634,ANTHONY YU,-,12121963
00020160,ANTIK MARIYANI,-,06111968
00016308,ANTON,anton.malik72@gmail.com,03051986
00022261,ANTON BUDIMAN,0,04051960
00028324,ANTON DJATMIKO,anton_djatmiko@yahoo.com,12091973
00009920,ANTON GUNAWAN,0,03011955
00011942,ANTON HARYADI,anton.haryadi24@gmail.com,24081979
00018473,ANTON HENKY,-,16101982
00012195,ANTON MULYADI WIJAYA,-,25031952
00001849,ANTON NATHANAEL,anton_nathanael78@yahoo.com,29041978
00018069,ANTON NUGRAHA TANTOKUSUMO,anton-nugraha@outlook.com,24121988
00000396,ANTON PRIJANTO,,20121946
00012571,"ANTON PRIYA HARTONO,SH",-,01081959
00013710,ANTON SAPUTRA,0,21091976
00002485,ANTON SEBASTIAN,anton.sebastian9@gmail.com,13051953
00015004,ANTON SUJARWOKO,sujarwokoa@gmail.com,21101972
80000128,ANTON SUNARYA,-,14111973
00010693,ANTON SUTANTO,0,27071958
00028574,ANTON WIJAYA,anton.wijaya9678@gmail.com,09061978
00030620,ANTONI,antoniaza07@gmail.com,14121980
00012100,ANTONI,antoni.chen@icloud.com,03041980
00011622,ANTONI SALIM,antoni.salim0913@gmail.com,13091991
00031426,ANTONIUS,iusanton140794@gmail.com,14071994
00018106,ANTONIUS ANDHIKA PERMATA PUTRA,dh1_k@yahoo.com,28041988
00014096,ANTONIUS ANGGRIAWAN,anangsoleha2014@gmail.com,15121977
00015229,ANTONIUS K PAKPAHAN SE,antoniuskp82@gmail.com,01041982
00029132,ANTONIUS KUSWANDI,-,19101943
00007182,ANTONIUS PRIHANTO HARIORAHARDJO,lainnya,31031966
00033728,ANTONIUS SUHARTANTO AMIN,antons_liu@yahoo.com,15111963
00016188,ANTONIUS SUMARNO,antonsumarno@gmail.com,03081969
00033862,ANTONNY DJOHAN,-,26121971
00029956,ANTONY,-,06051977
00000398,ANTONY MAITO,-,12101970
00029285,ANTONY SUGIANTO,-,09041991
00005551,ANTONY SUJAPRI,xxx,07111949
00029916,ANTONY THEJOSUKMONO,-,12121978
00023469,ANTY SAINI,antysaini24@gmail.com,10101984
00001896,ANUGRAH HENDRAWAN,anugrah.hendrawan@indosuryafinance.com,13011970
00006237,ANWAR EFFENDI NAMORA DAULAY,zaoeffendi@gmail.com,26081971
00032322,ANWAR SARJI,-,21081986
00028575,ANWAR WIJAYA,wijaya.anwar43@gmail.com,12111943
00012545,ANWARI,dynamicelectronic@gmail.com,03071970
80000135,ANY PALAUD,-,06021971
00008368,APIT,-,22041971
00015472,APRIANTI AMIR,apriantiamir@yahoo.com,28041962
00027406,APRILIA ORIENTANTI,aprilia.orientanti@gmail.com,22041993
00021915,APRILIA ROSNAELA,april.ar38@gmail.com,09041979
00010084,APRILIA SASTRA,-,24041968
00027065,APRILIANTO,apriliantoaja@gmail.com,12041983
00033891,APRILIECIA HIDAYAT,apriliecia@yahoo.com,24041989
00029007,APRILLA SALMA ANDROMEDA,asalmaan7@gmail.com,23042001
00022690,APRISYIANTO,santoapris@gmail.com,17041986
00013954,APRIYADI MALIK,.,04041972
80000137,AQINA GONE,-,29081986
00021078,AQUANDIK FAISAL HERMAWAN,visualcomp@yahoo.com,03021981
00004311,ARCHIE WIRANATA,,20101997
00008469,"ARCO ANANTO, S,IP",ananto.arco@gmail.com,13121984
00026838,ARDANA FIRMAWAN,ardana.firmawan75@gmail.com,20071975
00029247,ARDHAYADI SE.MA,ardhayadi02@gmail.com,02021952
00015762,ARDHI ARUMAN,ardhi.aruman@gmail.com,16091985
00001803,ARDHI FERY HERMAWAN,ardhi.fery@yahoo.com,11021984
00028609,ARDHI SURYAPUTRA,ardhi surya@gmail.com,13061989
00005031,ARDHIE WIBAWA KUSNAN,xxx,21031986
00032610,ARDHYA HARTA SAPUTRA,ardhyahs@gmail.com,11071992
00005570,ARDI DWINANTA SETIADHARMA,xxx,18011984
00019196,ARDI LESMANA,-,26031964
00033768,ARDI TANADI,arditanadi@yahoo.com,08021969
00029414,ARDI WINARTO,winarto.ardi@gmail.com,24121949
00030161,ARDIAN FIRDAUS,ardian.firdaus@gmail.com,06021982
00024144,ARDIANA MOKODOMPIT,-,16041976
00034749,ARDIANSYAH,ardiansyahapr@gmail.com,11041971
00032705,ARDIKA DWITAMA TJANDRA,ardikadwitama@gmail.com,30061992
80000140,ARDINE ALVIONITA,-,27091966
00010932,ARDISSA PRAMUDITA,ardissapramudita22@gmail.com,22051988
00029379,ARDYTTO ISTIANTO,ardytto.istianto@gmail.com,10081996
00031280,ARFAN BAKRIE,arfanbakrie00@yahoo.co.id,14021969
00030429,ARFANDI WINATA,-,15081957
00027687,ARFUSIN LIONO,-,24051953
00016426,ARGATYA ANANDARU,argatyaanandaru@gmail.com,11111984
00024233,ARGEN BUANA CANDRA ALTARAN,-,22121975
80000141,ARI ASWIN,-,21031984
00005999,ARI BAWANA SANTOSO,-,09051980
00035006,ARI BUDI SISWATY S.KOM,juliana.ari07@gmail.com,23071971
00008293,ARI CAHYO NUGROHO,ariecahyonugroho@gmail.com,20021984
00032695,ARI CANDRA,aricandra01@gmail.com,11081994
00008252,ARI FIRMANTO,-,28011971
00002695,ARI KRISTIANTO,ari.kristianto@hotmail.com,18081983
00022497,ARI NUGROHO IRIANTO,ari.irianto89@gmail.com,02051989
80000142,"ARI SANTI, A. MD.",-,12081982
00010275,"ARI SANTI,A.MD",-,12081982
00005449,ARI SUHARTADI HUTOMO,ariesuhartadi05@gmail.com,05031990
00000400,ARI SULISTIO,-,17111979
00007217,ARI SUSANTO,zhee79@yahoo.com,03011979
00034521,ARI SYAHPUTRA,arisyahputra99@gmail.com,24061999
00008401,ARI WIDIYANTO,-,13031970
00033059,ARI WINARTI,asih1234@gmail.com,26051983
00030990,ARIADI,arilado77777@gmail.com,07051988
80000144,ARIANI ARIFIN,-,05051967
00032839,ARIANTO,ariantolau@yahoo.com,21061969
00025378,ARIAS SARI RAMADHANI,arias.ramadhani@gmail.com,31051985
00029877,ARIE OCTAVIAN WAHYUDI,arieoctavian78@gmail.com,28101978
00005528,ARIE SURYA WIJAYA,xxx,31031957
00031966,ARIE SUTANDIO,-,10091972
00014615,ARIE SUTANTO,arietanto25@gmail.com,31051978
00009042,ARIEF ADITYOSUNU,ariefadityo90@gmail.com,29091990
00016880,ARIEF ARDITYA,xxxxx,22101975
00023129,ARIEF BUDIMAN,-,24111975
00034134,ARIEF DHARYANTO,dharyantoarief@gmail.com,05071943
00012077,ARIEF FAHMI,arif.fahmier@gmail.com,06011971
00002168,ARIEF GUMILAR,,26051979
00004864,ARIEF HERMAN,cheesehermano@gmail.com,14091986
00024246,ARIEF RAHMAN HASYIM,-,06071966
00002880,ARIEF SUYONO,xxxxxx,28031952
00002717,ARIEN GINANJAR ABDISA,,15111975
00023770,ARIENTA FITRIANI,arientafitriani@gmail.com,04011967
00011883,ARIES ANWAR,4ries.4nwar@gmail.com,02041964
00023014,ARIES EDHIE WIBOWO,-,10041974
00027206,ARIES YOKO TJANDRA,aries.tjandra@hotmail.com,04041934
00013655,ARIESTA KURNIA ROMADHANI,ariestakurnia.r@gamail.com,01051989
00015621,ARIETA BONARA,arieta.bonara@gmail.com,25121966
00011365,ARIF ABDILLAH,abdillah_arif05@yahoo.com,25041977
