﻿username,name,email,password
00024638,VENILIANA,veniliana3009@gmail.com,88888638
00024649,SUDJADI W AMIARSA,-,88888649
00024668,KERRY VALIANT,kerryvaliant@gmail.com,88888668
00024745,SUDIRMAN,aqilladier@gmail.com,88888745
00024766,KEZIA EXHAUDIA MATITAPUTTY,keziaex@yahoo.com,88888766
00024802,SYARIF INDRA NATAPRAJA,syarifindra1985@gmail.com,88888802
00024809,FITRIZAL,fitrizal99@yahoo.com,88888809
00024812,FABIAN RESATRIPUTRA,fabian.triputra@indosuryaksp.com,88888812
00024903,DEWI PUSPITA SARI,puspitadewie02@gmail.com,88888903
00024933,NOVITA S. KARIM,-,88888933
00024949,WAHYUDIN RAHMAN,-,88888949
00024965,M AZHAR SYAHPUTRA,syahputraazhar@gmail.com,88888965
00025051,KURNIAWAN SAPUTRA,kurnia3465@gmail.com,88888051
00025149,MUHAMMAD ARIEF TAUFAN,muharieftaufan@gmail.com,88888149
00025301,MARIATI PANJAITAN,-,88888301
00025363,AULIA RACHMAN,auliarachman25@gmail.com,88888363
00025373,RIZA FEBRYATI,za777riza@gmail.com,88888373
00025407,RONALD RICHARD SAMSON,bigronny2401@gmail.com,88888407
00025412,HEDWIS MARVIANUS,eed.koto@gmail.com,88888412
00025431,ADRIANUS SETYO ADIBROTO,adrianus.setyo@gmail.com,88888431
00025438,R.PEPEY DELON TANAKA,deloentanaka@ymail.com,88888438
00025454,DAVID ABDULLAH RIZQI,davidrizqi@gmail.com,88888454
00025462,WILLIAM,williamfoeng@gmail.com,88888462
00025487,ODE TRIEZTAN TANAKA,odetrieztan@gmail.com,88888487
00025514,NURWINDAH ARIS,nurwindah.aris@indosuryaksp.com,88888514
00025516,BAHRUL HADI SETIAWAN, SE,bahrulhadi69@gmail.com,88888516
00025538,KWE ARBERT,kwe.arbert@gmail.com,88888538
00025564,SUGIANTO,xiaomisugi@gmail.com,88888564
00025566,ANGGELIA SHINTA DEVI,angelia22690@gmail.com,88888566
00025602,RAHMAN HADI,rahmanhadi587@gmail.com,88888602
00025655,TRIO SANTOSO,trio.santoso@indosuryaksp.com,88888655
00025670,KARIMUDDIN,alcariemy@gmail.com,88888670
00025762,SUTANTO,-,88888762
00025775,ANDRIANA HERDIANSYAH,-,88888775
00025784,BAGUS GEDE ARI NARAYANA,arinarayanajerry@gmail.com,88888784
00025864,HERRY THIO,herrythio1688@gmail.com,88888864
00025901,JENNIFER KEZIA CONSTANTIA,-,88888901
00025912,ERHANANTYO,erhanantyo@gmail.com,88888912
00025914,SUSILOWATI,-,88888914
00025960,TRI ANJARWATI,-,88888960
00025980,MELIANA EKA PUTRI,melianaekaputri12@gmail.com,88888980
00025984,DEBBY RAHMA PUTRI,debby.putri@indosuryaksp.com,88888984
00026063,TEGOEH SOEDARMANTO,tegoeh.soedarmanto@lintasmediatelekom.com,88888063
00026102,NANANG WAHYU WIDAYAT,nanangputra2014@gmail.com,88888102
00026177,DERRICK EDRIA DAVINDA,-,88888177
00026181,ELPIN ANSARI,elpin.ansari@yahoo.com,88888181
00026187,DONNY DIO DRAJAT,donny.drajat@indosuryaksp.com,88888187
00026188,TUTI MULYATI,tuti.mulyati@indosuryaksp.com,88888188
00026191,RAMADHAN SUSANTO,ammarzain06116@gmail.com,88888191
00026236,DEDI SANTOSO,dediqad@gmail.com,88888236
00026343,HARDONI SETIAWAN,hardonisetiawan2@gmail.com,88888343
00026447,JULKIFLY SARAGIH,julkifly.saragih@indosuryaksp.com,88888447
00026450,ELDHIO RINALDY,eldhiorinaldy@gmail.com,88888450
00026556,EVA WULANDARI,eva.wulandari15@gmail.com,88888556
00026559,VONNY TJAHYADI,vonnytjahyadi88@gmail.com,88888559
00026625,MADELINE MUSIDORA KHOLINA,madeline_musidora@yahoo.co.id,88888625
00026667,BOY AIF ISKANDAR,boyaifiskandar@gmail.com,88888667
00026757,SARAH MEUTIA,sarahmeutia@yahoo.com,88888757
00026770,OCTAFFANY,octha.funny88@gmail.com,88888770
00026778,MARTA LENA,farizal_atan@yahoo.co.id,88888778
00026866,ASMAWARNI,asmawarni@gmail.com,88888866
00026927,MARSANGAP ALVIN P S,alvin.simatupang@gmail.com,88888927
00026958,MERY HO,mery.ho@indosuryaksp.com,88888958
00027094,SURYA NUGRAHA PATTIMAHU,pattimahu@ymail.com,88888094
00027120,WINDY CHISTINE BERLIAN WONA,wonawindy4@gmail.com,88888120
00027146,NURYANTI,fitrakhusnayanti@ymail.com,88888146
00027250,ABDULLAH,abdullahhabib808@yahoo.com,88888250
00027296,TISA NURFADILLAH,tisa.nurfadillah@yahoo.com,88888296
00027301,ANDREW HERMAN,andrewherman2000@gmail.com,88888301
00027428,FRAYOGI DEBORA,ogiyogi420@gmail.com,88888428
00027448,ARIS,arissaalih@gmail.com,88888448
00027554,RUDY VERGO,-,88888554
00027578,HENDRA TOMMY WIJAYA,-,88888578
00027835,A HILAL,andihilal925@gmail.com,88888835
00027910,SUKIRMAN,-,88888910
00027981,LUCY OKTAVANY WURARAH,lucy.oktavany@indosuryaksp.com,88888981
00027985,AHMAD SYADHALI,ahmad.syadhali@indosuryaksp.com,88888985
00027991,JEKSON ONIBALA SE,jeksononibala3@gmail.com,88888991
00027996,I GUSTI NGURAH PUTRA GUNAWAN,wahmarlin89@gmail.com,88888996
00028013,RIRIN ANGGRAINI,ririn.anggraini984@gmail.com,88888013
00028040,RIBKA PURWATI,ribkapurwati90@gmail.com,88888040
00028118,DERI PRIMASARI,deriprimasari777@gmail.com,88888118
00028357,IRNAWATI SUTANTO,rina@thetico.co.id,88888357
00028518,ERNI ASIKIN,erni.asikin@indosuryaksp.com,88888518
00028525,INNA HANDAWARI KRISTANO,achristalyta@yahoo.com,88888525
00028541,KHANAFI ISKANDAR,iskandar5758@yahoo.com,88888541
00028578,NOVICELIA,novi_celia@yahoo.co.id,88888578
00028585,RAHMAD IRWAN S.P,iwan.himgas@gmail.com,88888585
00028608,RIZQIYA FIRDAUSY AESQY,rizqiyafirdausy@gmail.com,88888608
00028983,ANDI JANUAR JAURY DHARWIS SE,januarjaury@yahoo.com,88888983
00029135,ANTONIUS,-,88888135
00029137,STEVANI LANDRI WATI,minerd_sentosa@yahoo.com,88888137
00029242,DWIHARINI PUSPITANINGSIH S.KEP.NS.,M.KEP,dwiharini.pus@gmail.com,88888242
00029331,DR SUSANA SOMALI, SP.PK,susanasomali@gmail.com,88888331
00029695,DEASY ANGRENI HURINT,hurintdeasy@gmail.com,88888695
00029697,MOCHAMMAD GUSTIADI,mochammad_gustiadi05@yahoo.com,88888697
00029758,MANAY MANGIWA,-,88888758
00029902,YURNAWATI OCTARIA S.PD,yurnawati.octaria@indosuryaksp.com,88888902
00029979,KADEK INDRA PRAYOGA,indraprayoga101090@gmail.com,88888979
00030112,NOFRI YANTONI,nofriyantoni11@gmail.com,88888112
00030158,HELEN A.TJARA,helen.angriany@gmail.com,88888158
00030432,SETYA NINDYA SAIRINDRI PUTRI,nsairindri22@gmail.com,88888432
00030442,EDI WIBOWO,danang100190@gmail.com,88888442
00030461,ADHI SATRIANTO,asatrianto88@gmail.com,88888461
00030539,CANDRA PRANOTO,pranotocandra@gmail.com,88888539
00030553,ADI OCTAVIANTO,ifaha12@gmail.com,88888553
00030554,TEGUH KARYADI,teguhkaryadi027@gmail.com,88888554
00030600,LUVSARI LAMBOK GULTOM,luvsarig@gmail.com,88888600
00030626,PUSPITASARI,puspitasari@gmail.com,88888626
00030636,DWI SARI RAHADI,rahadidwisari@gmail.com,88888636
00030650,FILEA SUMIYATI,yatifilea@yahoo.com,88888650
00030723,FENNY AGUSTIEN,fangfangyoung@gmail.com,88888723
00030742,ABDUL HAMID,matarametcp@gmail.com,88888742
00030748,ARNOLD WEMPIE IRAWAN,arnoldwempie@yahoo.com,88888748
00030756,ISLAHUDDIN RITONGA,islahuddinritonga@gmail.com,88888756
00030781,YONNI RIZAL,yonnirizal0@gmail.com,88888781
00030809,ALIF CHAIDIR,-,88888809
00030817,SULIADI,-,88888817
00030841,SRI SARI NGURU LOGO,-,88888841
00030850,DEWI INDAH SARI,dewiis11@gmail.com,88888850
00030910,AMEI NITO FARDAMI,-,88888910
00030920,MARIO ADI NUGROHO,mario.adinugroho@gmail.com,88888920
00030921,GMR RICHE WILLIYATI,richewilliyati@yahoo.co.id,88888921
00030931,ABDUL GOPUR,agopur040@gmail.com,88888931
00030959,SAANIH SUSILAWATI,-,88888959
00030981,RUSTANI,rustani65@yahoo.com,88888981
00030998,DR ANDI ASTRININGDYAH M.W.P M.KES,-,88888998
00031002,TAN HASAN,sanhu71@gmail.com,88888002
00031008,MACHMUDIN RUSLAN,mach.ruslan60@gmail.com,88888008
00031028,SAMUEL TAMPUBOLON,pearajatampubolon@gmail.com,88888028
00031080,DWI ARI YULIANTO,dwi_ariyul@gmail.com,88888080
00031081,SUARDI,suardi73@gmail.com,88888081
00031104,HJ AIDA,andidafril71@gmail.com,88888104
00031109,SUGENG TRISNO,sugengtrisno79@gmail.com,88888109
00031119,CHAIRNI MAHLUNI,luluasmat43@yahoo.co.id,88888119
00031157,KHAIRIL AZHAR,khairilpaytren@gmail.com,88888157
00031186,URAY NURLINDA,lindauray@gmail.com,88888186
00031193,RISNAWATI DJIBU,-,88888193
00031200,REINHARD HULMAN PANIROI,amadeusnesar@cbn.net.id,88888200
00031251,NASRULLAH,nasrullahnasrullah060@gmail.com,88888251
00031263,FRENGKY RASID SIAN NIFAR,frengky0121@gmail.com,88888263
00031270,PUTRA SATRIYA KURNIAWAN,putrasatriya.kurniawan@ymail.com,88888270
00031280,ARFAN BAKRIE,arfanbakrie00@yahoo.co.id,88888280
00031299,F.X SAPTONO WINDOE,twindoe@gmail.com,88888299
00031340,NI WAYAN DARMI ANGGRENI,infosemilirinn@yahoo.com,88888340
00031348,JUMADIL,naylajumadil2013@gmail.com,88888348
00031370,HO THIAN MIN,hothianmin@gmail.com,88888370
00031380,ANNISA DEWI SAYEKTI,-,88888380
00031417,MARHADI,ajibestcompany@gmail.com,88888417
00031422,HARRY WARDANA,-,88888422
00031446,IBNU RIZAL,ibnurizal107@gmail.com,88888446
00031475,LUTFI ANDIKA PUTRA,andika93site@gmail.com,88888475
00031499,ENJANG WIRA,enjangwira71@gmail.com,88888499
00031500,HASNAH,hasnahhj7@yahoo.com,88888500
00031530,SALEH H ZEES,-,88888530
00031616,ERTANTYO TENATOBI,obiertantyo@gmail.com,88888616
00031633,POEY SUPYADI SOEMANTA,poey.bris@gmail.com,88888633
00031669,SUPRIYONO,sanjiono82@gmail.com,88888669
00031686,SUTARMI,siti01sutarmi@gmail.com,88888686
00031690,RAHMAD ISKANDAR,-,88888690
00031757,DWI TIO MERLINA MANALU,uwialo87@gmail.com,88888757
00031852,I MADE ADI PURWANTARA,adi.purwantara@gmail.com,88888852
00031914,DADANG SUPRIADI,patimah.kertamukti@gmail.com,88888914
00031986,ICHSAN MUSLIMIN,ichsanmuslimin@gmail.com,88888986
00032018,SUNGGUL SITIO,bukitindah.sjr@gmail.com,88888018
00032025,YOYOK BUDI SANTOSO,satriayoyok197@gmail.com,88888025
00032036,NATALIA GRACE WEKU,ngweku@gmail.com,88888036
00032056,LUMUMBA MANALU,lumumbamanalu@rocketmail.com,88888056
00032224,NIDA KHODIJAH,prasetyasandi03@gmail.com,88888224
00032241,YENI KARTIKA DEWI,kartikasyahdani@gmail.com,88888241
00032254,JASMAN ALBAKIR,-,88888254
00032265,JUPIJANTO WIWIK MULIONO,jupijanto.wiwikmuliono@yahoo.com,88888265
00032268,MERLINA ESTARIANA,linaesta7@gmail.com,88888268
00032281,DEWI SISCA FITRIA,dewisisca2@yahoo.co.id,88888281
00032300,RIDHO INSANA B.,ridho.insana@gmail.com,88888300
00032302,AHMAD YAZID SYAHPUTRA,az_id@ymail.com,88888302
00032318,ROMMY,rommyzoebir@gmail.com,88888318
00032355,LILY PUSPITA,lydihan@gmail.com,88888355
00032367,CHRISTINE,-,88888367
00032432,LARAS CAMILLIA FAYAKUNTARI,laras.camill@yahoo.co.id,88888432
00032433,ANISAH,anisachacha3@gmail.com,88888433
00032457,STEPHANUS RASPATI KRISTIAWAN,-,88888457
00032460,ANI TRI ASTUTIK,tutikhendri11@gmail.com,88888460
00032542,YUSUF HIDAYAT HATTA,yusufhidayathatta@gmail.com,88888542
00032552,RIYAN HADIANSYAH,hadiansyahriyan@gmail.com,88888552
00032570,ERNAWATI,-,88888570
00032573,SHUKMA WIDAYANTI,sukmawida26@gmail.com,88888573
00032613,A RIYAN SUDIYANSYAH ND,ventazalfa67@gmail.com,88888613
00032641,NGUDI SANTOSA,ngudi123@gmail.com,88888641
00032649,ENDY,endi_lim@hotmail.com,88888649
00032714,SERIVA RAIRA DEVIKA,vika_nasrullah@yahoo.com,88888714
00032731,MIRAH MIDADAN FAHMID,-,88888731
00032747,RONNY MARBUN,AMG,SE,marbunronny8@gmail.com,88888747
00032766,NATALIN EFRAJIM BATARA,jimbatara@yahoo.com,88888766
00032792,HENRIZAL,henrizal@gmail.com,88888792
00032838,LENG TJIPTABUDY,-,88888838
00032851,MUCH PASJON,jojan1160@gmail.com,88888851
00032875,HERY HERMANTO,heryhermanto@yahoo.com,88888875
00032901,SHINTA DEWI KUSUMAWARDHANY,shintadewi227@gmail.com,88888901
00032927,ANDRIANDI,andriandi75@gmail.com,88888927
00032929,DAISY SHIRLY MARHAENIE ENGKA,daisy_engka@yahoo.com,88888929
00032948,ENDANG HENDRAWAN,dghendra@gmail.com,88888948
00033008,DIANA IKAWATI,deeikawa@gmail.com,88888008
00033015,FEBRINA SITORUS,shs.febrinasitorus@gmail.com,88888015
00033036,MEILANDIA JINU,melandia.jinu65@gmail.com,88888036
00033055,FEBRI YANSYAH,febriansyahjambi1989@gmail.com,88888055
00033057,WIDYA MAWARTI,widyamawarti79@gmail.com,88888057
00033082,MANGATAS PANDAPOTAN MARPAUNG,mangantas.marpaung@yahoo.co.id,88888082
00033129,LIONG FIE MING,liong_fieming@gmail.com,88888129
00033147,WITA DEWI SAPARINA,wita.saparina@gmail.com,88888147
00033186,KOENTORO HERI SUSANTO,-,88888186
00033227,EMY VICTORIA MARIA MATURBONGS,creative739ar@gmail.com,88888227
00033253,I MADE AGUS PARTHAMA PUTRA,agusparthamaputra@gmail.com,88888253
00033301,RICKY MACHDI. SE. MM,-,88888301
00033304,RUDIANSYAH MANIK,rudiansyah.manik@gmail.com,88888304
00033371,SRI DWI SOPIAH,anggrekvi.va@gmail.com,88888371
00033413,IRAWAN,irawan.mangsang@conocophilipsindonesia.com,88888413
00033426,RAHMAT REZA HAMIDY,-,88888426
00033493,SUSANTO,san_ong38@yahoo.com,88888493
00033544,MUHAMMAD RODHY,mrodhy@gmail.com,88888544
00033569,TEO RONY SUSANTIO,teoronny@gmail.com,88888569
00033616,SABARUDIN,0,88888616
00033692,I DEWA MADE SUARDANA NIDA,nida123@gmail.com,88888692
00033703,EDWIN LIOW,edwinliow0808@gmail.com,88888703
00033784,SAHMAN SUDIRA,aeresavia@gmail.com,88888784
00033975,JAMES YONGKE PIETERS,james.pieters@yahoo.com,88888975
00034027,BHAGWAN,yeliananur499@gmail.com,88888027
00034053,MARNIASIH,marniasih1403@gmail.com,88888053
00034056,FAKHRUR ROZIE,fahrur0604@yahoo.com,88888056
00034078,WIDYASONO HARDJO,-,88888078
00034098,CHOSIYATUN,chosiyatun0706@gmail.com,88888098
00034128,YULIAWATI,yuliawatisaleh@gmail.com,88888128
00034139,ANDRE JERRICO LEGOH,andrelegoh@gmail.com,88888139
00034183,DIKO ZAKI DEPANO,zaki.diko@gmail.com,88888183
00034185,DINO ZULFIKARDI,sididinoz@gmail.com,88888185
00034209,EDU NUGRAHA,little_777@yahoo.com,88888209
00034282,KEMANIE RYANTO ASAD,kemanieryanto@gmail.com,88888282
00034304,AGUSTININGSIH NURDIN,agustiningsih.nurdin@gmail.com,88888304
00034324,MEI YANTI NAINGGOLAN,meididie@yahoo.com,88888324
00034326,ARY JULI RAHARDJO,xxxx,88888326
00034341,RISSAN VANESTA PASARIBU, SE,rvp@swing-indonesia.com,88888341
00034356,YUSUP SUHARIYANTO,yusupsuhariyanto@gmail.com,88888356
00034357,THELMA JERICHO,yunita.soesanto@yahoo.com,88888357
00034363,LYSBETH VERONIKA NAIBAHO,veronicalysbeth@yahoo.co.id,88888363
00034375,HIMMIATUL AMANAH,amanahhimmiatul@gmail.com,88888375
00034431,RATIH ARINTOWATI,wong_gede2006@yahoo.com,88888431
00034454,WILLEM ANEN,willem.annen63@gmail.com,88888454
00034458,SUPRIYADI,cv-mitrapersada@yahoo.co.id,88888458
00034512,ROSALIA SURYANTI,rosa_lias@gmail.com,88888512
00034520,PUJI ASTUTI,tedjaraden5@gmail.com,88888520
00034528,NELI MARLIZA,nelimarliza12@gmail.com,88888528
00034537,H TONNY ULOLI SE,tonnyuloli.gpj@gmail.com,88888537
00034559,EMILIA CHEN,emily_hady@yahoo.com,88888559
00034565,A. SHINDU SOENDORO,shindu.soendoro@gmail.com,88888565
00034630,LINDA AB,lindanm1969@gmail.com,88888630
00034640,HANDIE,handie.gama@gmail.com,88888640
00034645,MULYONO,mulyono69@gmail.com,88888645
00034663,JUL INO NANI,binjeita813@gmail.com,88888663
00034672,DESWATI BR SIMATUPANG,-,88888672
00034689,AMRAN SULAIMAN,amran_sulaiman18@yahoo.com,88888689
00034749,ARDIANSYAH,ardiansyahapr@gmail.com,88888749
00034757,LIDIJAWATI EFENDI,samuellidya2016@gmail.com,88888757
00034789,NINING MEDIA,regiallerich84@gmail.com,88888789
00034804,WISNIATI,aldyaldinna1234@gmail.com,88888804
00034838,ANDRI RIVANI,andrierivani.rna@gmail.com,88888838
00034864,RISMANTA,rismantaaris@gmail.com,88888864
00034872,DJOKO EFFENDY BOSTAN,eff.280998@gmail.com,88888872
00034881,FENDI,tian703@gmail.com,88888881
00034926,MISBAH ISHAK,misbahishak70@gmail.com,88888926
00035000,BOBBY CARTER KAPOYOS,borneo.beruang@gmail.com,88888000
00035078,AFRIAL IKRAM,rial3keido@gmail.com,88888078
00000353,VINNO VERNANTO,vn_vernanto@yahoo.co.id,88888353
00000358,MARINI JAKUP,,88888358
00000359,JESSY MUSTAFA,jessy,88888359
00000360,VERAWATI ANGGRAINI RUSLI,verawatianggraini0704@gmail.com,88888360
00000362,DAHLIA AYU CITRA,dahlia.ayu.citra@gmail.com,88888362
00000363,ANNA MARIA BERTHA YUSELINA,annamaria115115@gmail.com,88888363
00000367,ABIN SOESANTO,-,88888367
00000374,ALFAN SULAEMAN,xxx,88888374
00000376,ALFONSUS RIDWAN WIHARDJA,-,88888376
00000377,ALI BODHI,-,88888377
00000380,ALICIA MIKAEL,alicia_mikael@yahoo.com,88888380
00000392,ANG LIAN PING,,88888392
00000394,ANNA,-,88888394
00000396,ANTON PRIJANTO,,88888396
00000398,ANTONY MAITO,-,88888398
00000400,ARI SULISTIO,-,88888400
00000410,BAMBANG IRWANTO,-,88888410
00000416,BENNY DJAJA,,88888416
00000419,BOEDI SALIM,mmm,88888419
00000421,BONG SYAK MOI,,88888421
00000422,BONG TJEN KHUN/BUDINOTO,-,88888422
00000423,BUDIMAN GUNAWAN,budiman.gunawan@yahoo.com,88888423
00000424,BUDY,,88888424
00000428,CAROL KOROMPIS,,88888428
00000429,CAROLINE,-,88888429
00000431,CATHERYN TSJIAM,-,88888431
00000432,CATUR SARI CAHYATI,-,88888432
00000438,CHERIE ARIANTI,-,88888438
00000444,CORBY,,88888444
00000446,DANNY THAMRIN,xxxxxx,88888446
00000447,DARMA WIDJAJA,-,88888447
00000448,DARMADI,0,88888448
00000451,DEDE CHANDRA YAHYA,0,88888451
00000454,DIANA LIM,,88888454
00000456,DICKY SENOADJI,-,88888456
00000458,DIEN MOONLY YAPUTRA,-,88888458
00000461,DJOHAN TJIUNARDI,,88888461
00000462,DJONY ANWAR,-,88888462
00000463,DJUMIN AWAN,xxxxxx,88888463
00000466,DJUWITA YAKUB,-,88888466
00000467,DR HERMAN BUDI SANTOSO,,88888467
00000469,DR LINAWATI MAKMUR,xxxxxx,88888469
00000470,DR. ADRIANA WIRIANATA,-,88888470
00000471,DR. HC DEWI DJUWITA,-,88888471
00000473,DR. LUKMAN TRISNA,xxx,88888473
00000482,DRA.KENTJANA SUSY L,-,88888482
00000484,DRG ANDRIANI SUWITA,-,88888484
00000486,DRG. LIANAWATI SUSANTO,-,88888486
00000488,JUSUF MUCHARAM,-,88888488
00000492,KHARISMA BASKARA KAMARGA,0,88888492
00000494,DUAN PLEN,-,88888494
00000506,ELISABETH KARLINA L,-,88888506
00000509,ELLEN WIBOWO,-,88888509
00000510,ELYSA SUSILO,xxxxxx,88888510
00000512,ENI TOTONG,-,88888512
00000518,EVELENE LUKITO OR SIDIK EFENDI,-,88888518
00000521,FANNY MARULI,-,88888521
00000526,FENNY SUJONO,-,88888526
00000527,FERRA DJUNITA,-,88888527
00000529,FIYANTI WIJAYA,-,88888529
00000530,FRANCISCA INDRIATI WIBOWO,-,88888530
00000540,HANDAYANI,-,88888540
00000547,HARSA SUTANDI,-,88888547
00000550,HARY SUGIONO,0,88888550
00000551,HASAN GUNAWAN,,88888551
00000552,HEDY JUNIATI,-,88888552
00000555,HENDRA KUSUMA KARGITO,-,88888555
00000556,HENDRA SAPUTRA HAWIDJAJA,-,88888556
00000562,HENNY SH,-,88888562
00000567,HERLINA UTOMO,-,88888567
00000570,HERMAWAN KARGITO,-,88888570
00000576,HINDARTO,xxx,88888576
00000578,HO TJAU FA,0,88888578
00000579,HUSIEN KARGITO,-,88888579
00000580,IMAN IHWANDI,xxxxxx,88888580
00000581,IMELDA,,88888581
00000593,IR. DJOKO PRANOTO SANTOSO,-,88888593
00000595,IR. HAGIANTO KUMALA,-,88888595
00000600,SUTINA,-,88888600
00000602,IR. TJAHJADI AQUASA,,88888602
00000606,IRWANTO,irwantochen808@gmail.com,88888606
00000607,ISJE SETIAWATI SELAMET,-,88888607
00000620,JIOE JOEN LAN,0,88888620
00000624,JOHANES DANIEL,johanesdaniel@gmail.com,88888624
00000630,JOS CHANDRAWIRA,-,88888630
00000631,JOZA SURYAWAN OR HENDRIK NININ SURYAWAN,-,88888631
00000637,JULINAR,-,88888637
00000639,JUNITA WIDJAJA,-,88888639
00000645,KARMAN TANDANU,-,88888645
00000646,KARTONO HANAFI,-,88888646
00000647,KATRIN HENDRAJATI,-,88888647
00000653,KOON YUK CHING,,88888653
00000658,KUO TITIN MUTIARAWATI,titin.mutiarawati@yahoo.co.id,88888658
00000659,KURNIA,xxxx,88888659
00000661,KUSNADI KASMAN,-,88888661
00000662,KWEE FENNY KARTIKA,-,88888662
00000663,KWEE, SINGGIH KURNIAWAN,,88888663
00000664,LANA JULIANTY KURNIAWAN,0,88888664
00000668,LANNY SURYANTO,0,88888668
00000670,LANNY TJANDRA,-,88888670
00000677,LEONARDO SURYADI,0,88888677
00000678,LIA NATALIA WIJAYA,-,88888678
00000682,LIANNI SUDJONO,-,88888682
00000689,LIE LI MOY,-,88888689
00000690,LIE LIAN TIE,,88888690
00000691,LIE LIE EFFENDY,-,88888691
00000696,LIE THWAN HIAN,-,88888696
00000698,LILIS WIDIAWATY PAL,-,88888698
00000699,LILY,,88888699
00000705,LIM SIOE HENG,sioeheng@gmail.com,88888705
00000709,LINA LIMARTA,-,88888709
00000711,LINA YAHYA,linayahya@rocketmail.com,88888711
00000713,LINDA ANTONI,-,88888713
00000716,LINGGAJANTHI SUSANTO SE,-,88888716
00000717,LIONG TJIE JAN,0,88888717
00000718,LISA JULIANA TANJUNG,,88888718
00000719,LISHARTATI LUKITO,-,88888719
00000721,LUCIA INDRIJATI SETYONO,-,88888721
00000723,M.TH.OEI AY TIEN,-,88888723
00000727,MARIYANTI,,88888727
00000738,MELIA LUSTOJOPUTRO,-,88888738
00000740,MERRY SOETRISNA,msoetrisna@yahoo.com,88888740
00000743,MILY,-,88888743
00000747,MORAWATI,mora_8111@yahoo.com,88888747
00000750,MULIANNY TASMIN,-,88888750
00000756,DJOHAN,,88888756
00000777,NOVI SITARESMI,strsm0747.sss@gmail.com,88888777
00000783,LISTYAWATI HALIM,-,88888783
00000784,MAGDALENA WANNE,0,88888784
00000785,NY Y WOERYANDARI ASTATI,,88888785
00000794,OOI LAY ENG,-,88888794
00000797,PEGGY ALICIA KUSSOY,-,88888797
00000798,PEIFINNA PANGESTANU,0,88888798
00000801,PIETER DARMA,-,88888801
00000802,PIETER TANUWIJAYA,pieter_tan@cbn.net.id,88888802
00000805,PROF DR.IR. SRI LAKSMI SURYAATMADJA MS,xxxx,88888805
00000808,PROF.DR.IR.HADI K.PURWADARIA,xxx,88888808
00000810,PUDJIATI SARWONO,,88888810
00000814,RATNAWATI DJIWANTORO,rudjiwantoro@yahoo.com,88888814
00000815,RATNAWATI HIURIONO,-,88888815
00000823,RITA JULIANA SOEHARJONO,c,88888823
00000831,ROOS WE,,88888831
00000843,SALIM WANGSADINATA,,88888843
00000844,SAMUEL MARULI,0,88888844
00000846,SANTOSO GUNAWAN,xxx,88888846
00000847,SARI JOHANNA,xxxxxx,88888847
00000849,SHANTI ROSSYA,-,88888849
00000854,SILVY TANIA KUSUMA,-,88888854
00000855,SINARTI,,88888855
00000859,SITI FARIDA SUPODO,-,88888859
00000860,SIURY INGGRANI,xxx,88888860
00000861,SIURY LANSARIA,-,88888861
00000863,SOEJONO GHOZALI,-,88888863
00000866,SOEMIANTO SOETRISNO,,88888866
00000869,ST. SRI MARWOTO MBA,,88888869
00000871,SUBRAMANIAN WISWANATHAN,-,88888871
00000873,SUGIANTO KWERIANTA OR SIURY LASNSARIA,,88888873
00000874,SUGIANTO TJOKROWIBOWO,0,88888874
00000875,SUGIYADI,-,88888875
00000878,SUHERMAN GANDA PERMANA,0,88888878
00000882,SUKARJO JASIM,-,88888882
00000884,SUMIATI HANAFI,-,88888884
00000887,SUNARDI,sunardi.syl@gmail.com,88888887
00000889,SUPIYANTI WARSO REJO,-,88888889
00000899,SUSANTO HALIM,-,88888899
00000902,SUSY OMAN,-,88888902
00000903,SUWANTO KARTONO,,88888903
00000905,SUYAMTINAH,-,88888905
00000914,TAN JULIANA TANAMAS,-,88888914
00000915,TAN MIE JOEN,-,88888915
00000917,TAN SIOK HA,-,88888917
00000919,TAN WINARTO TJAKRA,-,88888919
00000924,TEDDY KUSNADY,-,88888924
00000926,TEDY SUWANDI,0,88888926
00000927,TEGUH SOENAJI WIJAYA,-,88888927
00000929,THAM SOANG TEK,-,88888929
00000936,THIO HOK NIO,-,88888936
00000937,TIEN SOEHENDRO,,88888937
00000938,TIEN TIEN WAHONO,,88888938
00000939,TIO SIE PIN ALS MERIYENTI,-,88888939
00000942,TJHIA HIAN PIN,xxxxxx,88888942
00000946,TJIE LILY LUCIANI,xxx,88888946
00000947,TJIOE CHANDRA,tjioe.chandra@gmail.com,88888947
00000954,TOMMY WIRANATA,-,88888954
00000956,TREES WIDYANTI HIMAWAN,-,88888956
00000963,UNTUNG WIHARSONO,-,88888963
00000974,WIDJAJA HENDRA,-,88888974
00000975,WILLY SAPUTRA,-,88888975
00000978,WONG KWAI FONG,-,88888978
00000979,YANI SRI ROEHJANI,xxx,88888979
00000981,YASIN ANGARA,-,88888981
00000992,YOUKY HARTANTO,,88888992
00000994,YULIANTO KURNIAWAN,0,88888994
00001003,ANDRIANI,gloandri@yahoo.co.id,88888003
00001008,ELIS WIDJAJA FARIDAH,,88888008
00001009,ERPA WAHJUNI,-,88888009
00001010,ESTHER LIMAWAN,,88888010
00001012,FRANS BUDIANTO MARTONO,-,88888012
00001013,FREDDY JO,freddy820@yahoo.com,88888013
00001015,HERY DARMANTO,-,88888015
00001019,LENA KARMAWAN,-,88888019
00001025,RUDDY SETIADI SUHARLI,ruddy.setiadi@berkattedinica.com,88888025
00001028,SR.M.EUFRASIA,PBHK,eufdnsc17@gmail.com,88888028
00001033,SUDI GUNAWAN KESUMO,sudikesumo@gmail.com,88888033
00001034,THE SENG HO,-,88888034
00001035,THERESIA D WEWENGKANG,-,88888035
00001036,TJHIA TJANDRA TJAHYADI,,88888036
00001037,TJOA LE FIE,refie_8400@hotmail.com,88888037
00001044,ANCHAELA DAMAYANTI B,-,88888044
00001045,ANDY HANS,,88888045
00001050,CHRISTIAN HANS OR EFRI SETIAWAN,-,88888050
00001051,DJUNAEDI HIDAYAT DR,,88888051
00001053,ELLIWATY HUSIN,glodokplaza7@gmail.com,88888053
00001055,FABIAN,,88888055
00001059,HARJADI HALIM,-,88888059
00001061,HENRY SAPUTRA,,88888061
00001063,HO MEI LAN,meilan123321@yahoo.com,88888063
00001064,HUSNI GUNAWAN,,88888064
00001066,JAKUP ALI,-,88888066
00001068,JO SUSANTI,,88888068
00001069,JUKLIN ALI,-,88888069
00001070,JUNIARTI PONIDIE,,88888070
00001071,KWOK CHIE SING OR ERFI SETIAWAN,-,88888071
00001073,LIAUW SUMIJATI,-,88888073
00001074,LICHINHARTY SULISTIJO,,88888074
00001075,LIES UMAR,-,88888075
00001088,THIO JU HWI,-,88888088
00001118,ETTY SUTJISARI,-,88888118
00001120,FELICIA TANDANU,-,88888120
00001122,HENDRA YAN CHANDRA,-,88888122
00001124,JESSICA ANTANIA,-,88888124
00001126,JOHAN SUTADI TANDANU,-,88888126
00001128,JULIA CHANDRA,,88888128
00001129,KOOSNADI DARMAWAN,-,88888129
00001131,LIOE TJOEN,-,88888131
00001134,LYLIA SUSANTY R,-,88888134
00001145,VIRAWATI TANDANU,,88888145
00001146,FRENGKIE NATAWIJAYA,,88888146
00001148,LANI JULIASARI,-,88888148
00001172,INDAH KUSUMAWATI,,88888172
00001183,GUNAWAN SATYARAHARDJA,gunsr26@gmail.com,88888183
00001192,SURYA EFFENDY,surya@indosurya.net,88888192
00001194,YULYANTI,,88888194
00001195,JONG JUNUS OCTORA,junus.octora@indosuryafinance.com,88888195
00001196,MARCELLA HEVILA SUGI,hs.marcella@gmail.com,88888196
00001199,MULYADI,mul27@yahoo.com,88888199
00001200,LIM MELLYWATI,.,88888200
00001201,WAWAH HERMAWAN,,88888201
00001202,DJIE WILLIAM SURYA WIJAYA,williamsuryaw@yahoo.com,88888202
00001214,JUNAIDI HASAN,junhasan@hotmail.com,88888214
00001215,SURYA EFFENDY,surya@indosurya.net,88888215
00001221,KOMARIAH,ellaleo75@gmail.com,88888221
00001222,IE LUCY IERAWATI,lucyierawati89@yahoo.com,88888222
00001223,MARGARETA TANDELA,tan_eta@yahoo.com,88888223
00001225,SUWANTO,wanto_sk@yahoo.com,88888225
00001227,SIDHATA SAPDHA PADMA,,88888227
00001228,DUWI RAHMAWATI,dowee_ardyan@yahoo.com,88888228
00001229,ENDRIANI SUWARNO,didi_suwarno@yahoo.com,88888229
00001230,DAHLIA AGUSTRIANI,lia_agustriyani@yahoo.com,88888230
00001232,SISKA THERESIANA M,siska_theresiana@yahoo.co.id,88888232
00001233,RIA ANGGRAINI,riangra31@gmail.com,88888233
00001239,YENNY LASMARIA HUTAJULU,jennyhutajulu@yahoo.co.id,88888239
00001241,HENDERINA KWASUA,ririnkwasua@yahoo.co.id,88888241
00001243,WIDHAYATI BASRI,widhayatibasri13@gmail.com,88888243
00001244,BAGAS RESTU IMARINI,bagasres81@gmail.com,88888244
00001246,MURNI RIA SATI,murniriasati@gmail.com,88888246
00001247,GION BAGEM SEMBIRING,gionsembiring@yahoo.com,88888247
00001248,ARIF BUSTANUL ARIFIN,arifbustanularifin@yahoo.com,88888248
00001251,CYNTHIA DEWI DJOEMENO,cynthiadewid@gmail.com,88888251
00001254,SHIRLEY,,88888254
00001258,VIVI LIMAWANTI,vivilimawanti09@gmail.com,88888258
00001259,DEBY SINTIAJAYA,,88888259
00001260,UMMI LATIEPAH,ummilatiepah@yahoo.com,88888260
00001262,AGUSTA HENDRO,agusta_h@yahoo.com,88888262
00001268,EDWIN BUNAWAN,edwinbunawan@yahoo.co.id,88888268
00001269,INDRIATI AYUB,indriatiayub@yahoo.com,88888269
00001273,FINNY AMALIA,finnyamelia11@gmail.com,88888273
00001274,YAN SUHENDRA,,88888274
00001278,CHELSEA CHAYADI,chelseachayadi@rocketmail.com,88888278
00001279,LINDA INDRASARI,lindaindrasari@yahoo.com,88888279
00001288,JUNE INDRIA,indria@indosuryafinance.com,88888288
00001290,MEI LING,meiling.meiling19@yahoo.com,88888290
00001291,FELIX F LUMINTANG,felixlumintang@gmail.com,88888291
00001294,AHIM,,88888294
00001295,ANI LASTRIANI,anilastriani@yahoo.com,88888295
00001296,LO LILIS SULIANTI,-,88888296
00001306,LINY SUTANTO,linysutanto@gmail.com,88888306
00001308,HANS SEBASTINE,,88888308
00001309,DESSY KUMALA DEWI,,88888309
00001314,MAIRETTA GAYATRI,mairetta.g@gmail.com,88888314
00001315,STEFANIE SETIAWAN,stefanie.setiawan@gmail.com,88888315
00001317,TETY KURNIAWATY WIJAYA,,88888317
00001321,ANEE MUCHASAN,aneemuchasan2@gmail.com,88888321
00001323,BHAYANG SURYADIMADJA,,88888323
00001324,ANDI SUTANTO,-,88888324
00001325,TJIAM VONNY TJANDRA,-,88888325
00001328,H.AMRIL,-,88888328
00001329,HANDOYO SANTOSO, SH,,88888329
00001330,HJ. MAHJAR DINI INANG. S,-,88888330
00001331,NURFINA,-,88888331
00001333,IR ADHEI SUBAGYO,-,88888333
00001334,JIE ANGELA FIONA L,-,88888334
00001344,THIO LENG CHIN,-,88888344
00001357,ANNY,-,88888357
00001365,BUDI SUKARTO,-,88888365
00001372,DARMA KESUMA,darmachow@gmail.com,88888372
00001376,DJAKA AGUSTINA,-,88888376
00001377,DJONDHIE WIDJAYA,-,88888377
00001380,DR.RENAULD KOSWIRANAGARA,renauldkmrms@gmail.com,88888380
00001382,SURIATA,-,88888382
00001383,SUSANTI TRISNADI,-,88888383
00001386,ELLYNI ONGAH,-,88888386
00001389,EVELIA HALIM,-,88888389
00001397,GIOVANI TAMARA,,88888397
00001401,HARJOKO TRISNADI,,88888401
00001402,HARRY ANTONY,-,88888402
00001408,HENGKY KOSASIH,-,88888408
00001410,HERMANTO SUKIJUNG,-,88888410
00001417,IRWAN SETIAWAN,,88888417
00001422,JAKUB,,88888422
00001426,JEN SEN,-,88888426
00001428,JOHANA,-,88888428
00001444,LIAN TJOEN CHOO,-,88888444
00001448,LIE IE,,88888448
00001457,MARITHA SIMAN,-,88888457
00001464,NATALIA KASENDA,,88888464
00001467,RAHMAN JULIOES,-,88888467
00001472,ROBERT ANGKASA,,88888472
00001476,RUDY SUMARGO,rudy_sumargo@live.com,88888476
00001492,SURJANI,,88888492
00001495,SUSANNY LIE,-,88888495
00001497,SYLVIANNA CHITRAHADI,-,88888497
00001509,WENDARTI UI,-,88888509
00001519,DEDY HARTANTO,-,88888519
00001520,DWIWATI WINATA,-,88888520
00001524,HASAN ANDRYANTO DS,-,88888524
00001528,IRVANYUNI JAPUTRI,-,88888528
00001530,JOSEPH MARGOLO,-,88888530
00001531,LIAUW SIAU DJAN,-,88888531
00001532,LILY NAWAWI,-,88888532
00001537,SARI TJITASURA,-,88888537
00001541,TJHIE NANDAR,-,88888541
00001542,TJUNG TJOE FANG,-,88888542
00001543,TOMMY VANALU,-,88888543
00001551,ALBERTA PETRONELA PORA,ertajr@yahoo.com,88888551
00001552,FARAH DAIBY CAROLIN,daibycarolin@yahoo.com,88888552
00001556,KURNIA PUTRI,laurentianeea@yahoo.com,88888556
00001558,SYLVIAWATI PUALAM,-,88888558
00001559,ERNI,ernireva@yahoo.com,88888559
00001564,TRI PUDJI WINARSIH,djie_aih@yahoo.com,88888564
00001605,IR TEDDY HAKSONO,thaksono@gmail.com,88888605
00001607,HADI WIJAYA PRANATA,jyuichisebelas@gmail.com,88888607
00001614,HAFIDZ SUBARKAH,hafidzsubarkah2gmail.com,88888614
00001630,ONNY SURYANI,-,88888630
00001638,ANES ANDRIANTO,,88888638
00001642,LINDAWATI RAHARDJA,,88888642
00001646,IR MULJADI TJAHJONO,,88888646
00001647,SURYATIN JANE EFFENDY,,88888647
00001648,MITA SICILLIA,,88888648
00001650,SURYAWATI KOENTJORO,,88888650
00001652,DOMINICA SADORA M,,88888652
00001656,LIU IN JUSNA,liuinjusna@yahoo.com,88888656
00001659,SUYEKTI,shilein9@gmail.com,88888659
00001662,INA MEGAHWATI SUGIHONO S H,ina.megahwati@yahoo.com,88888662
00001678,ERNI SAK,sak_erni@yahoo.com,88888678
00001687,KONG FRANS KANTIAWAN,,88888687
00001711,THERESIA HABSARI,,88888711
00001712,JANTI,,88888712
00001714,OKKE WIDIYANTHI PUTRI,okke.putri@gmail.com,88888714
00001716,ZAKIYYAH TSUMMA JAYA,,88888716
00001718,SUMAN WIDJAJA,,88888718
00001721,SUHARDI TJENDANA,tjendana2011@yahoo.co.id,88888721
00001722,KOSTAMAN THAYIB,kostaman_thayib@yahoo.com,88888722
00001723,JOELIANI TJANDRA,,88888723
00001733,TRI HARDINI HANDAYANI,,88888733
00001740,AHMAD HARIYADI,,88888740
00001774,ALEX CHANDRA LAMINTO,,88888774
00001779,ACHMAD ISMANTO,-,88888779
00001780,YENNY,-,88888780
00001785,HIDJRIANI,*,88888785
00001789,BERNAD PARDEDE,-,88888789
00001792,MARVEL JAYA,marveljaya111@yahoo.co.id,88888792
00001802,INTAN KOMALA SARI,stevy_lah@yahoo.com,88888802
00001813,RATNAWATI BUDIMAN,,88888813
00001814,HELEN SUHANDHI SH,,88888814
00001817,TRISNAWATI BUDIMAN,,88888817
00001818,ASTRID RUSLI,-,88888818
00001826,RINO AZHARI,rinoazhari185@gmail.com,88888826
00001841,TRIYONO,triyono@indosuryafinance.com,88888841
00001842,ADHA MUBARAK,mubarak_adha@yahoo.co.id,88888842
00001849,ANTON NATHANAEL,anton_nathanael78@yahoo.com,88888849
00001851,JHON,o,88888851
00001857,ANDREAS,andreas@indosuryafinance.com,88888857
00001863,MONIKA MANGISI S. HUTAGALUNG,monika.galoeng@gmail.com,88888863
00001865,MUHAMAD AKBAR,akbar.delonge88@gmail.com,88888865
00001888,MENTARI PASARIBU,mentari.pasaribu2410@gmail.com,88888888
00001890,BUDI KARYAWATI,na_na_nae@yahoo.com,88888890
00001892,MAIZA PUTRI,maiza.putri@ymail.com,88888892
00001895,LIA WIJAYA SARI,,88888895
00001897,ADE ANDIKA WISNUPURWANKA,SH,adenyaandika@gmail.com,88888897
00001903,MEDI YANTO,,88888903
00001935,IFSAN DWINANTO,,88888935
00001938,HENDRA SUCIPTO TAMBUNAN,hendra.tambunan@indosuryafinance.com,88888938
00001939,FANI ROSALINA,fani.rosalina@indosuryafinance.com,88888939
00001942,SHINTA KRISNA,stepha.shine85@yahoo.com,88888942
00001943,FANTONI,fantoni@indosuryafinance.com,88888943
00001953,RUCHYAT ZIKRI,iyay.netral@yahoo.com,88888953
00001965,IRAWATI GUNAWAN,,88888965
00001972,ASEP SEPTIAN,asp.confinance@gmail.com,88888972
00001979,ANDYKA ARDI,andika_mahadana@yahoo.com,88888979
00001995,HENRY SURYA AND JONG JUNUS OCTORA,,88888995
00002005,SHIRLEY YOANITA SUSILO,xxxx,88888005
00002013,TEE SANTI,tee.santi@ymail.com,88888013
00002017,IRWANSYAH,bocoy.mufc@gmail.com,88888017
00002028,TAIYA SLAMET,taiyaslamet@gmail.com,88888028
00002038,STEVEN RALPH RICHARDSON,steven.62100211@gmail.com,88888038
00002044,HARTINI MULYANTO,,88888044
00002045,DWI SWANDIANI,-,88888045
00002046,RIKE NATALIA,,88888046
00002048,DYAN DILATO,dyandilato71@gmail.com,88888048
00002052,MYRANI ISNANIATI,,88888052
00002060,HOCKMAN,man.acc8100@gmail.com,88888060
00002068,SUDARMIN WIDJAJA,,88888068
00002076,SUSAN MEILANI,,88888076
00002080,RUDY HARYANTO HOGIONO,rudy.hogiono@gmail.com,88888080
00002081,RIVA ALBERTO KARJONO,-,88888081
00002082,FERRY,,88888082
00002083,SOENDORO,soendorowidjaja@yahoo.com,88888083
00002084,AGATA GUSTI ANGGORO KASIH,agatakasih@yahoo.com,88888084
00002085,KHENDRICK,,88888085
00002086,BELINDA DEWI TANZIL,,88888086
00002088,YUNITA,flo_yunie@yahoo.com,88888088
00002099,UDI MARGO UTOMO,umarutomo@gmail.com,88888099
00002101,ARWINA AZWIR,arwinaazwir@gmail.com,88888101
00002110,SISKA JAHJA,,88888110
00002114,NY.KRISSANTI SUHARDI,,88888114
00002116,HARDIANSYAH,aldy.b374wi@gmail.com,88888116
00002117,HENDRA,hendra.lim28@gmail.com,88888117
00002118,HENDRA,hohendra020@gmail.com,88888118
00002120,HARUN WIDODO,harun.widodo86@gmail.com,88888120
00002121,SOESANTI TENG,-,88888121
00002122,ALFA CAMRILLA,alfacamrilla@gmail.com,88888122
00002127,DONNY HOW GENTANIA,gentania@gmail.com,88888127
00002129,RUDI MARPAUNG,ryudie@gmail.com,88888129
00002133,STEVANIE S HALIM,,88888133
00002145,HELEN KUMALA,,88888145
00002146,TJONG ERNA YULIANA,erna.y1978@yahoo.com,88888146
00002148,VERONICA SHELLA KURNIAWAN,,88888148
00002151,IR JULIA HASTUTI WINOTO,,88888151
00002153,G JOKSAN SIANTURI,gadingsianturi@yahoo.com,88888153
00002162,WIHARDI,vincent.wihardi@indosurya.net,88888162
00002167,WITRIANI,.,88888167
00002174,IRENE YUNITA,lyunitairene@gmail.com,88888174
00002175,MINTARDI NAGARABANI,nagarabani@gmail.com,88888175
00002176,AHMAD MASRURI,masruri@indosurya.net,88888176
00002179,YESSI GAMIARSI,yessiyyessi@gmail.com,88888179
00002191,SUBARI URSULA MARIA,,88888191
00002193,TRI WIBOWO,,88888193
00002195,SUWONDO BIANTORO,,88888195
00002196,ENDAH MEUTIA RAHMI,m3tea@yahoo.com,88888196
00002201,IRENA TJAHJADI,irena@wisma.com,88888201
00002208,YANNY JUHENDI,yannygaf@gmail.com,88888208
00002212,HERIZAL HARMAINI,herizal.harmaini@indosurya.net,88888212
00002214,RESYA DWI AMELIA,,88888214
00002221,HERTANTO TJAHYASURYA,,88888221
00002222,SAMIYATIH,ami.samiyatih@gmail.com,88888222
00002225,SOLEH WIBAWA,soleh.bowo@indosurya.net,88888225
00002233,SISWANTI NOVELINA SIMBOLON,siswanty_newone@yahoo.co.id,88888233
00002235,SYAIFUDDIN,syaifuddin@indosurya.net,88888235
00002236,MASRIA DNT SINAMBELA,ria.sinambela@yahoo.com,88888236
00002237,BENNY THENO,bthenoo@ymail.com,88888237
00002239,NIA NIRZANIA,nnirzania@yahoo.com,88888239
00002245,KADER TARIGAN,tarigankader@gmail.com,88888245
00002265,SANDY KUSWANTO,sandykuswanto_07@yahoo.com,88888265
00002270,DONNY SULAUMAN,donny_sulauman@yahoo.com,88888270
00002276,DERMAWAN CHASAN,chasandermawan@yahoo.com,88888276
00002287,HAWALI,hawali0887@gmail.com,88888287
00002289,LILIANA,,88888289
00002292,SUTARJA,,88888292
00002295,ATENG TEDJASUKMANA,belum diisi,88888295
00002300,ACHMAD BERMAWI,achmadb@gmail.com,88888300
00002302,MARIANY CHANDRA,meina.bcc@gmail.com,88888302
00002303,MEGAWATIE CAHYANI,,88888303
00002305,CATUR PUTRA NG,,88888305
00002310,IRENE HIOE,,88888310
00002311,PAULINA PRISCILLA,-,88888311
00002315,LILY LO,,88888315
00002316,CHRISTINA JAP,,88888316
00002319,MELINDA AGATHA,melindayung@hotmail.com,88888319
00002328,ARMEN SAUT H TAMPUBOLON,,88888328
00002329,CICILIA ENDAH MULATWATI,,88888329
00002330,DJAP PONIMAN,poniman.djap@gmail.com,88888330
00002336,DJOANGTO KASIM,,88888336
00002343,LIFEN,,88888343
00002349,BAN LIONG,,88888349
00002351,JENNY HARIWAN,,88888351
00002353,BAHRONI,,88888353
00002354,DJOEI TJHAI HA,tjhai_ha@yahoo.com,88888354
00002355,RENDY,rendykhioe@gmail.com,88888355
00002360,DEA CHAESARA,deachacha93@gmail.com,88888360
00002373,EVINA,vin_halim@yahoo.com,88888373
00002375,TJEUW. VERONICA,,88888375
00002376,TAN JO HOH,xxxxxx,88888376
00002387,JUSUP GUNAWAN,jsp_gunawan@yahoo.com.sg,88888387
00002388,MUNAWIR,munawir1511@gmail.com,88888388
00002393,ENDANG SURTIKANTY SURYA,esurti1273@gmail.com,88888393
00002395,GIOK SUAT NANI,,88888395
00002398,DIAN.S.SYARIFUDDIN,,88888398
00002399,SURYAWATI SETIADI,*,88888399
00002402,MICHAEL ISKANDAR,michael@dunextr.com,88888402
00002415,FILDA FITRIA,fildadida@yahoo.com,88888415
00002448,SAPTARITA,ritasapta8@gmail.com,88888448
00002456,BUDI HARIANTO,budi.harianto.128@hotmail.com,88888456
00002466,ALVIN CHRISTYANTO,alvinch21@yahoo.com,88888466
00002469,YULIUS,yulius-iyus@hotmail.com,88888469
00002478,AGUS Y.SAHANGGAMU IR,,88888478
00002483,HO JOENG JIN,*,88888483
00002485,ANTON SEBASTIAN,anton.sebastian9@gmail.com,88888485
00002499,IRHANDY VALENCIUS IRPAN,valencius@hotmail.com,88888499
00002514,KRYZIA KRISTIE,kryziakristie@gmail.com,88888514
00002516,SYLVIA LESTARI,0,88888516
00002521,HENGKY,hengky.berneto@gaf.co.id,88888521
00002524,DEDI PRASETYO,dedi.prasetyo@gaf.co.id,88888524
00002535,GITA ARYANI,,88888535
00002541,KUS AMELIA,kusamelia88@gmail.com,88888541
00002542,KOESMARIAH AFFANDI,,88888542
00002544,JOESIANY,joesianybunjamin@gmail.com,88888544
00002546,ELNI,elni_larisa@yahoo.com,88888546
00002550,INA KRISNAWATI,inakrisnawati72@gmail.com,88888550
00002554,JULISTIN,,88888554
00002557,GO TJUI IN,mega_lyn@yahoo.com,88888557
00002574,AJOE KARTIKA MASTAKA,ajoe_kartikamastaka@yahoo.co.id,88888574
00002577,I GUSTI PUTU PUDIASTA S.E,,88888577
00002588,TJANDRA WIDJAJA SUTOMO,-,88888588
00002590,YOESMAN AGUS,*,88888590
00002603,JACKIE,jackie_van91@yahoo.com,88888603
00002611,ELFIERA AGUSTINA,,88888611
00002613,TJEN LIE YOEN,0,88888613
00002618,HENDY SETIAWAN,hendys.setiawan@gmail.com,88888618
00002623,HARTINAH,,88888623
00002624,SIM RITTA SIMON,,88888624
00002626,DJONI HARDI,0,88888626
00002628,FREDY,fredyciang@yahoo.com,88888628
00002630,JONNY,jonnyoct@yahoo.com,88888630
00002631,ADE PUTRA WIJAYA,,88888631
00002635,SRI RATNA MUSTIKANDRINA,,88888635
00002647,CLARISSA TJONDONGAN,,88888647
00002654,YU SHIAW SHIAN,tidak ada email,88888654
00002657,SUPRIYANTO,supriyanto250214@gmail.com,88888657
00002659,YOYO,,88888659
00002662,FANGRIATI SUSANTO,*,88888662
00002665,TANTO IBRAHIM AGUS,-,88888665
00002666,OEI MELIAWATY SOEGIHARTO,meliawatisoegiharto@gmail.com,88888666
00002667,RICKI,,88888667
00002668,ZELLYTA DENALYA,zellyta.69@gmail.com,88888668
00002675,DRS.GUNARDI WANTJIK,gunardi_mp@yahoo.com,88888675
00002677,JIMMY TANAL,SH,-,88888677
00002686,DJONY F BUDIHARTO,,88888686
00002690,FADHILAH JUWITA LESTARI,0,88888690
00002695,ARI KRISTIANTO,ari.kristianto@hotmail.com,88888695
00002707,ROHMAT SUTARDI,0,88888707
00002710,SUTAN AGUNG MULYADI,mulyadi@serbamulia.com,88888710
00002711,INGGIT IMANIAR SUGIHANI,imaniar_inggit@yahoo.com,88888711
00002712,SANDI AURIANSAH,sandyvaf@gmail.com,88888712
00002717,ARIEN GINANJAR ABDISA,,88888717
00002721,JIMMY BOEWONO RUSLIM,jruslim@dunextv.com,88888721
00002724,WANG TAN HOENG,,88888724
00002725,SITI ASROFAH,,88888725
00002727,SILVYANNA NAGASASTRA,,88888727
00002749,KUKUH PRIHADI SE MM,kukuh.prihadi@gmail.com,88888749
00002750,BERNAN TUA EFFENDI,dolok1605@gmail.com,88888750
00002759,IGNATIUS KEVIN MULJANA,,88888759
00002774,HENY NULITRA,,88888774
00002784,INDAYANI MOELJO,-,88888784
00002785,ROSIANA LINDAWATI,,88888785
00002788,LIANI GUNAWAN,,88888788
00002792,SETYAWATIE,-,88888792
00002793,MARIA CINDERELLA JOHANNES,aquastarski@yahoo.com,88888793
00002801,IR.MUGIONO,mugiono68@yahoo.co.id,88888801
00002803,CHANDRA,chandra11@indosurya-net,88888803
00002804,TUHRI,,88888804
00002805,MARDJONO RASMAN,mardjonor@yahoo.com,88888805
00002809,LIANI,liani.liang@yahoo.com,88888809
00002813,ENDAH ARYANI,endaharyani831@yahoo.com,88888813
00002815,ROBERTUS BOEN,rbt_01@yahoo.com,88888815
00002817,HENY,,88888817
00002822,INGE DEWI LAKSONO,,88888822
00002824,CHRISTINA JANUAR,,88888824
00002826,EFFENDI MULIA,,88888826
00002827,MIMI SULASMI WAHYU,wiwiwahyu59@gmail.com,88888827
00002832,SIMON CHANIAGO,simon@indosurya.net,88888832
00002833,HENDY IRWANTO,FONG,hendy_irwanto@yahoo.co.id,88888833
00002835,LIM SIOE FOEI,,88888835
00002836,SURYA ROSALY LUSIAWATY,-,88888836
00002840,ROMIE ADHA,,88888840
00002841,RITA LAWARDY,,88888841
00002844,CECILIA RINI MARDIWIDYO,cecilia.mepro@gmail.com,88888844
00002845,ZUZINATUL IMANIAH,zuzi.imaniah@gmail.com,88888845
00002847,HAMONANGAN SIAHAAN,hamonangan.siahaan@gmail.com,88888847
00002865,TOELIUS HARNOTO,*,88888865
00002874,HERIANSYAH,heri_ansyah90@yahoo.com,88888874
00002878,NOVIE KURNIATY,noviekurniaty01@gmail.com,88888878
00002880,ARIEF SUYONO,xxxxxx,88888880
00002890,IGNATIUS ARIE SUHARJAN,arie.rich@yahoo.com,88888890
00002895,ADRIAN K TRIGONO,,88888895
00002897,JENNIFER SUTIONO,jennifer.sutiono@yahoo.com,88888897
00002898,MARYATUN,tidak memiliki email (deviasi),88888898
00002902,MARIA,eterniti@centrin.net.id,88888902
00002913,FERDI TADARUS,ferditadarus@gmail.com,88888913
00002916,TJONG SUI LIONG,kenko138@yahoo.com,88888916
00002926,RM.YASSER PURBAYA,mtiim_yasser@yahoo.com,88888926
00002938,ARYATI PRIHATIN,aryati.prihatin@bankmayora.co.id,88888938
00002939,IR IM EDDY SUTRISNO,-,88888939
00002945,YANTI S SUGIHARTI,,88888945
00002949,LEONARDO DHARMAPUTRA,,88888949
00002954,MAMIKE HARDIANTI,mamike32@yahoo.com,88888954
00002956,CINDY HARLIS,cindy.harlis@ymail.com,88888956
00002978,LUCY FANIA,,88888978
00002986,SILVIANA SILCILLYA NG,,88888986
00002997,MUSLIH HARDIANTO,,88888997
00003003,DANNY DANANJAYA,danny_hideo@yahoo.com,88888003
00003004,YULIA TRISNA,,88888004
00003009,SUNG CIN HIN,,88888009
00003013,SLAMET SANTOSO,slametopssantoso@gmail.com,88888013
00003016,HENDRI EKO PURNOMO,hendri8606@gmail.com,88888016
00003018,HAWA RIANG,,88888018
00003020,ALEXANDER EFFENDY OR CHANCY ANGGREK,,88888020
00003022,MADE GUNADI SUNDJAJA,,88888022
00003023,IRIANA KUSNADI,iriana_kusnadi@yahoo.com,88888023
00003027,INDRA SETIAWAN,IR.M.BA,,88888027
00003124,KON FUI PHIN,,88888124
00003170,ASTRID GUNAWAN,,88888170
00003172,FENNI HERYAWATI,,88888172
00003175,HERMAN ISKANDAR,tidak ada email,88888175
00003185,RENNIE SETYADHARMA,rennie.chris@gmail.com,88888185
00003205,SILVANA SOEI,,88888205
00003209,GUNAWAN S.LUIHANDOJO,*,88888209
00003210,FAHMI IDRIS,fahmi.metalindo@gmail.com,88888210
00003224,ROBERT TANALESSY,robertanalessy@yahoo.com,88888224
00003236,PAMBOEDHI,-,88888236
00003259,VINA,vina.djong89@gmail.com,88888259
00003261,ANDI ARIESZA RHIANDINI M,ariesza.rhiandini@gmail.com,88888261
00003265,ELIEZAR IRWAN SETIADIBRATA,eliezerirwan@gmail.com,88888265
00003303,TJHIN LIE DJIN,,88888303
00003340,HADI KUSUMA,hadi_kusumaa@yahoo.co.id,88888340
00003347,LIYA YULIANA RAHARDJO,liayuliana072@gmail.com,88888347
00003364,AGUS SRI HARYADI,agsril@yahoo.com,88888364
00003366,MUHAMMAD ARDI RAHMANSYAH,ardirahmansyah@gmail.com,88888366
00003367,HJ.DEVI K.ROLASWATI,SH.MKN,,88888367
00003369,DYAH ANGGRAENI,,88888369
00003379,HENDRA MAHENDRA,chuaymahendra@gmail.com,88888379
00003387,ARIS GUNAWAN,aries85.ren@gmail.com,88888387
00003406,JACUB EFFENDI MOELJONO HANDAJANI,james.jehova@gmail.com,88888406
00003411,MEILANI FAJARWATI,mely.meiylanie@gmail.com,88888411
00003412,ABDUL ROHIM,0,88888412
00003416,LISA SOEMARMIK,-,88888416
00003431,SOLIKHUN,,88888431
00003438,VIMALA KIRTIPITRA TUNGGAL JAYA,ken@rmtindo.com,88888438
00003463,LINA LIPUTRI,,88888463
00003465,FEBY ARIANNE,febyarianne@gmail.com,88888465
00003466,JULIA,juliaphan88@gmail.com,88888466
00003472,SARJONO,jgat2010@yahoo.co.id,88888472
00003474,KASIYAN BASIR,,88888474
00003498,JONG DIAN ADHISTY NUGROHO,dee_yan1985@yahoo.com,88888498
00003507,JUJUN KARMILA,bibi_yunaz@yahoo.co.id,88888507
00003508,EVI AGUSTINA LUDYA,smurf2908@yahoo.com,88888508
00003512,DYAH SUSANA, SE,ana-sby11@yahoo.com,88888512
00003525,ANGEL,,88888525
00003557,FITA WAYUNINGSIH,fitawningsih007@gmail.com,88888557
00003559,SOLIHIN,0,88888559
00003562,FENDEDY,,88888562
00003597,ANDRE REXDIAN ARCHIE,,88888597
00003606,LUARENCE SUPERMAN,,88888606
00003610,MUHAMMAD ZELANI,jay_abimayu@yahoo.com,88888610
00003611,RIDWAN SEMEDI,,88888611
00003612,TRIHANDAJANI WIBOWO,honny_wibowo@yahoo.com,88888612
00003615,TEN SIEN JONG,*,88888615
00003622,TRI WINARTO,triwinarto0303@gmail.com,88888622
00003638,RINIJANI SENTOSA,,88888638
00003683,AGUS SUSANTO WIDJAJA,-,88888683
00003698,MARIO FRANZ,xxxxxx,88888698
00003713,SANNI NUR WIJAYA,sanninur78@gmail.com,88888713
00003727,JANCE IRAWAN,indoraya2000@yahoo.com,88888727
00003728,WIWIEK WIJAYA,wiwiek_w@yahoo.com,88888728
00003729,KURNIAWAN IRAWAN,,88888729
00003738,HO HWIE TJIN,mmnnanaj,88888738
00003759,KIKI NATALYA,natalyakiki@hotmail.com,88888759
00003775,MULYONO,jackmulyono9@gmail.com,88888775
00003785,RITA GOSAL,,88888785
00003786,DWI MEDIA YULI H GURNING,,88888786
00003787,BERNIATY MUSTIKA,berniatymustika82@gmail.com,88888787
00003802,RATNA MIRA A Z,,88888802
00003804,PO SOE FANG,0,88888804
00003808,ZULHENDRI HASAN,,88888808
00003819,JIMMY KOSASIH,jimmykosasih_mail@yahoo.com,88888819
00003821,TJONG CATHARINE TJANDRA,-,88888821
00003823,TANIA PERMATA AZHARI,tania.azhari11@gmail.com,88888823
00003826,TUTIK WAHYUNI DRA,,88888826
00003828,SULISTYO ARIADI,,88888828
00003830,NATALINA SAGITA SOEMARLI,0,88888830
00003832,EDDY WILLIAM,,88888832
00003833,TIURLAN SEDJUK,,88888833
00003836,FELIX WIDJAJA,,88888836
00003840,IDA JOSEPHINE RAHARDJO,rahardjoida@gmail.com,88888840
00003842,SETIAWATI SUNARDI,,88888842
00003843,EDUARDUS ASTO BUDIMAN,0,88888843
00003850,BENNY BAMBANG SUMINTARTO,betigaes@yahoo.com,88888850
00003851,FELICIA RATNA INTAN S,frintan88@gmail.com,88888851
00003889,SAMUEL,linceoei@rocketmail.com,88888889
00003896,HARIYANTO TANNATO,,88888896
00003900,WAHYUDI POEDJIONO,lily_poedjiono@hotmail.com,88888900
00003906,VONNY WIJAYA,-,88888906
00003909,WILLIAM WIJAYA,-,88888909
00003910,PAULA JOHANES,paula.johanes@panca-kusuma.com,88888910
00003914,LIEM LAN DJING,0,88888914
00003919,ERNAWATY UTAMA,,88888919
00003922,TANJUNG SULIA,tanjung@astridogroup.com,88888922
00003949,DINA ANGGRIANI UTOMO,,88888949
00003952,NATHANIEL SEBASTIAN,e.pt.karis@yahoo.com,88888952
00003960,TANTRI RADESTI ERLINA,,88888960
00003961,SUARNI FARIDA,,88888961
00003966,TINA,0,88888966
00003971,USMAN GUNADI,usman.gunadi@yahoo.com,88888971
00003976,TJEN TJHIN SZI,,88888976
00003977,FEBRIANA RETA MUTI,febriana.reta@gmail.com,88888977
00003978,NADIA NUR INDAH FAJRINA,nadiafajrina@gmail.com,88888978
00003980,RICHARD WIJAYA,,88888980
00003981,SRI RAHAYU,0,88888981
00004022,INDIAH WATI JUNUS,,88888022