username,name,EMAIL,DOB
00005109,LO SIOE NJOEK,-,10031960
80001516,LO WENG HING,-,07041955
00021137,"LO,DJUI ING",-,14041965
00016290,LOA NANCY,-,16101978
00010315,LOCDHA WINA,locdhawina@yahoo.com,21011946
00015304,LOE IMELDA,iloe7@yahoo.com,27051980
80001517,LOE SAUW KOEN,-,17101950
00007570,LOEDI HARIANTO,-,16021944
00030733,LOESIANNA,loesianna78@gmail.com,28021978
00032244,LOESJIE ANDRYANI,-,24011955
00035145,LOIS SLAMET,-,30051959
00034507,LOISSA STEVANI,loissastevanie13@gmail.com,13061997
80001520,LOKY THOMAS SUTIKNO,-,12121972
00027246,LOKY THOMAS SUTIKNO,locky1271@gmail.com,12121971
00034670,LORINDA PELITA ARTONO,lorindaartono@yahoo.com,24111963
00034477,LOUISA JANE SURJANA,louisa_jane12@hotmail.com,31121989
00011745,LOUISE MELISA ELIMIA,-,16051982
00033022,LOUISE PATTIWAEL,tidak ada email,08081938
80001521,LOUREN METHARIA ALAMSAH,-,21081965
00021955,LOUSJE TANGKERE,-,02071974
00003606,LUARENCE SUPERMAN,,25121946
00024749,LUBITO,lubitho85chie@gmail.com,06111985
00021619,LUCAS TETARDY TJONDRO K,lucas@inara.co.id,25071954
00009250,LUCIA HALIM,luciahalim2@gmail.com,14111987
00000721,LUCIA INDRIJATI SETYONO,-,23091946
00031347,LUCIA JOCELIN,lucia.jocelin@yahoo.com,19051994
00011499,LUCIA LISTYAWATI,0,20031956
00033343,LUCIA SIA,info.xmbasra@gmail.com,03091964
00034725,LUCIA STEPHANI BUDIDHARMA,lsbudidharma@yahoo.com,23011979
00034338,LUCIANA,lci411@hotmail.com,17031977
00010960,LUCIANA,luciana.stefanus@gmail.com,04071980
00032947,LUCIANA CIPTO,luciana.cipto@yahoo.com,29061985
00028335,LUCIANA GUNAWAN,anciana36@yahoo.com,03061962
00032111,LUCIANA HALIM,-,18061976
00023441,LUCIANA HUKOM,uchyhukom03@gmail.com,01111983
00020554,LUCIANA PRIJAYA,-,14031941
00018126,LUCIANA SAPUTRA,lucianasaputra5@gmail.com,16011965
00012636,LUCIANA SUTANTO,iking@bevananda.com,08121932
80001524,"LUCIANINGSIH, SH",-,05081958
00010620,"LUCIANINGSIH,SH",-,05081958
00030915,LUCKMAN SETIAWAN MULIA,mulialuckman@gmail.com,19031962
80001526,LUCKY,-,03051992
00033924,LUCKY,meilanbhagya@gmail.com,20011962
00033378,LUCKY HARYONO,haryono_lucky@yahoo.com,17121979
00010079,LUCKY RUMENGAN,-,12121981
00015395,LUCKY SIAHAAN,lucky.mangatas@gmail.com,02041975
00035161,LUCKY SYAFRIL,yanadianty@hotmail.com,01091965
00012859,LUCKY WIRYAYUDHA NEGARA,-,05111982
80001527,LUCKYMAN,-,04071974
00011355,LUCY,su_lucy1@yahoo.com,22111980
00002978,LUCY FANIA,,17011981
80001528,LUCY ISWATI,-,27091946
00014411,LUCY OCTAVIA SIREGAR,notarislucy@yahoo.com,02101974
00027981,LUCY OKTAVANY WURARAH,lucy.oktavany@indosuryaksp.com,07101978
00017803,LUCYA WIYADI,-,08121989
00034718,LUCYANA,-,25091987
80001530,LUCYANA HADIWIDJAJA,-,27011964
00034739,LUCYANA PURNAMA,-,15071967
80001532,LUCYAWATI,-,27041988
00019604,LUDDY HERMAWAN LUKMAN,luddyhermawan@yahoo.com,18041970
00024775,LUDWINA EMILIA MAKS,ludwinamaks@yahoo.com,30121961
00032880,LUFRINA B M LITTIK,lufrina@yahoo.com,19051976
00031636,LUH ARIANI BUDIADNJA,0,04011989
00030406,LUH GEDE SUDARMINI S SOS,luges.sudarmini@gmail.com,03011963
00029067,LUH PUTU ASTRIANI SH,astri.notaris@gmail.com,26101976
00028367,LUH PUTU SARIYANI DEWI,de.mapayas@gmail.com,11061975
00033336,LUH PUTU WAHYUNI,agusparthamaputra@gmail.com,20011968
00016015,LUH WIDASARI DEWI,widapradjna@gmail.com,22111989
00011254,LUKAS,-,07011974
00024507,LUKAS BATO PARE,-,10041970
00025503,LUKAS KUSMANA,-,14031941
00029922,LUKAS PORA,lukay61@gmail.com,15101961
00011954,LUKAS TJWANTO,lukastjwanto@ymail.com,18101965
00015904,LUKAS WINDIADI,lucx_85@yahoo.com,03121985
00004779,LUKITAWATI,tawati_luki@yahoo.co.id,12121965
80001536,LUKITO JUNAEDI LIAWIJAYA,-,09121962
00035014,LUKITO JUNAEDI LIAWIJAYA,lukito@bandoindonesia.com,09021962
00023645,LUKMAN ADI SUSANTO,lukman4di@yahoo.co.id,19061967
00003482,LUKMAN ARIO SUGITO,lukmanario@gmail.com,26031987
00001991,LUKMAN HAKIM,luank.scorp@gmail.com,03111985
00032145,LUKMAN JAUHARI,lukmandj.59@gmail.com,12041959
00033779,LUKMAN KOSASI,luckyman.kho@gmail.com,08101943
00020031,LUKMAN KOTO,lukmankotobmi@gmail.com,09021983
80001538,LUKMAN PRANATA,-,14081972
80001539,LUKMAN SALIM,-,29121987
00024776,LUKMAN ZAINI DAUD,lubitho85chie@gmail.com,23101954
00005961,"LUKY KURNIA PUTRA, SE",lucky_kurniaputra@yahoo.com,10071988
00030704,LUKY SUGIARTO,ms.lukysugiarto@gmail.com,30071986
00031658,LULEANA INDAHWATY,luleanaindahwaty@gmail.com,03071978
00023058,LULLY FEBRIANA BOOR,pabriksandal@ymail.com,12021970
00004614,LULU,lulu.buanajaya@gmail.com,19061974
00032415,LULU,thebestlulu@yahoo.co.id,08041975
00030109,LULU BULJAN,lulubulzanz@yahoo.com,12061970
00012095,LULU IL AZIZAH,-,09061990
00028034,LULU LUCIANA SAPUTRA,lulu.saputra@gmail.com,12061980
00034746,LULU SARMA KARTINI,dwijayatek169@gmail.com,24041977
00009961,LULUK INDAHSYAH,-,07031979
00028468,LULUK SYARIFAH,-,02111979
00018371,LULUK USWATUN MARIYAH,-,20111982
00015598,LULY.K,luly_kurniawan@yahoo.com,24101969
00028772,LUMINTANG.A.SIENTJE,-,30101949
00032056,LUMUMBA MANALU,lumumbamanalu@rocketmail.com,30071966
00032759,LUNA SETIAWATI,-,10061949
00035191,LUNARDO LAY,-,19121971
00004793,LUNG TAK WONG,wonglungtak@dilmgroup.com,08041946
00033766,LUNNY,-,12121976
00016483,LUQY WIJAYA,-,19091988
80001545,LUSANTO TEJA,-,29081979
00011531,LUSI FAUZIAH TOBING,-,02021957
00031896,LUSI INGAWATI HADITORO,lusiingawati@gmail.com,28121968
00031449,LUSI OKTAVIA,-,02101997
00023419,LUSIA,-,21061966
00025137,LUSIA LAWANI,xxxxx,01041957
00020331,LUSIANA,-,25031953
00012024,LUSIANA,lusi_f9@yahoo.com,06061981
00031059,LUSIANA AS,-,12011966
00012007,LUSIANA EFFENDY DR MM,sekarwangi1909@gmail.com,10051963
00034594,LUSIANA FIFI NOVIANTI,lusiana.fifin@gmail.com,17051971
00034721,LUSIANA FONNY LAURY,l_fonny@yahoo.com,05021965
00035023,LUSIANA KURNIA SUSANTI,431lusiana@gmail.com,28041983
00025219,LUSIANA LASE,-,11041976
00009967,LUSIANA TONG,0,21011976
00022506,LUSIANI,ms.lusiotnasus@hotmail.com,11091995
00003794,LUSIANTI TRISNO,adelwiss_sian@yahoo.com,19121986
00004426,LUSIDIUS SIDIMANTO,x,26031953
80001547,LUSILIAWATY BUDIMAN,-,01051962
00033937,LUSY SHANTI,shantilusy@gmail.com,11101969
80001548,LUSYANA FRANSISKA SUTRISNO,-,19071966
00031475,LUTFI ANDIKA PUTRA,andika93site@gmail.com,30061993
00028803,LUTFI KURNIAWAN,generalmahardika@gmail.com,14121975
00019554,LUTFIAH,-,07081962
80001549,LUTINUS SANJAYA,-,05061981
00012689,LUVI TERIANOUM,anoum21@gmail.com,21101969
00030600,LUVSARI LAMBOK GULTOM,luvsarig@gmail.com,16031990
00029279,LUWANI HAW,luwanihaw123@gmail.com,13111973
00033439,LUXFI ALDI SAHESTIAN,luxfialdisahestian1012@gmail.com,12121995
00034260,LYANA HERAWATY HARTAWAN,-,22121953
00024781,LYCI PLYWITASARI. L,lyci-vip@yahoo.com,02011990
00033517,LYDIA AGNES WIDYA LIENJAYA,0,16071990
00014187,LYDIA AGUSTINE,-,07081973
00009365,LYDIA CHARLEY,-,07101981
00030927,LYDIA DEVINA KURNIAWAN,lydiadevina@yahoo.com,22121982
00009780,LYDIA HALIM KURNIAWAN,-,06101988
00011034,LYDIA LUKITO,-,18071943
00009355,LYDIA MANURUNG,lydia.manurung89@gmail.com,29071949
00034885,LYDIA NURHAYATI LIMPUTRA,-,04101976
00020914,LYDIA PRAWIRA,-,21121989
00004848,LYDIA SUSANTI,lydiasusanti56@gmail.com,04081979
00031899,LYDIA TUNGKA,-,04071954
00012487,LYDIA VERONICA,lydiaveronica23@gmail.com,23121996
00012107,LYDIA YULITA,lydia.yulita@gmail.com,16071988
00034596,LYLI ADNAN WONG,lilyadnanwong@gmail.com,29051967
00033508,LYLI FONG,lilyfong79@yahoo.com,02061979
00001134,LYLIA SUSANTY R,-,18081949
80001553,LYLIA SUSANTY R,-,19081949
80001554,"LYLIANA MARGARETHA, JAP",-,23031965
00010476,"LYLIANA MARGARETHA,JAP",japlie888@gmail.com,23031966
00013172,LYNA S,lynakumala@gmail.com,24021984
00008969,LYNDA KURNIAWAN,-,27071966
00030250,LYNDA REVITA RAJA GUKGUK,lynda.revita@gmail.com,20011973
00011018,LYNDA SUTANTHO,-,29121945
80001555,LYNDIA JUNIWATY IRAWAN,-,03061979
00019977,LYNNA GOEMOELIA,-,24071947
80001556,LYNNA JUSUF,-,13111948
00034363,LYSBETH VERONIKA NAIBAHO,veronicalysbeth@yahoo.co.id,15041973
00022066,M ADYA FIRMANSHA DILMY,-,25031983
00015620,M AGUNG WAHYUTOMO,grhatama7@gmail.com,10061970
00024255,M AINUL YAQIN,mhd.ainulyaqin@gmail.com,24031993
00031727,M AJI SAID,said.aji05@gmail.com,06081980
00007837,M ARDI SYARIEF S,ardi_king16@yahoo.com,16121980
00017983,M ARIF BUDIYANTHO,marifbudiyantho2@gmail.com,20091979
00025992,M ASRISAMAD,asriphotograph110@gmail.com,02021986
00024965,M AZHAR SYAHPUTRA,syahputraazhar@gmail.com,26031997
00010992,M BENNY,benny.powerplant@yahoo.com,19081980
00010983,M FAJAR YULIANSYAH,fajar_julio@yahoo.com,26071977
00030860,M FATHUS SAHIDIN,-,28061982
00024603,M FITYANI KADIR,fityanikadir@gmail.com,14071973
00006644,M G SUSANTI S,susanaliya74@gmail.com,13041974
00034745,M LAURENTYUS NAIBAHO,dwijayatek169@gmail.com,16071944
00012033,M M ENDANG WAHYUDATI,xxx,06101958
00012802,M MAHFUD,.,15071963
00014240,M MASLAN SIHOMBING NBB,-,03091957
00004508,M MUSLIH ARIFIN,-,06121957
00025512,M RAIHAN,mraihan_8@yahoo.com,05081999
00028494,M REZA SYAUQI ANHAR,eza_syauqi@yahoo.co.id,11111992
00022642,M SUTANTO,-,17071985
00014869,M SYOFWAN,muh.syofwan@gmail.com,04121983
00019250,M TITIK SRI HARDJANTI EP,-,22021962
00024467,M YASIN,myasinm756@gmail.com,23111960
00028834,M YUSUF,yusufmuh699@gmail.com,01071961
00030342,M. ALFI HIDAYAT,pahmi4324@gmail.com,25071997
80001558,M. GORETTI ERLIN MARDININGSIH,-,16031970
00021030,M. JUNIATI TJANDRAWIDJAJA,juniati_t@yahoo.com,08061960
00029001,M. LUQMAN PRAYITNO,mluqmanprayitno@gmail.com,13121989
00014516,M. RAHMAD WIDODO,mrahmadwidodo@gmail.com,26051983
80001560,M. SYAH REZA ANWAR,-,08111990
00024171,M. SYAHRIZAL,m.syahrizal_not@yahoo.com,28061981
80001561,M. TH OEI AY TIEN,-,19091952
00015527,M. ZAFRULLAH ARIFIN,0,20101957
00033500,M.ALFIAN,alfianmdn_dmi@yahoo.com,05021985
00018707,M.APANDI,-,01111971
00020803,M.CHRISTIANA SOESANTO,m.soesanto@gmail.com,20121983
00032608,M.DARMANSYAH,-,25101981
00014256,M.GORETTI ERLIN MARDININGSIH,-,16031970
00030999,M.IMAIS SAMSUL,imais.syamsul@gmail.com,14081989
00013560,M.M LOUIS TENDEAN,-,06101974
00024718,M.M. DWI ASTUTI ANDAYANI JACOUB,-,04061980
00021084,M.NOER QOMARI,-,10111958
00019156,M.ROSDIYANTO,anto.azkya1606@gmail.com,15111978
00001534,M.T. ANDAJANI ADINATA,-,27071951
00033373,M.T. SRI YULIASTUTI,maria.ninis@yahoo.com,13071969
00000723,M.TH.OEI AY TIEN,-,19091952
00024026,M.ZAIM MUBAROK,zaim.bangkit@gmail.com,07121984
00012163,M.ZUHRI,xxx,23011985
00014391,MA TJIE KIAN,tjie_kian36@yahoo.co.id,28031943
00031008,MACHMUDIN RUSLAN,mach.ruslan60@gmail.com,20011960
00014852,MACK M TITRANO MESSAKH,-,11051965
00029196,MADE ARIANTA ARIEF ADITAMA,0,23011990
00024611,MADE DEWI KARMINI,madedewi124@gmail.com,12041973
00003022,MADE GUNADI SUNDJAJA,,19031967
00030326,MADE RISMA M ARSHA,risma_arsha@yahoo.com,31031991
00004936,"MADE SETIASA, SE,MM SH.M KN",-,10101954
00026625,MADELINE MUSIDORA KHOLINA,madeline_musidora@yahoo.co.id,09031993
00035299,MADYA AHDIYAT,madyaabufath@gmail.com,23031980
00012065,MADYA KUNCARA,-,24051970
00021695,MAGDALENA,magda_mahir@yahoo.co.id,19111965
00019342,MAGDALENA CHRISTINE TIKA,0,13121964
00006796,MAGDALENA NUGROHO,-,13101961
00016420,MAGDALENA S LAYUK ALLO,magdalenalayukallo468@gmail.com,10091959
00000784,MAGDALENA WANNE,0,30031943
00033142,MAGHFIRA HABIBIE,-,16111988
00018506,MAHAGA MULYADI,ma_ha_ga@yahoo.co.id,11101982
00016493,MAHARANI,maharani.april@gmail.com,20041989
00003905,MAHARTANTI PUSPITASARI,tannata_ai@yahoo.com,11041984
00019796,MAHENDRA S.,andra19saputra@gmail.com,07091982
00023873,MAHENDRA SUJANA,mahendrasujana80@yahoo.com,05021980
00024028,MAHMUD POTALE,-,10021967
00029411,MAHMUD RIZAL,mri.zalee@yahoo.co.id,14071974
00031526,MAHRUDIN SAID,alexsongce@gmail.com,04061967
00001314,MAIRETTA GAYATRI,mairetta.g@gmail.com,08031985
00022607,MAISYARAH,-,02011984
00027930,MAITRI  CHRISTINE,-,30091947
00007522,"MAIWATI PUSPADEWIANA,SE",-,02101970
00001892,MAIZA PUTRI,maiza.putri@ymail.com,27051982
00028882,MAIZUN,maizuntarti@gmail.com,15051962
00011372,MAK KAM PIEW,-,27061950
00016471,MAKMUN,ad_rizmun@yahoo.com,03051971
00007914,MAKMUR TENANG,-,26061957
00026617,MALIK GUNTORO,-,09061960
00024696,MALIKASARI WINARKO,-,20091961
00010399,MALKIT SINGH,malkinsingh1@gmail.com,03011993
00019650,MALLINY,malmaliny78@gmail.com,07031964
00012970,MAMAN BADRUJAMAN,-,18101971
00026129,MAMAN HAKIM,-,21011969
00008542,MAMAN JUNAEDI,mamanjunaedi@ymail.com,11061979
00009687,MAMAN SUHERMAN,ramajayaglass@ymail.com,14051976
00002954,MAMIKE HARDIANTI,mamike32@yahoo.com,14051974
00029758,MANAY MANGIWA,-,27121969
00005076,MANCE IWAN,-,21061944
00030249,MANDA RATIHDEWI,mandaratihdewi@gmail.com,16071981
00026144,MANGAPUL LUMBANRAJA,mangapullumbanraja@gmail.com,03031989
00033082,MANGATAS PANDAPOTAN MARPAUNG,mangantas.marpaung@yahoo.co.id,27021984
00017167,MANGINDANG RITONGA SE,mangindangritongase@gmail.com,09091966
00023095,"MARA SUTAN SENTANI, ST",sentaniregar@yahoo.com,18091983
00009035,MARCEL SATRYA PRAMONO,-,02051985
80001565,MARCEL SEPTIAN SUSANTO,-,08091998
00015716,MARCEL SOPHIAN,marcel.sophian23@gmail.com,23031988
80001566,MARCELIA JESICA,-,18031986
80001567,MARCELLA AUDITTA,-,19101990
00021409,MARCELLA EINSTEINS,marcella.einsteins@gmail.com,05011990
00001196,MARCELLA HEVILA SUGI,hs.marcella@gmail.com,06041988
00027235,MARCELLA WIRIADI,shopvivi.ta@gmail.com,29011948
00007855,MARCELLIN FRANSISCA R.H,-,13121962
00012424,MARCHELINA,-,20031992
00009605,MARCUS EFFENDI TASLIM,-,18061954
00034648,MARCUS R NGARBINGAN,mngarbingan@gmail.com,22031953
00031169,MARCUS SUSANTO,susantomarcus99@gmail.com,26031963
00020339,MARDALINA KHO,-,29031978
00015736,MARDAN,mardanikhsan6@gmail.com,18031991
00029483,MARDHIYAH,antonsyarief@yahoo.co.id,14111983
00017040,MARDIAH,...,09011966
00028530,MARDIANA WIJAYA,mardiana.wijaya@yahoo.com,30091937
80001569,MARDIAWATI TANUWIDJAJA,-,05031947
00006867,MARDIN LAUDE,lainnya,18101962
00024173,MARDIYAKSA,mardybenung@gmail.com,12031977
00002805,MARDJONO RASMAN,mardjonor@yahoo.com,21081957
00024147,MARENSYA WENNY SOUMOKIL,-,28031985
00015481,MARETTA PUTRI,marettahuiriant@gmail.com,25031996
00032222,MARGARET PEGGY NATANAEL,0,27081941
00008870,MARGARET TAMPI,-,04091971
00031336,MARGARET TEH,-,10081945
00001223,MARGARETA TANDELA,tan_eta@yahoo.com,18031984
00007111,MARGARETA WONG,-,18041980
00026840,MARGARETE GRACE SUNANDAR,margaretegrace@gmail.com,17031989
80001573,MARGARETH,-,10031993
80001574,MARGARETH ANDRIANI,-,13101985
00004757,MARGARETHA,margaretha2185@gmail.com,21031985
00024548,MARGARETHA TAPPANGRARA,-,20031967
00031921,MARGARITHA KARTIKA KARYA,mkkhrk@gmail.com,27121973
00006022,MARGRIT RITA KUSANDRI,-,19071964
00009614,MARGYANA SOELING,soeling.maggie@gmail.com,16031981
00031417,MARHADI,ajibestcompany@gmail.com,01011971
00032938,MARHO M KOLOPITA,-,28031968
00007430,MARIA,-,09071973
00006944,MARIA,lainnya,25031956
80001576,MARIA,-,22071949
00002902,MARIA,eterniti@centrin.net.id,15081968
00029610,MARIA AGNES MELANI,agnes_melani@yahoo.co.id,21011969
00016024,MARIA ALKOQ MAGUNG,alkoqmaria15@gmail.com,15041952
00031642,MARIA ANGELA,miss.mariangelz@gmail.com,18091982
00013209,MARIA ANGELA ASTRID SANTOSO,astrid.santoso@gmail.com,16091992
00028449,MARIA CHRISTINA GOENAWAN,kegoenawan@gmail.com,17011978
00002793,MARIA CINDERELLA JOHANNES,aquastarski@yahoo.com,10021978
00029661,MARIA ERMALINDIS LILI,maria@gmail.com,10051988
00033362,MARIA ESTER GLADYS TAROREH,gladys.taroreh.gt@gmail.com,12021990
80001578,MARIA FONNY,-,13021977
00004429,MARIA FRANSISKA,siska150381@yahoo.co.id,25031981
00018952,MARIA GORETTI HANI SETIAWATI,xxx,30051945
00031395,MARIA JESSICA HERTANIA,jhertania@gmail.com,11071994
00033720,MARIA KRISTIANI,0,04031968
00011670,MARIA LAURENTIA CHRYSANTI,laura_9099@hotmail.com,22111968
00019932,MARIA LISA JUDANA,-,02031990
00013911,MARIA LISTIAWATI SUTRISNA,maria_sutrisna@yahoo.com,15031978
00020049,MARIA MAGDALENA,-,24021959
00011289,"MARIA MERDI VILLY S,DRA",-,01041948
00005856,"MARIA NATALIA,TAN",-,03101980
00029262,MARIA NUR YANTI,-,10031973
00018758,MARIA POLINNA FRIDA,polinna_frida@yahoo.com,21011971
00026970,MARIA RATNA ANTOINETTE,-,29091966
00014058,MARIA SANTOSO WIBOWO,-,15031951
00010947,MARIA SETIAWATI,-,05051934
00031457,MARIA SHINTA SARI,mariashinta1976@gmail.com,03071976
00022307,MARIA THELMA SOFIAN,-,20031978
00011987,MARIA VALENTINE WIDYAWATI,widyawati_mva@yahoo.com,06021960
00011816,MARIA VERONICA,-,14081978
00013213,MARIA VIANNEY MAARTY,-,20031974
00011720,MARIA WILLYA,...,19071954
00004472,MARIA WITIANTO,-,01051959
00007441,MARIA WIVIANA WIDJAJA,-,16011974
00013204,MARIA YAN FITRI YANI SUMANTRI,-,15011987
00022879,MARIA YULITA HYDRALI,-,31071980
80001580,"MARIA YULITA HYDRALI, SE",-,31071980
00023780,MARIAM ADAM,mariamadam1977@gmail.com,12011977
00032908,MARIAMAH,dwie1967@gmail.com,18071948
80001581,MARIANA,-,03121979
00033419,MARIANA GOZALI,marianagozali2016@gmail.com,09121959
00020770,MARIANA GULTOM,notaris.marianagultom@yahoo.com,22011958
80001582,MARIANA KASIM,-,10111969
00024730,MARIANA KURNIATUN,mariana84@gmail.com,28031984
00022385,MARIANA SOSANA SIBY,-,30121974
00027008,MARIANA UNTUNG,-,01031983
80001583,MARIANA WONGSO,-,08021953
00027776,MARIANCE SINAGA,sudiro_tmb@yahoo.com,24111983
80001585,MARIANI,-,23101967
00032136,MARIANI,marianipudjianto@gmail.com,23101967
00034875,MARIANI,-,14051961
00032503,MARIANI KOSHAN,-,01061959
00005925,"MARIANI LYDIA SANTOSO,DRA.,M.ENG",0,16101960
00034586,MARIANI SALIM,marianisalim2607@gmail.com,26071960
00011929,MARIANI SUHARDJA,0,21111957
00033085,MARIANNIE BUDIANTO,-,08041957
00024482,MARIANTHY ABDUL LATIF,-,09031984
00002302,MARIANY CHANDRA,meina.bcc@gmail.com,12031974
00031703,MARIATI,-,19011966
00025301,MARIATI PANJAITAN,-,10041951
00015519,MARIATI SUTOPO,mariati_sutopo@hotmail.com,30031965
00009812,MARIATY,-,01101971
80001588,MARIATY,-,01101972
00015008,MARIJA,-,17111948
00024069,MARINA ANGGASARI,marina.anggasari@gmail.com,24011974
00035204,MARINA PURNOMO,marina_purnomo@yahoo.com,29031961
00018603,MARINETTA RUBYANA KOMARA,-,11071960
00031516,MARINI,-,26101977
00000358,MARINI JAKUP,,17031983
00030399,MARINI PUTRI PRANATA,-,16031995
00008932,MARINO HENDARMIN,-,23031985
00010011,MARINY MAKARIUS,mariny.makarius@yahoo.co.id,19051981
00015048,MARIO,mario.130590@yahoo.com,13051990
00014493,MARIO,mariowid_glc@gmail.com,29031982
00030920,MARIO ADI NUGROHO,mario.adinugroho@gmail.com,22011983
00003698,MARIO FRANZ,xxxxxx,31011975
00027272,MARIO LOFA WANGSALY,-,28031985
00016630,MARIO RICHARD,mariorichardjarangga@yahoo.com,18071990
00035082,MARIO SETIADY,-,08101980
00015076,MARIOLEN,maryollen@gmail.com,10031983
00012157,MARISA VITRIKASARI,-,09121982
00009196,MARISSA JOHANNES,0,08121983
00004773,MARISSA LATUCONSINA,marissa_icha2387@yahoo.com,23031987
00018179,MARISSA MARCELLA,marissa.marcella@indosurya.com,10041987
00001457,MARITHA SIMAN,-,16031969
00008132,MARIUS WASINTON MARBUN,-,04041962
00023296,MARIWATI SANTOSO,-,23041967
00000727,MARIYANTI,,09041970
00014194,MARIYATI BADJASAPUTRA,-,23031968
00008247,MARIYO,mariyopasadena@gmail.com,28021973
00015751,MARKO,-,22091994
00014226,MARKO VERONARTA,kosilitonga251304@yahoo.com,25091985
00024462,MARKUS AMAN,-,13011963
00025313,MARLANDO ANTONY P,-,28031971
00022819,MARLEN MANUPUTTY,marlenmanuputty@gmail.com,11071971
00024640,MARLENA,-,12101958
00024917,MARLIAH,marliah.lhia@gmail.com,29091985
00027876,MARLIFI GUNARSO,0,06091974
80001594,MARLIN,-,09031981
00025448,MARLIN TAMPI,marlin.tampi@pt.phoenix.com,24061967
00004920,MARLINA,xxxx,07061967
00025317,MARLINA,-,07071978
00004301,MARLINA AGUNG,marlina_a@hotmail.com,20031964
00021914,MARLINA CHANDRA,marlina.chandra2@gmail.com,14031985
00030107,MARLINA MERRY KRISTINA T,linakristina084@gmail.com,15111990
80001595,MARLINA SEMEDI,-,06041962
00026328,MARLINA WIDIASTUTI,widya.hasta@gmail.com,13031976
00030410,MARLINE TANUSUKRIA,0,08071955
00005167,MARLIYANTI,tie_78marli@yahoo.co.id,28011978
00013896,MARLLY TALITA,0,12021987
00005559,MARLO RADITYA SANTOSO,xxx,30061983
00022349,MARLYTA GALIH KUSUMA,marlyta.gunawan@gmail.com,26041983
00034053,MARNIASIH,marniasih1403@gmail.com,14031988
00034475,MARNIS,hjmarnis22@gmail.com,05101951
00020795,MAROUW JHON AUGUSTYN,marouw.augustyn@gmail.com,16021990
00022722,MARRY KASEGER,-,17111962
00026927,MARSANGAP ALVIN P S,alvin.simatupang@gmail.com,07031979
00009412,MARSELINA INDRAWATI,marselinaindrawati99@gmail.com,18041975
00033980,MARSELLA TRIFANI,marsella.sugianto@gmail.com,21101988
00032240,MARSHA CLARISA,marsha.clarisa1095@yahoo.com,19101994
00009085,MARSHA HASJIM,marsha@nwgrandbali.com,19021990
00029658,MARSIKAN BIN ACHMAD MARIADI,marsikan.mariadi@gmail.com,19031973
00026101,MARSIKIN,marsikin.sumarjo@gmail.com,11071969
00006577,MARSYELINA TIRTADJAYA,-,14061980
00026778,MARTA LENA,farizal_atan@yahoo.co.id,26071974
00023944,MARTA SAMSURI,cesilmarta@gmail.com,24101963
00020104,MARTHA CAROLINA,tha_caroline03@yahoo.com,03011985
00017543,MARTHA LAZUARDITYA NOVITRI,mlazuardie@gmail.com,23111979
00033305,MARTHA RITA DAENG BANGU,-,15051975
00012686,MARTHA ULINA PANGGABEAN,marthaulina74@gmail.com,07031971
00021034,MARTHARIA,martharia.83@yahoo.com,14031983
00035001,MARTHEN FRANS KAPOYOS,borneo.beruang@gmail.com,31031949
00029936,MARTHEN LUTHER,marthen192@gmail.com,27051947
00026490,MARTHEN SARIMANELLA,-,31101960
00010866,MARTHIN LAUW,marthinlauw75@gmail.com,10101975
00033001,MARTIN,martin.hamzah08@gmail.com,08031981
00013433,MARTIN EFFENDY,martineffendy@rocketmail.com,06031979
00025733,MARTIN FRANKY PANTOLOSANG,-,04081983
00024441,MARTIN LINDA JUWITA,martin_alfreda@gmail.com,17031986
00005523,MARTIN TJIUSNOYO,xxx,05031984
00032444,MARTIN TRIADMAJA HENDRIADI,martin.fu@gmail.com,03031981
00024533,MARTINA RITA,-,04061964
00018463,MARTINAH SARYANI,-,12081973
00011806,MARTINI,-,16071960
00033798,MARTINI,angelleedragon@gmail.com,01071986
00027845,MARTINI BERLIANAWATI,kemalasaura@gmail.com,04031972
00030900,MARTINUS HENDRA KUNARDI,0,24031969
00028214,MARTINUS JOEWONO,.,06031988
80001600,MARTINUS SETIAMIHARJA,-,25051961
00024074,MARTINUS SUPRIYANTO,martin.mariongan@gmail.com,15051971
00012002,MARTO DARMAWAN HARTONO,-,08031977
00005113,MARTUA SITORUS,martuasitorus@gmail.com,26021974
00018326,MARUDUT TUA LUBIS,marudutlubis.isp@gmail.com,22051980
00034017,MARULI TUA TAMBUNAN,maruli.tambunan@gmail.com,18011980
00001792,MARVEL JAYA,marveljaya111@yahoo.co.id,14031988
00024041,MARVIN FRANSISCO LAINAMA,mm412vin@gmail.com,17031987
00021403,MARVIN LIE,drmarvinlie@gmail.com,22031988
00013963,MARVIN MATHEUS SUSANTO,-,04031981
00023614,MARWAN SIOWKURUR,marwan24366@yahoo.com.sg/eichaochi.eos@gmail.com,24031966
00025661,MARWATI,marwa@gmail.com,25041982
00011596,MARYA DANCHE,maryadanche@yahoo.com,19101976
00015174,MARYAH PHAN,marylee.phan@gmail.com,26011978
00030021,MARYAM JAMILAH AHSAN,amo.morata@yahoo.com,23051991
80001604,MARYAM MUSTIKANATA,-,05031933
80001605,MARYANI,-,28101980
80001606,MARYANTI,-,09031967
80001607,MARYATI SUDARSO,-,14041943
00002898,MARYATUN,tidak memiliki email (deviasi),27061969
00013414,MARYO BRACHMANTIYOKO,-,16101986
00001791,MARYOTO,mariojawa62@gmail.com,13061991
00024104,MARZAN SATRIA ASMAEDI,asmaedi.satria@gmail.com,10051987
00034737,MARZUKI SUMARLIN,zsocialbox@gmail.com,11031983
00033593,MAS ATIAH,0,04051954
00014939,MASDIANA,notaris.masdiana@gmail.com,26111976
00017613,MASDIANA,masdiana783@gmail.com,03101993
00017671,MASDIN,hjmasdin065@gmail.com,17041959
00034658,MASDUKI,ekadesniati@gmail.com,27121958
00021116,MASITA BUSRAH SE,m.busrah@yahoo.co,01111970
00016131,MASITAH,maman_mohammad@yahoo.com,05051968
00006036,MASITHA,masithanst@yahoo.com,09071984
00024740,MASKUR,maskur.hrm@gmail.com,01011971
80001608,MASLIN. S,-,08111970
00031728,MASLIN.S,maslinii70@gmail.com,08111970
00012386,MASNI,xxxx,27061975
00015671,MASNI TOWIDJOJO,-,22021967
00032809,MASPARTO PARANNA,masparto.mantong@gmail.com,16071985
00002236,MASRIA DNT SINAMBELA,ria.sinambela@yahoo.com,12111974
00027493,MASRIANA,riana1994@gmail.com,05041994
00020839,MASRIL,masril.pns@gmail.com,05051967
00024686,MASSUR DJAYAWANTO MAKMUR,massurdjayawanto@gmail.com,20031941
00028109,MASTER LUKAS,master.lukas.j@gmail.com,17111983
00006468,MASTUTI HENDARTO,-,26061959
00015492,MASWANI,maswani.mas@gmail.com,30061978
00029158,MATHEUS ALVIN PRAWIRA,matheus.prawira@gmail.com,28071992
00032560,MATHEUS AMADEUS SUPIT,-,16091987
00028083,MATHILDA LINA,-,28121965
80001611,MATHILDA LINA,-,26121965
00024272,MATIUS NANANG SUNTORO,nanangsuntoro@gmail.com,23061975
00024672,MATRIDI,marindopku@gmail.com,02031965
00022807,MATSEN TJANDRA,-,03041964
00009517,MAULANA,-,05051971
00030246,"MAULANA HARDY PRABOWO,SE",hardyzezo@gmail.com,18111987
00033667,MAULANA MUALAF,maulanam2012@gmail.com,20121982
00025128,MAULANA MUSTAQIM,-,08081987
00012293,MAULIDA ADITYAS,maulida.adityas@yahoo.com,23081994
00004831,MAULIYANA UTAMI RAHAYU,mauliyana_utami@yahoo.com,05101990
00031448,"MAULUDDIN,S.PD",mauluddin180@gmail.com,24101988
00015382,MAUREEN PATIANOM,-,25051954
00034425,MAUREEN SOUISAY,souisaymaureen@gmail.com,19121955
00033331,MAUREN MAGDALENA TANGEL,rickymauren@gmail.com,23031996
00027783,MAWARDIANSYAH,mawardiansyah1989@gmail.com,15021989
00031172,MAWARNI,lubnaani@yahoo.com,05051979
00030760,MAWARTI,mawarti@gmail.com,10011974
00024452,MAWARTI,-,07061959
00030506,MAWARTY,mawarty.l@gmail.com,13101973
00028254,MAX ARIFIN,-,15011939
00019613,MAX KARANGAN,0,23111964
00001767,MAY SURYANTO,may.suryanto@indosuryafinance.com,17051969
00011128,MAYA ANGGRAENI P,anggraeni.mayaa@yahoo.com,16081990
00024251,MAYA AUDINA,-,12111994
00024972,MAYA BUDIYATI,0,05101977
00019309,MAYA DESIANA,maya_desiana@yahoo.com,12051974
00015165,MAYA DWI DEVITA ANGGRAINI,-,14031979
00029327,MAYA ENZELLA,maiaenzella81@gmail.com,18101999
00000344,MAYA KUSUMA WARDANI,mayakusumawardani93@gmail.com,14011993
00024150,MAYA MARLINDA SOMPIE,marlinda.sgg@gmail.com,26031974
00031149,MAYANG PURNAWAN,may.mayang@gmail.com,07031985
00007853,MAYANGSARI HIDAYATI,mayang.airnav@gmail.com,06041987
00028626,MAYDO KUSUMA,maydo.kusuma@gmail.com,28051987
80001614,ME LING GUNAWAN,-,10101969
00034473,MECI RUSNELI,mecirusneli@gmail.com,20011972
00001903,MEDI YANTO,,28051971
00027156,MEDIA TURNIP,0,21061982
00033591,MEGA MARIANA LIMIADJI,0,04091955
00033006,MEGA PINASTIKA,-,22041990
00023787,MEGA PRIYANTI,mega.ucrit66@gmail.com,05111966
00030013,MEGA PUSPITA SARI,marketing.megga@gmail.com,05121985
80001618,MEGAWATI,-,22091957
00028143,MEGAWATI,candragid3@gmail.com,29031946
00018095,MEGAWATI,lim.megaa@gmail.com,27081993
00020744,MEGAWATI GONDO KUSUMO,-,02101963
00007114,MEGAWATI HALIM,-,03051961
00000734,MEGAWATI KURNIAWAN,xxxx,08051972
00013342,MEGAWATI ROHANI,-,30101987
00002303,MEGAWATIE CAHYANI,,04091958
00035231,MEGAWATY,-,07061949
00011559,MEI CHEN,meichen.luo@gmail.com,10031984
00024011,MEI ELIS ERJA HARAHAP,elis.assaf@yahoo.co.id,18051987
00032599,MEI JOENG PRAWIRA,-,26041964
00001290,MEI LING,meiling.meiling19@yahoo.com,24051974
00028857,MEI ROSI,kingmeisun@yahoo.co.id,03051975
00034324,MEI YANTI NAINGGOLAN,meididie@yahoo.com,21051972
00033947,MEICIWATY,-,18041959
00022127,MEIGAWATI TIKA,-,27011948
00033036,MEILANDIA JINU,melandia.jinu65@gmail.com,31051965
00030287,MEILANI CHANDRA,0,21041966
00003411,MEILANI FAJARWATI,mely.meiylanie@gmail.com,19011992
00035045,MEILANI KASAKEYAN,meilani.kasakeyan@gmail.com,25091969
00026224,MEILANI WIDJAJA,-,29061952
00015686,MEILANY TANDAJUNG,-,29041973
80001625,MEILIANA GUNAWAN,-,30061980
00007734,MEILIANA HALIM,n/a,13101952
00034482,MEILIANI OEIJ,sra.smrd@gmail.com,08011965
00010195,MEILIANTY VERONICA,0,02051957
00029862,MEILINA SUSILO,meina79@yahoo.co.id,26111979
00020043,"MEILINA, ONG",-,10051988
00019117,MEILISA,.,27051990
00035308,MEILISA PUSPADINI,meilisa.puspadini10@gmail.com,10061994
00010702,MEILISA RATNASARI SIMANJUNTAK,meilisaratnasari.simanjuntak@gmail.com,09051994
00007343,MEILY,xxx,22031972
00030280,MEILYANY,-,01101971
00032906,MEILYAWATI PUJIYONO,meilyawatipujiyono@gmail.com,15031963
00022871,MEIRA ASTRI,notarismeira@yahoo.co.id,05051974
00030438,MEIRAMA DEWI,meira_me25@yahoo.com,25051981
00010396,MEIRY SENDY PRASETYA,meirysendy.indosurya@gmail.com,17051982
00016767,MEISHARA CHRISTINA,-,22051985
00018753,MEISHIE THEO,-,11041972
00004829,MEISKE MANOREK,meiske.manorek@yahoo.com,14051954
00031861,MEISKE MEITA PAAT,-,24051976
00027306,MEISRA,juanxu7777@gmail.com,07051986
00016651,MEITA GUNAWAN,meitagunawan@ymail.com,21041978
80001628,MEITA SUTEDJA,-,26111949
00013138,MEITY EKAWATY TJOST,0,25051985
00015943,MEITY FELISITA SATYAWAN,-,03041951
00031889,MEIWARTI SUHANDI,-,22051967
00016353,MEIZA LOZIVAR PISANO,...,18051974
00029418,"MEKARWATI,FS.DRA",mekarwatifredtje@yahoo.com,19061963
00025827,MELANI,-,03081985
00013654,MELANI,0,22041992
00013824,MELANI DHARMA SURYADI,-,16041964
00028996,MELANI GIOVANI KATHERINA SUPARMAN,melanigiovani@gmail.com,15051994
00034724,MELANI INAWATY,xxxxx,15051948
00006044,MELANI RENI ANDRIANA,mreniandriana@gmail.com,03081962
00018466,MELANI SHAH TJANDRA,-,12111982
00018819,MELANI YUWONO,melani.yuwono@gmail.com,13051967
00008693,MELANIA ANGGRAINI,-,21071948
00009776,MELANIE KRISTANTI MASMAN,-,22041974
00025582,MELANIE SOETANTO,melrose_chen@yahoo.com,11121981
80001632,MELANIE WIRAWAN,-,12091958
00006240,MELDAWATI,-,25081950
00030471,MELI ROSITA,ardiesasongko9850@gmail.com,09051986
80001634,"MELIA CHRISTINAWATI, DRA",-,07091958
00000738,MELIA LUSTOJOPUTRO,-,03031975
00030305,MELIA RAHMAYANI,meliarahmayani@gmail.com,08061993
00035143,MELIA SUSANTIO,meliasusantio@yahoo.com,19081962
00016778,MELIA TIRTAWANGSA,melia.avindo@gmail.com,14051970
80001636,MELIA VANDA,-,26031987
00020416,MELIANA,0,12021978
00023027,MELIANA BUDI SANTOSO,melianabudisantoso@gmail.com,04041969
00025980,MELIANA EKA PUTRI,melianaekaputri12@gmail.com,19121991
00010359,MELIANA WIJAYA TJIE,-,19111954
00031888,MELIANI ONGKODINOTO,meli_m3l@yahoo.com,18011966
00007641,MELINA,-,26041964
00021717,MELINA KUSUMAH,0,02071953
00011263,MELINDA,hibiya07@hotmail.com,25051989
00006295,MELINDA,-,22031977
00002319,MELINDA AGATHA,melindayung@hotmail.com,13011976
00010222,MELINDA AGUSTINA SANJAYA,-,11081951
00032321,MELINDA LESMANA,0,26011954
00035140,MELISA DEWI,-,13031985
00025255,MELISA ESTER LOLINDU,melisaesterlolindu@yahoo.com,04031990
00008420,"MELISA JAPPY,ST",melisajappy@yahoo.com,14061973
00015529,MELISA TJIU,melisatjiu@gmail.com,09051966
00032144,MELISSA,meliss.hendry@gmail.com,24021987
00011515,MELISSA GANIE,-,24011982
00007730,MELISSA HALIM,melissa.halim@rocketmail.com,01051987
80001643,MELISSA PRILCIA KUSUMA WIJAYA,-,09041991
80001644,MELISSA SINTARI,-,22021987
00030327,MELISSA TAMBAYONG,melissa.tambayong@yahoo.com,26021984
00006049,MELISSA TENGGARA,-,25081994
00032371,MELIYANA,-,21071978
00004539,MELLY,,22071971
00029865,MELLY INDRAWATI,0,20121942
00006420,MELLY SETIAWATI,-,30091952
00027247,MELLYANA,mellyana.m@gmail.com,06071960
00002352,MELLYNI,mellyni@indosuryaksp.com,07031964
00029238,MELLYSA MARGARITA SUSILO,memellysa@gmail.com,19031995
00031315,MELLYSSA GUIANA,mellyssa guiana@gmail.com,27031993
00016939,MELVIN CHANDRA,melvin.chdr@gmail.com,03021993
00006051,MELVIN TENGGARA,-,22121991
00011288,MELVINA,0,17011950
00006141,MELVINUS KUSNAWAN,melvinuskusnawan1@gmail.com,01071984
00030678,MELY SURYANI,suryani_mely@yahoo.com,07021979
80001652,MELY TJANDRA,-,06021962
00032412,MELYANAWATI,am.meiliana@gmail.com,01091970
00014711,MEMI PURWANTI,memiipunk@gmail.com,02051973
00002382,MENTARI,m.mentari@indofood.co.id,04051992
00001888,MENTARI PASARIBU,mentari.pasaribu2410@gmail.com,14101991
00003799,MERA HATI ANGGRAENI,mera.anggraini@yahoo.com,16031986
00025715,MERA SUCI LESTARI,meralestari01@gmail.com,01051986
00021333,MERAHWATI IDUANSYAH,merahwati@marco.id,14091967
00029163,MERCY S SARAGIH,smerciany@gmail.com,24041943
00028568,MERI,-,06041970
00029737,MERI INDRAWATI,-,28061957
80001654,MERIANA,-,07041981
00033479,MERIANTI,-,20061971
80001655,MERIDIAN KARTINI MARDJUKI,-,14051979
80001656,MERIYATI,-,12081949
00024073,MERLIA KARTINI,m3rlia@yahoo.com,03041976
00016804,MERLIN,-,06021984
00026826,MERLIN,merlin.sarira@yahoo.co.id,22051982
00015646,MERLIN GUNAWAN,.,11061979
00032268,MERLINA ESTARIANA,linaesta7@gmail.com,18121971
00024648,MERLINA INDRIYANI EFFENDI,merlinaindriyani@gmail.com,03071971
80001658,MERLINA WIJAYA,-,16031975
00020422,MERLYN HERNININGRUM,-,22111974
80001659,MERRY,-,23061974
80001660,MERRY ALAM,-,04101957
00023099,MERRY GOE,-,23011961
00010722,MERRY JONMIN,xxxxxx,15031965
00010677,MERRY LIM,-,26081953
80001661,MERRY R REBECCA SITANGGANG,-,29021948
00014430,MERRY R. REBECCA SITANGGANG,cecilyaadelheid@gmail.com,29021948
00006693,MERRY SE,merry.tanuddin@gmail.com,14031975
00000740,MERRY SOETRISNA,msoetrisna@yahoo.com,30121972
00031585,MERRY SUKAWATI,-,17071963
00034292,MERRY SUNDARI SASMITA,merry.excellearn@gmail.com,06111955
00035092,MERRY SUWARNI HE,-,27081981
80001664,MERRY TANWIJAYA,-,23101953
00028989,MERRY YANTI,citralinggajaya@yahoo.com,30041975
00013040,MERRY YUNITA BURHAN,-,16061957
80001665,"MERRY, SE",-,14031975
00035032,MERSIA HASUGIAN,-,30041976
00025483,MERTHIN NTAHU,merthin.thin@gmail.com,29081983
00020514,MERY,-,12051970
00013687,MERY DIANTY SAMPULAWA,-,13051963
00026958,MERY HO,mery.ho@indosuryaksp.com,22121980
80001666,MERY ONGGONO,-,13031973
80001667,"MERY SOENGDJADI, DRA",-,12121963
00012629,MERYANI ANGGRAINI,merianianggraini@gmail.com,23101960
00014586,MERYN SAPUTRA,meryn.25@gmail.com,22031977
00024277,MESSY MEGAWATI,messy_1904@yahoo.com.sq,19041989
00031423,META SYARAH,meta.syarah@indosuryafinance.com,05011985
00006635,METAWATY,metawatywijaya@gmail.com,11021973
00011484,METI,-,26051993
80001670,METRANIKA,-,12011982
00006308,METTA ARIESTY SAPUTRA,moon_maia@yahoo.com,08041988
00015181,MEY CHING,0,18081973
00019184,MEYKA APRIULYANDI,meyka.apriulyandi@yahoo.com,05091980
00027453,MEYKE SUGIARTI JAPARI,meylejapari@gmail.com,13051972
00009981,MEYLANI,0,03081976
00016202,MEYLING,sariputrasidharta@yahoo.com,03051983
00032249,MEYNI DAMIA,meynidamia@gmail.com,06091991
00034514,MHD DENI,mhddeny87@gmail.com,12041987
00001673,MIA ALMAMIA TAMBUNAN,miatambs@gmail.com,13051980
00023999,MIA LAELASARI,-,31051971
80001671,MIA SUTANTO,-,21061982
80001672,MIA WIDHAYANTI RACHMAN,-,23021967
00008592,MIAN HASIHOLAN SITUMORANG,-,19111940
00035270,MICHAEL,michaeltjong01@gmail.com,06031993
00013557,MICHAEL ARLIE,-,03051988
00027318,MICHAEL ARTHUR,iammichael.arthur@gmail.com,16041987
00006610,MICHAEL CHANDRA,-,28081983
00016284,MICHAEL CHRISTIAN HALIM,michaelch.dotulong@gmail.com,15031970
00012213,MICHAEL FERDINAN,-,05111975
00002402,MICHAEL ISKANDAR,michael@dunextr.com,03091973
00024508,MICHAEL IWASE,michael.iwase@indosuryaksp.com,09091992
80001674,MICHAEL JULIAN C,-,02071997
00009595,MICHAEL JUWANA,mich_ael711@yahoo.com,03051979
00004548,MICHAEL KURNIAWAN,,27031975
00033333,MICHAEL M RINCAP,-,17051992
00025493,MICHAEL MAWIKERE,-,19111986
00008967,MICHAEL NUGROHO S,-,07101946
00004686,MICHAEL PAUL,mpse89@gmail.com,16021989
00014388,MICHAEL PRAYOGO,michael_prayogo90@yahoo.co.id,24101990
00021424,MICHAEL RIZALDY,-,09071977
00032953,MICHAEL SAPUTRA,michaelsaputra290192@gmail.com,29011992
00013921,MICHAEL SOESANTO,mike.ssnt@gmail.com,09071988
00004335,MICHAEL WIJAYA,,28121992
80001677,MICHELLA JANICE ARIYANTO,-,04051900
00027017,MICHELLA MARIA VIRGINE PRAYOGO,mmvp_92@yahoo.co.id,13051992
00025093,MICHELLE,michelledjunaidi@hotmail.com,14101991
00010039,MICHELLE,xxxxx,04011985
00008153,MICHELLE KUO,michellekyy92@gmail.com,26081975
00029374,MICHELLE SIETO,michelle_sieto@yahoo.co.id,08111975
80001679,MICHELLE VANESSA WINARYO,-,30102000
00035127,MICHELLE WIBOWO,-,14051990
00023179,MICHELLINA L TRIWARDHANY,michellina.triwardhany@danamon.co.id,08051966
00017082,MICHIKO ANDRIANI,0,05091964
00017834,MICHILI HAMZAH,0,28121967
00015953,MIDIAN,-,16071984
00005119,MIE LY,-,18101977
00018407,MIEKE JANTO,jantomieke@yahoo.com,16101956
00032092,MIEKE WINARTO,miekewinarto63@gmail.com,10031963
80001682,MIEKEWATI TANUDIWIDJAJA,-,06051962
00005727,MIEMIE MURNIATI,miemiemurniati@yahoo.com,17021960
00024576,MIFTAHUDDIN,miftahuddindrs@yahoo.co.id,12041962
00027006,MIGUEL DA COSTA SOARES,mdsbphpx@gmail.com,06011973
00005334,MIHARJA,.,14111978
00010330,MIKAELA LIVIANNA,0,09011959
00011797,MIKHA EFRANI,-,13091988
00014766,MIKHAEL GAERY UNDARSA,mundarsa@gmail.com,14061985
00033802,MIKHAEL JUNIARTO MAMBAYA,-,07061986
00025152,MIKHAEL ZBNIEV,mikhael.zbniev@gmail.com,14051988
00019665,MILA NOVITA NUGROHO,milanovita@yahoo.com,26061977
00002846,MILA PERTIWI SOEMINTO,mila.pertiwi@indosuryaksp.com,23111965
00005924,MILAN WIDJAJA,0,25081963
00004511,MILANI,,06061976
00033445,MILANINGSIH SOEBAGIJO,tomblok_mel@yahoo.com,05111961
00005376,MILAWATI,xxx,11041955
00022596,MILAWATI WAHYUASIH SH,milawati_wahyuasih@yahoo.com,26121965
00020740,MILIYATI,-,10051935
00032378,MILKA TANIA GUNA WIJAYA,xxx,30061999
80001685,MILLYANA JUSSY SH,-,15061942
00000743,MILY,-,14111964
80001686,MIMI,-,30121979
00022750,MIMI MARIYANI,-,25031977
00002827,MIMI SULASMI WAHYU,wiwiwahyu59@gmail.com,29061959
00024656,MIMI SUSANTY,-,09061956
00014255,MIMIE JUMIATI,0,07041949
00016903,MIMIN SUMINAR NAZAR NOE'MAN,mimin.nazar@yahoo.com,29121961
00008295,MIN RASDIANAH R,velisia_gunawan@yahoo.com,12011956
00028260,MIN SASTRAWIHARJA,minsastra@yahoo.co.id,01041951
00012840,MINA INDAHSI,-,25051955
00021753,MINAH,-,20021965
00015531,MINAH ISKANTO,minahiskanto@yahoo.com,24091972
80001688,MINARSO GONDOSISWANTO,-,07121961
00009155,MINAWARTY,-,05111971
00021294,MINDI,0,24061973
00012465,MINDO E A SIMANJUNTAK SH,frankchevchelios@gmail.com,08111967
00013350,MINERVA LAISINA,-,12051981
00006263,"MINI KAWIJAYA, TAN",0,10071969
00002175,MINTARDI NAGARABANI,nagarabani@gmail.com,23111966
00007402,MINTARIA,mintaria_mintaria@yahoo.com,27051969
80001690,MINTARJA LESMANA,-,12091967
00024048,MINTARTI,mintarti34@gmail.com,30071967
00010188,MIRA ADELINA HALIM,xxxxxx,08041980
00007292,MIRA EPRIYANTI,miraepriyanti@gmail.com,27041985
00024225,MIRA LIE,miralie7@gmail.com,03081957
00032233,MIRA NUZULITA GOODRIDGE,-,25091975
00024252,MIRA RINIENTA ANDIANI,-,12011994
00025272,MIRA ROSMA RAHAYU,mirarosmarahayu@gmail.com,16061977
00032731,MIRAH MIDADAN FAHMID,-,13091993
00007241,MIRAKEL ARON L TOBING,arontobing@gmail.com,27081987
00031459,MIRANDA AMARA PUTRI,-,13031996
00025216,"MIRANTI,SKM",-,11071979
00026445,MIRANTY SYAFIRA HARAHAP,-,12121975
00031610,MIRAWATI,-,26051965
00032601,MIRAWATI DEWI,-,23031972
00021154,MIRAWATY,mira99waty@gmail.com,15051974
80001693,MIRAWATY AUGUSTHINA K.,-,03031953
00031176,MIRAWATY SUWANDI,tidak ada email,08041978
80001694,"MIRAWATY SUWANDI, SE",-,08041978
00025300,MIRDA HADIATI,-,06031978
00011230,MIRNA MELLIANI BONETTE,myer77bon3te@gmail.com,18101977
00034102,MIRZAN,cv.mutiabersaudara@gmail.com,06071987
00034926,MISBAH ISHAK,misbahishak70@gmail.com,03071970
00023385,MISBAH NUR SYAH BASRI,-,23081977
00024529,MISKE SJELFIE KAUNANG,-,23041970
00028761,MISTAR,mistarsmt@gmail.com,05091967
00001648,MITA SICILLIA,,02021983
00029874,MOCH ALI,sibenar77@gmail.com,30081977
00031525,MOCH IKFANUDIN,evanmaherta9291@gmail.com,15101990
00024216,MOCH J RIZAL,-,08081960
00034700,MOCH TAUFIK RIANTOSO,taufik.riantoso@gmail.com,02081957
00029341,MOCH. ALI NOERDIN,muhammad_ali_nurdin@yahoo.com,23021984
00005333,MOCHAMAD ARIEF HIDAJAT,-,27101963
00022331,MOCHAMAD BABU SALAM,-,06081994
00033685,MOCHAMAD ERSJAD,mochamad.ersjad@gmail.com,21011988
00034152,MOCHAMAD RANGGA RHAMDANY,rangga.otosentrum@gmail.com,10061984
00016507,MOCHAMAD RIDWAN,ridwan3232@yahoo.co.id,28111978
00009785,MOCHAMAD SUBERI,my_beary@yahoo.com,14021982
00007711,MOCHAMAD TAUFIK,mochamad.taufiklubis9@gmail.com,09011985
00009543,MOCHAMAD YUSUP HERYANA,0,08101979
00004811,MOCHAMMAD ERFANUDIN,eraka0049@gmail.com,15121987
00029697,MOCHAMMAD GUSTIADI,mochammad_gustiadi05@yahoo.com,26051988
00018093,MOCHAMMAD IQBAL GINANJAR,0,18021990
00008194,MOCHAMMAD LUTFI SYAMI,mluthfisyami@gmail.com,05121998
00012222,"MOCHAMMAD RIF'AT,S.E.",moch.rifat@yahoo.co.id,02121967
00004930,MOCHAMMAD SYAIFUL ANWAR,syah0978an@gmail.com,12091978
00025072,MOCHTAR WIRIADI,-,10071945
00005344,MODIWATI KARUNIA MULIA,-,10081961
00014637,MOE LIN YAKUB,mlyakub@yahoo.com,18031969
00021625,MOEHARTATIK,-,15071962
00014595,MOELIANAWATI KOESNO,moel_liana152@gmail.com,29091946
80001697,MOELIJONO,-,29011944
00023771,MOERTJAHJO,moertjahjo58@gmail.com,30081958
00025957,MOESTIJANTO,-,12011967
00014857,MOH ADAM,adammaziero@gmail.com,13061994
00017125,MOH SAKRI,0,12121975
00021763,MOH.ANSORI,xxx,16051987
00019838,"MOH.HAFI,IR",-,17021963
00009746,MOHAMAD BADRI,blazarino9@gmail.com,12091982
00016116,MOHAMAD FEROZE AKBANY,-,27081958
00010888,MOHAMAD NUROKHIM,s.akhmadrakhati@gmail.com,21011976
00017787,MOHAMAD SAMELAN,-,10051969
00024135,MOHAMAD SODIKIN,mohamad.sodikin@yahoo.com,03061976
00021795,MOHAMMAD ANDY SAPUTRA,-,21041982
00032326,MOHAMMAD GANEZA IKHSAN,ganeza30@gmail.com,30061996
00031577,MOHAMMAD HAKIM ABDULLAH,mohammadhakim6595@gmail.com,06051995
00016103,MOHAMMAD IQBAL,moh.iqbalindosurya@gmail.com,18021986
00007333,MOHAMMAD NASAR GUSTI M,-,03101995
00021767,MOHAMMAD RAI,xxx,01031973
00030271,MOHAMMAD RIZAL SE,moh.rizal@panin.co.id,28011982
00024429,MOHAMMAD RUDIANSYAH LIHAWA,rudylihawa@gmail.com,13091987
00017510,MOHAMMAD SABIRIN,-,14111980
00022650,MOHAMMAD SUGIHARTO,sugiharto.m23@yahoo.com,03051975
00010812,MOHAMMED ASLAM AKBANY,-,27121976
00018252,MOHD ZULFAN,zulfanaceh12@gmail.com,12041978
00024285,MOHIT THAKURDAS PURSANI,-,22051987
00025297,MOHRI,ahmadsina83@gmail.com,27041973
00015965,MOK KIOE FONG,-,28031971
80001698,MOK SUI TJIN,-,14021957
80001699,MOMELIANTI,-,26091978
00006364,MOMI MIARNI ARIFIANTI,0,10121977
00006949,MONA SUSANTO,mona.susanto@yahoo.com,07061973
00005271,MONA YUSUF LIEM,b730ww@yahoo.com,15031962
00005322,MONALIESYAH,-,26121961
00018221,MONALISA,-,10021975
00015956,MONALISA HERAWATI,monajustin20@gmail.com,06061977
00030335,MONANG PANJAITAN,-,23031977
00034198,MONANG SUKMAWATI,monang01@gmail.com,10101996
80001701,MONICA,-,17031983
00015436,MONICA BENA AVERINA,0,08021994
00034376,MONICA CORINA,monica.corina@sap.com,28031992
00013712,MONICA NATHALIA,-,08091978
00021024,MONICA SRI SUHENI K,kenny.renka@gmail.com,15121962
00016419,MONICA TANRI,monica.tanri@yahoo.com,06101993
00001863,MONIKA MANGISI S. HUTAGALUNG,monika.galoeng@gmail.com,24081990
00026630,MONINA ISKANDAR,eupraxia13@hotmail.com,13031985
00008562,MONO SUPRIATNA,monosupriatna9@gmail.com,21071980
00000747,MORAWATI,mora_8111@yahoo.com,11011981
00027612,MORINA LIERIENCE,morina.ong@themimohome.com,16081983
00010988,MOSES DHARMAWIRYA,-,23031979
00031731,MOULIDYA REVATILLA,moulidya.98@gmail.com,07081998
00023921,MOZES TOMASILA,-,16041965
00033523,MSF P. KASMIR AGUNG,kasmiragungmsf@gmail.com,03041973
00033377,MUADIL,adyeadye121@gmail.com,28051986
00015374,MU'ALIM,-,25011967
00009428,MUARA TUA,muara_tua@indosuryaintifinance.com,12111978
00032851,MUCH PASJON,jojan1160@gmail.com,11111961
00013952,MUCH. VIKI ARIYANTO,-,12101987
00012483,MUCHAMAD PRASTIYO,muhamadprasetyo25@gmail.com,19041993
00031817,MUCHDAR UMAR,muchdar59@gmail.com,11101959
00009456,MUCHLIS,muchlis_lbs@yahoo.com,05051980
00030813,"MUCHLISA, A.MD",-,29091972
00007896,MUCHSIN,-,19081971
00012225,MUGIJANTO SUGIJONO,endah_lpg@yahoo.com,10021942
00025246,MUH ARIANSYAH,muh.ariansyah.58451@gmail.com,04021987
00024234,MUH ARVIN THAMRIN,arvin9099@gmail.com,21061970
00021773,MUH IRSAN,-,25061986
00015842,MUH SULWAN LAPONANGI,muhammadsulwanlaponangi85@gmail.com,13091985
00023954,MUH. ADIL HAMZAH,muh.adilhamzah@gmail.com,15051990
00019720,MUH. RACHMAD R.,-,05041960
00026701,MUH. TRI SAKTI,tri.sakti@gmail.com,30061994
00025811,MUH.IRFAN FAHLEFI,irfanfahlefi79@gmail.com,22061979
00021511,MUHAMAD ADHI DARYANTO,adhi_yanto89@gmail.com,12101960
00001865,MUHAMAD AKBAR,akbar.delonge88@gmail.com,16051988
00009540,MUHAMAD AMIRUDIN,sasa_rafi@yahoo.com,18071974
00033901,MUHAMAD ARIEF,muhamad_arief46@yahoo.com,05111985
00004591,MUHAMAD FAISAL,faisalgebluk@gmail.com,16051995
00015790,MUHAMAD FARKHAN,-,17121975
00032190,MUHAMAD HENRY FASHA,henry.fasha@yahoo.com,30031984
00003223,MUHAMAD IMAN FIRMAN,imanfirman255@gmail.com,02011986
00008678,MUHAMAD IRVAN,muhamadirfan078@gmail.com,01111979
00030647,MUHAMAD LINGGAR PRASINDRA,razorblue@gmail.com,10041997
00015788,MUHAMAD NOOR AHDYAD,ahdyad31@gmail.com,18111983
00029608,MUHAMAD RAMDANI,0,29031990
00006689,MUHAMAD RIDWAN,ridwan4625@gmail.com,14061989
00010816,MUHAMAD RIFANI,irfantea317@gmail.com,05041980
00015755,MUHAMAD RIYADI WIJAYA,muhamadriyadi@gmail.com,24081979
00015674,MUHAMADU DRS H,-,21051949
00029476,MUHAMMAD AHSIN ARSADI,acebresson@gmail.com,03121972
00030811,MUHAMMAD ALKHAZIMI,-,30031998
00003366,MUHAMMAD ARDI RAHMANSYAH,ardirahmansyah@gmail.com,09121988
00025149,MUHAMMAD ARIEF TAUFAN,muharieftaufan@gmail.com,04041990
00023044,MUHAMMAD ASWIN,muhammadaswin88@yahoo.com,02011988
00034329,MUHAMMAD BAGUS RAHARJO,xxx,29032002
00016197,MUHAMMAD BERLIAN,m.berlian@gmail.com,02021975
00012723,MUHAMMAD DIKKO JUNIANSYAH,mdikkojuniansyah@gmail.com,13061980
00034301,MUHAMMAD FADILLAH SAGAF,sagaffadil07@gmail.com,07061999
00023107,MUHAMMAD FARUQ,faruq_muh63@gmail.com,15021986
00032619,MUHAMMAD GAYA RIZANKA,rizankayara@gmail.com,07011988
00007978,MUHAMMAD HANIF PUTRA ADIYAT,muhammadhanif548.mh@gmail.com,01061990
00001950,MUHAMMAD HASAN LEO,muhammadhasanleosiregar@gmail.com,01081989
00028825,MUHAMMAD HULAIMI,muhammad.hulaimi@gmail.com,09041993
00023290,MUHAMMAD ICHSAN,-,23021989
00016960,MUHAMMAD IKBAL,ikbalsyarif0@gmail.com,01111988
00025221,MUHAMMAD ILHAM,-,18081998
00030560,MUHAMMAD IQBAL,dtion59@gmail.com,27061987
00031666,MUHAMMAD IQBAL,vedno07@gmail.com,21071994
00023709,MUHAMMAD IQBAL SUYUDI,iqbal.suyudi@ymail.com,04091989
00014885,MUHAMMAD IRWAN,muhammadirwantrakhir045@gmail.com,09021998
00032688,MUHAMMAD LUKMAN,dronephantom0@gmail.com,06111975
00029120,MUHAMMAD LUTFI EDYANTO,mledyanto@gmail.com,19051979
00023453,MUHAMMAD MISHBAHUL MUNIR,muhammadmunir@indosuryafinance.com,23021988
00009021,MUHAMMAD NUR RAHAYU,nur_rahayu13@yahoo.co.id,13111975
00011167,MUHAMMAD PINONGKO SOEREDJO,0,15021972
00013052,MUHAMMAD PUTRAWAN,muhammadputrawan26@gmail.com,26091995
00031695,MUHAMMAD RAFIQ,-,27011991
00024305,MUHAMMAD RAGIL,mragil72@yahoo.com,10051972
00016249,MUHAMMAD RIDHO A,kitiank100@gmail.com,17091993
00025688,MUHAMMAD RIKZA SAFIRI,rikzasafiri@gmail.com,02081982
00008334,MUHAMMAD RIZKI,rizkielshirazy@gmail.com,19081993
00026883,MUHAMMAD RIZKY,mrizky5600@gmail.com,05062000
00014906,MUHAMMAD RIZKY IRAWAN,-,21061995
00033544,MUHAMMAD RODHY,mrodhy@gmail.com,20071965
00029393,MUHAMMAD ROIS PURNA,roispurna14@gmail.com,14121995
00017713,MUHAMMAD ROMI,romifimel78@gmail.com,09061978
00024200,MUHAMMAD SEPRIANUS THE,-,18021967
00030256,MUHAMMAD SHABUR,elsahsumy@gmail.com,23031985
00029727,MUHAMMAD SILAHUDDIN,muh.silahuddin@gmail.com,10101977
00025694,MUHAMMAD SYAFA'AT,-,23041985
00005782,MUHAMMAD SYAFAR,-,18061956
00024545,MUHAMMAD THAUFIK,muhammadthaufik11@gmail.com,29041982
00034843,MUHAMMAD TRIZKI FAHMI,trizkifahmi@gmail.com,10091987
00015841,MUHAMMAD YANI,yanimamad696@gmail.com,18041987
00010178,MUHAMMAD YASID,myasid24@gmail.com,09031994
00007432,MUHAMMAD YUSUF,doank.my@gmail.com,03061990
00019374,MUHAMMAD YUSUF LEMAN,myusufleman01@gmail.com,01081952
00015759,MUHAMMAD ZAINI,-,21041962
00030245,MUHAMMAD ZAINUL NABIL,nabil05@gmail.com,31081997
00003610,MUHAMMAD ZELANI,jay_abimayu@yahoo.com,01081970
00023382,MUHAMMAD ZUKI,-,12021987
00017683,MUHAMMMAD ISHAQ FAWSY,ishawsorizawa@gmail.com,30051989
00007558,MUHARAMSYAH,mtp_perkasa@yahoo.com,15071952
00019353,MUHARTIN,-,06091985
00023514,MUHAYAT,muhayat9000@gmail.com,21011992
00034393,MUHIBBUDDIN,muhibnur@gmail.com,05111963
00025548,MUHLASIN,-,30101982
00023707,MUJIONO HS,mujionohs1@gmail.com,14081961
80001706,MUJUR TANDI,-,28021979
00028278,MUKHLIS MAULANA,mukhlis.acong@gmail.com,28121994
00015170,MUKMIN ANSHORI,mukminanshori@gmail.com,19031986
00004870,MUKRI,latief579@gmail.com,27021961
00011301,MULI SANTOSO,-,23051981
00018725,MULIA PARLUHUTAN SIAHAAN,moelya64@gmail.com,15011964
00008713,MULIADI HARDJA,-,23121960
80001708,MULIADI UTOMO,-,28051978
80001709,MULIAHADI,-,21021983
00023006,MULIANA TEGUH,--,24111964
00033882,MULIANI SUTIONO,uniharyoko@yahoo.com,03051964
00000750,MULIANNY TASMIN,-,21071957
00026331,MULIATI,muliati_jhermawan@yahoo.com,14111970
00026996,MULIAWAN JAHJA,-,18081945
